============= Stage 1 Model, version 1.0 ====================
Loading Data...
data dimension is (1500, 39)
for your reference, columns' name and index are as follows: 
('Date', 0)
('Date.1', 1)
('DataText', 2)
('ID', 3)
('Learning-1,Test-0,OutSample-2', 4)
('SP_Change', 5)
('SPOpenDay', 6)
('SPCloseDay', 7)
('DailyChangeX100', 8)
('Unnamed: 9', 9)
('DailyNormalized', 10)
('Round', 11)
('Bucket', 12)
('SPDailyChangeX100', 13)
('UpOrDown', 14)
('Shiller P/E 10', 15)
('Dividend D', 16)
('Earnings E', 17)
('CPI', 18)
('Long Interest Rate GS10', 19)
('Real Price', 20)
('Real Dividend', 21)
('Real Earnings', 22)
('Industry Production', 23)
('CPIAUCSL (CPI FRED)', 24)
('MICHExpectedInflation', 25)
('Weekly Sentiment bullish', 26)
('RealGDP-Quarterly', 27)
('RiskPremium', 28)
('US_BusinessConfidenceIndex', 29)
('G7_BCI', 30)
('US_MoneyStockM2', 31)
('US_ConsumerConfidence', 32)
('US_CompositeLeadingIndex', 33)
('US_InitialClaims', 34)
('US_CivilianUnEmP', 35)
('US_CollegeGradUnEmp', 36)
('TenYearTreasury', 37)
('UMichConfidence', 38)
=============================================================
Selected discrete y as Bucket
Selected continuous y as SP_Change
Selected x starts at Shiller P/E 10
=============================================================
Running SVM...
SVM Demo, version 1.1 with new buckets
2016-03-25
Loading Data...
Training set input data dimension is (1500, 24)
------Beginning SVM Run------
Setting up k-nearest neighbor classifier...
default value = 5 works fine
Done, checking KNN accuracy...
Hit ratio: 0.533333333333

Setting up linear SVM ver2...
Done, checking linear SVM ver2 accuracy...
Hit ratio: 0.57

Setting up poly-kernel SVM...
Done, checking Ploy-kernel SVM accuracy...
Hit ratio: 0.436666666667

Setting up RBF-kernel SVM...
Parameters for this predictor are:
{'kernel': 'rbf', 'C': 1.0, 'verbose': False, 'probability': False, 'degree': 3, 'shrinking': True, 'max_iter': -1, 'decision_function_shape': None, 'random_state': None, 'tol': 0.001, 'cache_size': 200, 'coef0': 0.0, 'gamma': 'auto', 'class_weight': None}
Done, checking RBF-kernel SVM accuracy...
Hit ratio: 0.571666666667

Setting up k-means clustering...
In this run, it's 5-means
Done, checking k-means clustering accuracy...
Hit ratio: 0.175

Running Grid Search for SVM Parameters (C, kernel, gamma)
Testing rbf /linear /polynomial /sigmoid kernels
......Searching......

GridSearchCV took 4.88 seconds for 13 candidate parameter settings.
Model with rank: 1
Mean validation score: 0.572 (std: 0.002)
Parameters: {'kernel': 'rbf', 'C': 1, 'gamma': 0.0001}

Model with rank: 2
Mean validation score: 0.572 (std: 0.002)
Parameters: {'kernel': 'sigmoid', 'C': 1}

Model with rank: 3
Mean validation score: 0.572 (std: 0.002)
Parameters: {'kernel': 'sigmoid', 'C': 10}

Best parameters set found on the training set:
{'kernel': 'rbf', 'C': 1, 'gamma': 0.0001}
/------------------------------/
Done, checking SVM accuracy...
Hit ratio: 0.566666666667

Total time taken: 6.12 seconds

------End of SVM Run------
=============================================================
Running SVR...
Loading Data...
Training set input data dimension is (1500, 21)
------Beginning SVR Run------
Setting up SVR...
Score is -0.036721728998
Applying inverse_transform by scalerY...
Done, checking SVR accuracy...
Root mean sqaure error is: 1.31733346833
Discretizing...
Calculating hit ratio...
Hit ratio: 0.455
/*******************************/
=============================================================
Running Logistic Regression...
Log Regression Demo, version 1.0
Loading Data...
Training set input data dimension is (1500, 24)
------Beginning Logistic Regression Run------
Setting up log regression model classifier...
Done, checking log reg model accuracy...
Hit ratio: 0.571666666667
/*******************************/
SGDClassifier Demo, version 1.0
Loading Data...
Training set input data dimension is (1500, 24)
------Beginning SGDClassifier Run------
Setting up stochastic gradient descent classifier...
SGDClassifier(alpha=0.0001, average=False, class_weight=None, epsilon=0.1,
       eta0=0.0, fit_intercept=True, l1_ratio=0.15,
       learning_rate='optimal', loss='log', n_iter=5, n_jobs=1,
       penalty='l2', power_t=0.5, random_state=None, shuffle=True,
       verbose=0, warm_start=False)
Done, checking SGDClassifier accuracy...
Hit ratio: 0.171666666667
/*******************************/
=============================================================
Running CART Decision Tree Classifier...
 Classification and Regression Trees (CART) decision tree algo Demo, version 1.0
Loading Data...
------Beginning CART Run------
###Accuracy for training set...
             precision    recall  f1-score   support

       -2.0       0.92      1.00      0.96        83
       -1.0       0.95      0.99      0.97       230
        0.0       0.99      0.98      0.99       858
        1.0       1.00      0.95      0.98       267
        2.0       1.00      1.00      1.00        62

avg / total       0.98      0.98      0.98      1500

[[ 83   0   0   0   0]
 [  3 227   0   0   0]
 [  4   9 845   0   0]
 [  0   2  11 254   0]
 [  0   0   0   0  62]]
###Accuracy for validation set...
             precision    recall  f1-score   support

       -2.0       0.19      0.16      0.17        38
       -1.0       0.16      0.19      0.17        91
        0.0       0.64      0.61      0.62       340
        1.0       0.21      0.22      0.22       103
        2.0       0.09      0.07      0.08        28

avg / total       0.44      0.43      0.43       600

[[  6   4  17   7   4]
 [  7  17  42  17   8]
 [ 13  58 209  54   6]
 [  2  23  52  23   3]
 [  4   5   9   8   2]]
###Calculating hit ratio...
Hit ratio: 0.428333333333
===================== Saving Results... ==========================
For averaging, we have: 
Hit ratio is 0.583
For bagging, we have: 
Hit ratio is 0.587
================= End of Demo ===============================
