Date,CloseYesterday,SP_Change,5y5yForward
2/3/06,1270.839966,-0.005641911,2.51
2/6/06,1264.030029,0.00087021,2.52
2/7/06,1265.02002,-0.004513778,2.53
2/8/06,1254.780029,0.002263322,2.44
2/9/06,1265.650024,0.004179651,2.43
2/10/06,1263.819946,-0.006567348,2.43
2/13/06,1266.98999,-0.001799533,2.45
2/14/06,1262.859985,0.000736436,2.44
2/15/06,1275.530029,0.002485219,2.44
2/16/06,1280,0.000703125,2.42
2/17/06,1289.380005,-0.002761021,2.42
2/21/06,1287.23999,-0.001654695,2.44
2/22/06,1283.030029,0.003102009,2.4
2/23/06,1292.670044,-0.002220245,2.4
2/24/06,1287.790039,-0.001079399,2.42
2/27/06,1289.430054,0.002675559,2.4
2/28/06,1294.119995,-0.00861589,2.38
3/1/06,1280.660034,0.003919827,2.43
3/2/06,1291.23999,-0.002873199,2.44
3/3/06,1289.140015,-0.001148064,2.46
3/6/06,1287.22998,-0.001468254,2.47
3/7/06,1278.26001,-0.00265205,2.45
3/8/06,1275.880005,-0.001779168,2.4
3/9/06,1278.469971,0.001814692,2.42
3/10/06,1272.22998,0.006343208,2.44
3/13/06,1281.579956,0.0037142,2.45
3/14/06,1284.130005,0.001822242,2.47
3/15/06,1297.47998,-0.000763002,2.48
3/16/06,1303.02002,0.001458136,2.44
3/17/06,1305.329956,0.0003984,2.42
3/20/06,1307.25,-0.002616179,2.42
3/21/06,1305.079956,-0.000973087,2.39
3/22/06,1297.22998,0.002335762,2.38
3/23/06,1305.040039,-0.004291086,2.4
3/24/06,1301.670044,0.002827104,2.39
3/27/06,1302.949951,-0.00158099,2.39
3/28/06,1301.609985,-0.00069144,2.41
3/29/06,1293.22998,0.001948625,2.43
3/30/06,1302.890015,0.002271861,2.44
3/31/06,1300.25,0.001069025,2.44
4/3/06,1302.880005,0.003308052,2.45
4/4/06,1297.810059,0.001417727,2.43
4/5/06,1305.930054,0.002304829,2.44
4/6/06,1311.560059,-0.002592378,2.45
4/7/06,1309.040039,-0.005675945,2.5
4/10/06,1295.51001,0.001397125,2.52
4/11/06,1296.599976,-0.006301077,2.49
4/12/06,1286.569946,0.000396445,2.48
4/13/06,1288.119995,0.00135081,2.48
4/17/06,1289.119995,0.001241161,2.48
4/18/06,1285.329956,0.005173803,2.53
4/19/06,1307.650024,-0.002133617,2.57
4/20/06,1309.930054,0.002748197,2.52
4/21/06,1311.459961,0.002188431,2.51
4/24/06,1311.280029,-0.002875075,2.51
4/25/06,1308.109985,-0.00107788,2.6
4/26/06,1301.73999,0.004808956,2.59
4/27/06,1305.410034,-0.001371243,2.66
4/28/06,1309.719971,0.0028785,2.69
5/1/06,1310.609985,0.00191515,2.72
5/2/06,1305.189941,0.003769611,2.67
5/3/06,1313.209961,-0.004942059,2.65
5/4/06,1307.849976,0.003991302,2.65
5/5/06,1312.25,0.004861878,2.64
5/8/06,1325.76001,-0.001289834,2.65
5/9/06,1324.660034,-0.000369932,2.68
5/10/06,1324.569946,-0.000800219,2.67
5/11/06,1322.630005,-0.00660805,2.64
5/12/06,1305.880005,-0.007267134,2.66
5/15/06,1291.189941,0.001316661,2.65
5/16/06,1294.5,0.000463499,2.63
5/17/06,1291.72998,-0.005465523,2.67
5/18/06,1270.25,0.001393426,2.65
5/19/06,1261.810059,0.00205256,2.59
5/22/06,1267.030029,-0.00455398,2.59
5/23/06,1262.060059,0.007368858,2.58
5/24/06,1256.560059,0.00389153,2.58
5/25/06,1258.410034,0.004537445,2.58
5/26/06,1272.709961,0.001233619,2.59
5/30/06,1280.040039,-0.007085746,2.61
5/31/06,1259.380005,0.007583092,2.6
6/1/06,1270.050049,0.004220268,2.61
6/2/06,1285.709961,0.001882259,2.6
6/5/06,1288.160034,-0.003431277,2.58
6/6/06,1265.22998,-0.003224694,2.52
6/7/06,1263.609985,0.001930987,2.49
6/8/06,1256.079956,-0.005787813,2.48
6/9/06,1257.930054,0.002353029,2.46
6/12/06,1252.27002,-0.00158913,2.5
6/13/06,1236.079956,-0.003956019,2.5
6/14/06,1223.660034,0.003203476,2.49
6/15/06,1230.01001,0.010284461,2.52
6/16/06,1256.160034,-0.005246174,2.55
6/19/06,1251.540039,-0.003683493,2.51
6/20/06,1240.119995,0.001838536,2.53
6/21/06,1240.089966,0.006805985,2.53
6/22/06,1251.920044,-0.004049815,2.56
6/23/06,1245.589966,-0.000200681,2.55
6/26/06,1244.5,0.001229409,2.55
6/27/06,1250.550049,-0.000151972,2.55
6/28/06,1238.98999,0.000960468,2.55
6/29/06,1245.939941,0.009454757,2.62
6/30/06,1272.859985,-0.000534218,2.59
7/3/06,1270.060059,0.004535172,2.56
7/5/06,1280.050049,-0.009655911,2.58
7/6/06,1270.579956,0.004328767,2.57
7/7/06,1274.079956,-0.001161588,2.55
7/10/06,1265.459961,0.005689662,2.53
7/11/06,1267.26001,-0.004387426,2.55
7/12/06,1272.390015,-0.004495489,2.53
7/13/06,1258.579956,-0.005386989,2.56
7/14/06,1242.290039,-0.001207479,2.56
7/17/06,1236.199951,-0.002442931,2.57
7/18/06,1234.47998,4.86197E-05,2.58
7/19/06,1236.73999,0.015791525,2.57
7/20/06,1259.810059,-0.002032099,2.58
7/21/06,1249.119995,-0.003298318,2.55
7/24/06,1240.25,0.011481556,2.57
7/25/06,1260.910034,-0.002410984,2.61
7/26/06,1268.869995,-0.004980806,2.62
7/27/06,1268.199951,0.00109608,2.63
7/28/06,1263.150024,0.006119602,2.64
7/31/06,1278.530029,-0.001845893,2.62
8/1/06,1278.530029,-0.008290794,2.63
8/2/06,1270.72998,0.003745894,2.62
8/3/06,1278.219971,-0.002620809,2.63
8/4/06,1280.26001,0.005522308,2.63
8/7/06,1279.310059,-0.002618645,2.67
8/8/06,1275.670044,0.002218408,2.7
8/9/06,1271.130005,0.005294498,2.63
8/10/06,1265.719971,-0.000971756,2.64
8/11/06,1271.640015,-0.003287106,2.64
8/14/06,1266.670044,0.0047289,2.64
8/15/06,1268.189941,0.010653025,2.61
8/16/06,1285.27002,0.004380387,2.62
8/17/06,1295.369995,0.00014668,2.63
8/18/06,1297.47998,-0.001248559,2.61
8/21/06,1302.300049,-0.002856522,2.63
8/22/06,1297.52002,0.002412279,2.64
8/23/06,1298.72998,-0.002587127,2.62
8/24/06,1292.969971,0.000765701,2.57
8/25/06,1295.920044,0.000138864,2.6
8/28/06,1295.089966,0.004100128,2.58
8/29/06,1301.569946,-0.002927193,2.53
8/30/06,1303.699951,0.001741236,2.55
8/31/06,1304.25,-0.000912402,2.56
9/1/06,1303.800049,0.003413062,2.56
9/5/06,1310.939941,-0.001075519,2.55
9/6/06,1313.040039,-0.006351702,2.55
9/7/06,1300.209961,-0.006214351,2.56
9/8/06,1294.02002,0.001468277,2.54
9/11/06,1298.859985,-0.005874371,2.53
9/12/06,1299.530029,0.004717068,2.54
9/13/06,1312.73999,-0.000373257,2.53
9/14/06,1318,-0.003323217,2.53
9/15/06,1316.280029,0.005097677,2.53
9/18/06,1319.849976,0.001174394,2.53
9/19/06,1321.170044,-0.002285886,2.51
9/20/06,1318.280029,0.007077382,2.46
9/21/06,1324.890015,0.001003846,2.48
9/22/06,1318.030029,-0.00478747,2.46
9/25/06,1314.780029,-0.001924298,2.45
9/26/06,1326.349976,0.002676536,2.45
9/27/06,1336.119995,-0.000561323,2.44
9/28/06,1336.560059,-0.001114846,2.48
9/29/06,1339.150024,-0.001045457,2.49
10/2/06,1335.819946,-0.000329345,2.45
10/3/06,1331.319946,-0.001652455,2.45
10/4/06,1333.810059,0.00230913,2.43
10/5/06,1349.839966,-0.000259265,2.43
10/6/06,1353.219971,-0.003473176,2.48
10/9/06,1349.579956,-0.001496729,2.48
10/10/06,1350.619995,-6.66324E-05,2.46
10/11/06,1353.280029,-0.002793235,2.45
10/12/06,1349.939941,0.005155829,2.5
10/13/06,1362.819946,-0.000770422,2.48
10/16/06,1365.609985,0.000190402,2.48
10/17/06,1369.050049,-0.006530111,2.47
10/18/06,1363.930054,0.000535178,2.46
10/19/06,1365.949951,0.00010985,2.46
10/20/06,1366.939941,-0.001814228,2.45
10/23/06,1368.579956,0.004099172,2.45
10/24/06,1377.02002,-0.00220768,2.44
10/25/06,1377.359985,0.001045489,2.48
10/26/06,1382.209961,-0.001606095,2.47
10/27/06,1388.890015,-0.003765608,2.46
10/30/06,1377.300049,-0.000885827,2.45
10/31/06,1377.930054,0.000282994,2.44
11/1/06,1377.76001,-0.000283075,2.45
11/2/06,1367.439941,-0.002120708,2.45
11/3/06,1367.310059,-0.000702152,2.46
11/6/06,1364.27002,0.008011596,2.49
11/7/06,1379.75,0.004421091,2.49
11/8/06,1382.5,0.000253165,2.5
11/9/06,1385.430054,-0.000418682,2.49
11/10/06,1378.329956,0.000232197,2.48
11/13/06,1380.579956,0.003940405,2.46
11/14/06,1384.359985,-0.003026659,2.42
11/15/06,1392.910034,0.001737346,2.45
11/16/06,1396.530029,0.001969146,2.42
11/17/06,1399.76001,-0.001364527,2.44
11/20/06,1401.170044,0.000606604,2.41
11/21/06,1400.430054,0.000756872,2.39
11/22/06,1402.689941,0.000534729,2.39
11/24/06,1405.939941,-0.001557635,2.39
11/27/06,1400.949951,-0.007651916,2.39
11/28/06,1381.609985,0.003662405,2.38
11/29/06,1386.109985,0.006644505,2.37
11/30/06,1399.469971,-0.002079338,2.36
12/1/06,1400.630005,-0.006075841,2.39
12/4/06,1396.670044,0.003350796,2.38
12/5/06,1409.099976,0.001802586,2.41
12/6/06,1414.400024,-7.77885E-05,2.41
12/7/06,1412.859985,-0.001097055,2.41
12/8/06,1407.27002,0.0002558,2.42
12/11/06,1409.810059,0.003035828,2.41
12/12/06,1413,-0.000332626,2.41
12/13/06,1411.319946,0.00077945,2.44
12/14/06,1413.160034,0.006602201,2.42
12/15/06,1425.47998,0.003079678,2.37
12/18/06,1427.079956,0.00107215,2.36
12/19/06,1422.420044,-0.001694327,2.35
12/20/06,1425.51001,0.001746736,2.34
12/21/06,1423.199951,0.000231906,2.33
12/22/06,1418.099976,-0.001494941,2.35
12/26/06,1410.75,0.001878433,2.33
12/27/06,1416.630005,0.004510701,2.34
12/28/06,1426.77002,-0.001569994,2.35
12/29/06,1424.709961,-0.000252656,2.34
1/3/07,1418.030029,0.007200109,2.35
1/4/07,1416.599976,-0.001955369,2.3
1/5/07,1418.339966,-0.003764941,2.3
1/8/07,1409.26001,-0.001199218,2.32
1/9/07,1412.839966,0.000962624,2.32
1/10/07,1408.699951,0.001597252,2.32
1/11/07,1414.839966,0.00652373,2.39
1/12/07,1423.819946,0.000597024,2.33
1/16/07,1430.72998,-0.000775814,2.32
1/17/07,1431.77002,-0.000335263,2.34
1/18/07,1430.589966,-0.002222835,2.33
1/19/07,1426.349976,0.002516931,2.37
1/22/07,1430.469971,-0.005613519,2.35
1/23/07,1422.949951,0.00073091,2.39
1/24/07,1427.959961,0.003354463,2.4
1/25/07,1440.119995,-0.003333052,2.45
1/26/07,1423.900024,-0.001397587,2.44
1/29/07,1422.030029,0.00086494,2.43
1/30/07,1420.609985,0.002034348,2.45
1/31/07,1428.650024,0.000510955,2.44
2/1/07,1437.900024,0.003797188,2.43
2/2/07,1445.939941,0.001798179,2.4
2/5/07,1448.329956,-0.000883746,2.4
2/6/07,1446.97998,0.000366294,2.36
2/7/07,1447.410034,0.003716961,2.32
2/8/07,1449.98999,-0.004393127,2.32
2/9/07,1448.25,0.000510962,2.35
2/12/07,1438,-0.00147427,2.34
2/13/07,1433.219971,0.00436083,2.36
2/14/07,1443.910034,0.006399267,2.38
2/15/07,1455.150024,-0.001285107,2.34
2/16/07,1456.77002,-0.001963261,2.34
2/20/07,1455.530029,-0.001710737,2.32
2/21/07,1459.599976,-0.003959973,2.38
2/22/07,1457.290039,0.000329352,2.37
2/23/07,1456.219971,-0.004861883,2.35
2/26/07,1451.040039,0.0007994,2.33
2/27/07,1449.25,-0.009991375,2.33
2/28/07,1398.640015,0.011160831,2.32
3/1/07,1406.800049,-0.00479105,2.35
3/2/07,1403.160034,-0.000876617,2.34
3/5/07,1387.109985,-0.000785796,2.29
3/6/07,1374.060059,0.006666332,2.28
3/7/07,1395.02002,-0.0003656,2.28
3/8/07,1391.880005,0.010180472,2.29
3/9/07,1401.890015,0.001212638,2.26
3/12/07,1402.800049,-0.001746542,2.28
3/13/07,1406.22998,-0.002680913,2.3
3/14/07,1377.859985,0.002518409,2.29
3/15/07,1387.109985,0.00518345,2.32
3/16/07,1392.280029,0.001888967,2.34
3/19/07,1386.949951,0.00713079,2.34
3/20/07,1402.040039,0.001711764,2.33
3/21/07,1410.920044,4.95818E-05,2.34
3/22/07,1435.040039,-0.002146309,2.39
3/23/07,1434.540039,0.000968925,2.37
3/26/07,1436.109985,-0.006823979,2.4
3/27/07,1437.48999,-0.005690467,2.41
3/28/07,1428.349976,-0.008555309,2.38
3/29/07,1417.170044,0.002236821,2.39
3/30/07,1422.52002,0.001349703,2.37
4/2/07,1420.829956,-0.001653932,2.38
4/3/07,1424.27002,0.009317039,2.37
4/4/07,1437.75,-0.000945922,2.37
4/5/07,1438.939941,0.000500409,2.41
4/9/07,1443.77002,0.000567944,2.44
4/10/07,1444.579956,0.002332889,2.41
4/11/07,1448.22998,-0.004681563,2.4
4/12/07,1438.869995,0.001042488,2.4
4/13/07,1447.800049,5.52224E-05,2.4
4/16/07,1452.839966,0.008177111,2.39
4/17/07,1468.469971,0.003404924,2.36
4/18/07,1471.469971,-0.000740736,2.39
4/19/07,1472.47998,-0.002458424,2.38
4/20/07,1470.689941,0.007282336,2.38
4/23/07,1484.329956,0.001320491,2.36
4/24/07,1480.930054,-0.003139955,2.42
4/25/07,1480.280029,0.00324261,2.43
4/26/07,1495.27002,-0.000234085,2.4
4/27/07,1494.209961,-0.002730514,2.45
4/30/07,1494.069946,0.001265037,2.41
5/1/07,1482.369995,-0.00161228,2.43
5/2/07,1486.130005,0.007536349,2.39
5/3/07,1495.560059,0.003837988,2.41
5/4/07,1502.349976,0.004433071,2.4
5/7/07,1505.569946,0.002504071,2.37
5/8/07,1509.359985,-0.004617841,2.34
5/9/07,1507.319946,-0.000869056,2.38
5/10/07,1512.329956,-0.003008574,2.35
5/11/07,1491.469971,0.006644471,2.36
5/14/07,1505.76001,0.001401279,2.33
5/15/07,1503.109985,0.005428754,2.33
5/16/07,1500.75,0.003378311,2.32
5/17/07,1514.01001,-0.001723905,2.34
5/18/07,1512.73999,0.004085309,2.33
5/21/07,1522.75,0.001963553,2.37
5/22/07,1525.099976,-0.000511426,2.36
5/23/07,1524.089966,0.004927553,2.37
5/24/07,1522.099976,-0.000538714,2.4
5/25/07,1507.5,0.005678275,2.37
5/29/07,1515.550049,0.003464057,2.36
5/30/07,1517.599976,-0.001284908,2.39
5/31/07,1530.189941,0.002150098,2.39
6/1/07,1530.619995,0.003959183,2.42
6/4/07,1536.280029,-0.001568743,2.4
6/5/07,1539.119995,-0.003878837,2.41
6/6/07,1530.569946,-0.007219498,2.41
6/7/07,1517.359985,-0.00485711,2.44
6/8/07,1490.709961,0.003260218,2.48
6/11/07,1507.640015,-0.001850584,2.46
6/12/07,1509.119995,-0.005937232,2.47
6/13/07,1492.650024,0.00826716,2.51
6/14/07,1515.579956,0.005747004,2.5
6/15/07,1522.969971,0.009855762,2.44
6/18/07,1532.900024,-0.001311256,2.45
6/19/07,1531.02002,-0.000764209,2.46
6/20/07,1533.680054,0.000893241,2.45
6/21/07,1512.5,0.002003306,2.47
6/22/07,1522.189941,-0.004736558,2.49
6/25/07,1502.560059,0.002914986,2.47
6/26/07,1497.680054,0.000721079,2.45
6/27/07,1492.619995,-0.002090281,2.45
6/28/07,1506.319946,-3.97963E-05,2.42
6/29/07,1505.699951,0.005552268,2.43
7/2/07,1504.660034,0.006579537,2.44
7/3/07,1519.119995,0.003745593,2.4
7/5/07,1524.859985,-0.001009919,2.44
7/6/07,1524.959961,0.000649223,2.42
7/9/07,1530.430054,-0.00143754,2.43
7/10/07,1531.849976,-0.007350574,2.42
7/11/07,1509.930054,0.001556328,2.41
7/12/07,1518.73999,0.007604995,2.42
7/13/07,1547.680054,0.003056152,2.42
7/16/07,1552.5,0.000985507,2.43
7/17/07,1549.52002,0.002716957,2.43
7/18/07,1549.199951,-0.007584528,2.46
7/19/07,1546.130005,0.00241894,2.47
7/20/07,1553.189941,-0.008962163,2.44
7/23/07,1534.060059,0.00488243,2.44
7/24/07,1541.569946,-0.005468416,2.48
7/25/07,1511.030029,-0.004387755,2.47
7/26/07,1518.089966,-0.01131683,2.46
7/27/07,1482.439941,-0.001969686,2.49
7/30/07,1458.930054,0.002124808,2.49
7/31/07,1473.900024,0.001960768,2.51
8/1/07,1455.180054,-0.00426755,2.47
8/2/07,1465.459961,0.000921239,2.47
8/3/07,1472.180054,-0.010005606,2.43
8/6/07,1433.040039,-0.001284011,2.44
8/7/07,1467.619995,-0.002521085,2.43
8/8/07,1476.219971,0.013080726,2.41
8/9/07,1497.209961,-0.012276141,2.42
8/10/07,1453.089966,-0.014100962,2.43
8/13/07,1453.420044,0.006419311,2.45
8/14/07,1452.869995,-0.006538778,2.41
8/15/07,1426.150024,0.005911002,2.42
8/16/07,1406.640015,-0.009732423,2.43
8/17/07,1411.26001,0.007340951,2.43
8/20/07,1445.939941,-0.000809121,2.41
8/21/07,1445.550049,-0.000491196,2.45
8/22/07,1447.030029,0.009847737,2.41
8/23/07,1464.050049,0.001905639,2.43
8/24/07,1462.339966,0.000280396,2.43
8/27/07,1479.359985,-0.005813315,2.41
8/28/07,1466.719971,-0.010076887,2.44
8/29/07,1432.01001,0.005307218,2.39
8/30/07,1463.670044,-0.002623572,2.43
8/31/07,1457.609985,0.009350934,2.43
9/3/07,1457.609985,0,2.43
9/4/07,1473.959961,0.006906591,2.43
9/5/07,1488.76001,-0.010142676,2.41
9/6/07,1472.030029,8.15004E-05,2.41
9/7/07,1478.550049,-0.015596394,2.42
9/10/07,1453.5,-0.005834193,2.42
9/11/07,1451.689941,0.009065337,2.41
9/12/07,1471.099976,0.001373138,2.42
9/13/07,1471.469971,0.007557089,2.43
9/14/07,1483.949951,-0.000599718,2.47
9/17/07,1484.23999,-0.005612293,2.46
9/18/07,1476.630005,0.005465144,2.52
9/19/07,1519.75,0.008251357,2.52
9/20/07,1528.689941,-0.001785804,2.57
9/21/07,1518.75,0.004530041,2.53
9/24/07,1525.75,0.001369818,2.5
9/25/07,1516.339966,-0.000725409,2.51
9/26/07,1518.619995,0.001804273,2.5
9/27/07,1527.319946,0.001440467,2.51
9/28/07,1531.23999,-0.004042469,2.53
10/1/07,1527.290039,0.006095739,2.47
10/2/07,1546.959961,-0.003367871,2.5
10/3/07,1545.800049,-0.002988775,2.47
10/4/07,1539.910034,0.001753327,2.47
10/5/07,1543.839966,0.004521216,2.48
10/8/07,1556.51001,-0.001696109,2.48
10/9/07,1553.180054,0.000965726,2.48
10/10/07,1564.97998,-0.003565528,2.46
10/11/07,1564.719971,0.004895463,2.49
10/12/07,1555.410034,0.001343675,2.48
10/15/07,1562.25,-0.00406465,2.48
10/16/07,1547.810059,-0.005097563,2.47
10/17/07,1544.439941,2.59376E-05,2.49
10/18/07,1539.290039,-0.001760577,2.43
10/19/07,1540,-0.01138961,2.45
10/22/07,1497.790039,-0.001936212,2.42
10/23/07,1509.300049,0.002676705,2.43
10/24/07,1516.609985,-0.010345432,2.42
10/25/07,1516.150024,0.001596132,2.44
10/26/07,1522.170044,0.002246763,2.48
10/29/07,1536.920044,0.001288262,2.45
10/30/07,1539.420044,-0.003183045,2.43
10/31/07,1532.150024,0.005593431,2.42
11/1/07,1545.790039,-0.011786878,2.44
11/2/07,1511.069946,-0.007590612,2.47
11/5/07,1505.609985,0.000305534,2.47
11/6/07,1505.329956,-0.002192181,2.5
11/7/07,1515.459961,-0.007898566,2.48
11/8/07,1475.27002,-0.000765975,2.46
11/9/07,1467.589966,-0.007379422,2.45
11/12/07,1453.660034,0.003047457,2.45
11/13/07,1441.349976,0.008124345,2.42
11/14/07,1483.400024,0.001927987,2.44
11/15/07,1468.040039,0.00176423,2.4
11/16/07,1453.089966,-0.003482211,2.39
11/19/07,1456.699951,-0.01026289,2.43
11/20/07,1434.51001,0.011592802,2.44
11/21/07,1434.709961,-0.008670715,2.47
11/23/07,1417.619995,0.008711788,2.48
11/26/07,1440.73999,-0.003512077,2.49
11/27/07,1409.589966,0.008101671,2.47
11/28/07,1432.949951,0.016504449,2.39
11/29/07,1467.410034,-0.002998503,2.4
11/30/07,1471.829956,0.007589222,2.44
12/3/07,1479.630005,-0.002250566,2.44
12/4/07,1471.339966,-0.0038672,2.43
12/5/07,1465.219971,0.010080417,2.39
12/6/07,1484.589966,0.002209387,2.36
12/7/07,1508.599976,-0.002810537,2.38
12/10/07,1505.109985,0.00724865,2.38
12/11/07,1516.680054,-0.002109907,2.4
12/12/07,1487.579956,0.005129166,2.39
12/13/07,1483.27002,-0.004024904,2.43
12/14/07,1486.189941,-0.00087468,2.44
12/17/07,1465.050049,-0.001685983,2.43
12/18/07,1445.920044,0.002309917,2.42
12/19/07,1454.699951,0.005795043,2.41
12/20/07,1456.420044,-0.000103022,2.37
12/21/07,1463.189941,0.010190105,2.42
12/24/07,1484.550049,0.004964434,2.42
12/26/07,1495.119995,-0.002093474,2.41
12/27/07,1495.050049,-0.0049497,2.39
12/28/07,1479.829956,0.000716328,2.37
12/31/07,1475.25,-0.003673954,2.35
1/2/08,1467.969971,-0.006846169,2.36
1/3/08,1447.550049,0.00165794,2.38
1/4/08,1444.01001,-0.014127333,2.39
1/7/08,1414.069946,-0.003733865,2.36
1/8/08,1415.709961,0.005827492,2.37
1/9/08,1390.25,0.004207876,2.36
1/10/08,1406.780029,-0.002516405,2.34
1/11/08,1419.910034,-0.00585955,2.37
1/14/08,1402.910034,0.004989604,2.37
1/15/08,1411.880005,-0.016708222,2.38
1/16/08,1377.410034,-0.007550427,2.37
1/17/08,1374.790039,-0.009376006,2.4
1/18/08,1333.900024,0.004115733,2.44
1/22/08,1312.939941,-0.008096289,2.51
1/23/08,1310.410034,-0.009119309,2.48
1/24/08,1340.130005,0.003768287,2.49
1/25/08,1357.319946,-0.001561862,2.49
1/28/08,1330.699951,0.005651198,2.51
1/29/08,1355.939941,0.000988288,2.54
1/30/08,1362.219971,-0.001842559,2.54
1/31/08,1351.97998,-0.003727851,2.53
2/1/08,1378.599976,-0.001269386,2.53
2/4/08,1395.380005,-0.006679188,2.56
2/5/08,1380.280029,-0.018365859,2.56
2/6/08,1339.47998,0.005912757,2.54
2/7/08,1324.01001,0.002092122,2.55
2/8/08,1336.880005,0.000381482,2.54
2/11/08,1331.920044,-0.005803685,2.55
2/12/08,1340.550049,0.014673045,2.54
2/13/08,1353.119995,-0.00143372,2.53
2/14/08,1367.329956,-0.00160163,2.53
2/15/08,1347.52002,-0.002115011,2.48
2/19/08,1355.859985,0.001121071,2.51
2/20/08,1348.390015,-0.00485024,2.51
2/21/08,1362.209961,-0.002606031,2.51
2/22/08,1344.219971,-0.007468994,2.53
2/25/08,1352.75,0.006120865,2.49
2/26/08,1371.76001,-0.00283578,2.56
2/27/08,1378.949951,0.005424453,2.54
2/28/08,1378.160034,-0.003998109,2.56
2/29/08,1364.069946,-0.015820264,2.56
3/3/08,1330.449951,-0.001668572,2.63
3/4/08,1329.579956,-0.00976997,2.63
3/5/08,1327.689941,0.007614774,2.72
3/6/08,1332.199951,-0.008332046,2.73
3/7/08,1301.530029,0.007083948,2.73
3/10/08,1293.160034,-0.001167709,2.76
3/11/08,1274.400024,0.017027602,2.69
3/12/08,1321.130005,0.002217795,2.71
3/13/08,1305.26001,-0.015797626,2.64
3/14/08,1316.050049,-0.019064662,2.61
3/17/08,1283.209961,-0.00158194,2.48
3/18/08,1277.160034,0.021900126,2.59
3/19/08,1330.969971,-0.000848983,2.54
3/20/08,1299.670044,0.008817589,2.5
3/24/08,1330.290039,0.017763014,2.47
3/25/08,1349.069946,-0.001971689,2.39
3/26/08,1352.449951,-0.011697254,2.41
3/27/08,1340.339966,-0.006393875,2.45
3/28/08,1327.02002,0.001115266,2.47
3/31/08,1315.920044,0.000303936,2.49
4/1/08,1326.410034,0.016925359,2.49
4/2/08,1369.959961,0.003350491,2.47
4/3/08,1365.689941,-0.002745822,2.45
4/4/08,1369.849976,-0.002000202,2.46
4/7/08,1373.689941,0.00200923,2.45
4/8/08,1370.160034,-0.000255469,2.45
4/9/08,1365.5,-0.002387404,2.43
4/10/08,1355.369995,0.003998912,2.39
4/11/08,1357.97998,-0.005949999,2.43
4/14/08,1332.199951,-0.000833171,2.43
4/15/08,1331.719971,-0.000998687,2.44
4/16/08,1337.02002,0.012482969,2.4
4/17/08,1363.369995,0.00074815,2.4
4/18/08,1369,0.014799123,2.4
4/21/08,1387.719971,-0.004229939,2.37
4/22/08,1386.430054,-0.004782105,2.38
4/23/08,1378.400024,0.004802652,2.41
4/24/08,1380.52002,-0.00580942,2.36
4/25/08,1387.880005,-0.000410702,2.31
4/28/08,1397.959961,0.000815502,2.3
4/29/08,1395.609985,-0.006262484,2.29
4/30/08,1391.219971,0.002796128,2.28
5/1/08,1385.969971,0.002532543,2.25
5/2/08,1409.160034,0.004250735,2.4
5/5/08,1415.339966,-0.003921295,2.41
5/6/08,1405.599976,-0.000853711,2.45
5/7/08,1417.48999,-0.000924162,2.43
5/8/08,1394.290039,-0.002108628,2.42
5/9/08,1394.900024,-0.002286919,2.44
5/12/08,1389.400024,0.003476303,2.44
5/13/08,1404.400024,-0.004172617,2.46
5/14/08,1405.650024,0.006416943,2.5
5/15/08,1408.359985,0.002243755,2.51
5/16/08,1423.890015,-0.003518541,2.51
5/19/08,1425.280029,0.004974441,2.54
5/20/08,1424.48999,-0.005068474,2.52
5/21/08,1414.060059,-0.001973084,2.55
5/22/08,1390.829956,0.003796326,2.55
5/23/08,1392.199951,-0.009689665,2.56
5/27/08,1375.969971,0.003437596,2.54
5/28/08,1386.540039,-0.00204108,2.51
5/29/08,1390.5,0.004300611,2.52
5/30/08,1398.359985,0.002574455,2.56
6/2/08,1399.619995,-0.008580897,2.54
6/3/08,1386.420044,0.000576994,2.46
6/4/08,1376.26001,0.003531302,2.46
6/5/08,1377.47998,0.011753361,2.49
6/6/08,1400.060059,-0.011628115,2.49
6/9/08,1360.829956,0.003644867,2.48
6/10/08,1358.97998,-0.000161871,2.5
6/11/08,1357.089966,-0.00943929,2.45
6/12/08,1335.780029,0.009335348,2.46
6/13/08,1341.810059,0.00914432,2.44
6/16/08,1358.849976,-0.000831568,2.4
6/17/08,1360.709961,-0.000720184,2.41
6/18/08,1349.589966,-0.00962512,2.39
6/19/08,1336.890015,8.97493E-05,2.39
6/20/08,1341.02002,-0.012117657,2.35
6/23/08,1319.77002,-0.000803185,2.32
6/24/08,1317.22998,-0.005154741,2.35
6/25/08,1314.540039,0.010459903,2.37
6/26/08,1316.290039,-0.011532442,2.4
6/27/08,1283.599976,-0.001262057,2.4
6/30/08,1278.060059,0.004076445,2.39
7/1/08,1276.689941,0.002663183,2.38
7/2/08,1285.819946,0.004751874,2.42
7/3/08,1262.959961,0.003840216,2.42
7/7/08,1262.900024,0.005297312,2.41
7/8/08,1251.839966,-0.004521318,2.4
7/9/08,1273.380005,-0.00051831,2.38
7/10/08,1245.25,0.000208793,2.29
7/11/08,1248.660034,-0.009986733,2.36
7/14/08,1241.609985,-0.002738368,2.36
7/15/08,1226.829956,-0.014476298,2.39
7/16/08,1214.650024,0.00819164,2.42
7/17/08,1246.310059,0.002431129,2.4
7/18/08,1258.219971,0.001335243,2.42
7/21/08,1261.819946,0.002036783,2.39
7/22/08,1257.079956,0.000381872,2.44
7/23/08,1278.869995,0.0071313,2.43
7/24/08,1283.219971,-0.008034453,2.4
7/25/08,1253.51001,0.004818462,2.44
7/28/08,1257.76001,-0.001439074,2.47
7/29/08,1236.380005,0.010967498,2.48
7/30/08,1264.52002,0.009869342,2.5
7/31/08,1281.369995,0.001615462,2.52
8/1/08,1269.420044,-0.005711304,2.51
8/4/08,1253.27002,-0.00315975,2.54
8/5/08,1254.869995,0.008694132,2.5
8/6/08,1283.98999,-0.005288195,2.46
8/7/08,1286.51001,-0.005969647,2.39
8/8/08,1266.290039,0.013590852,2.4
8/11/08,1294.420044,0.002078117,2.37
8/12/08,1304.790039,-0.005863042,2.39
8/13/08,1288.640015,-0.00643315,2.37
8/14/08,1282.109985,0.007284878,2.42
8/15/08,1293.849976,0.003122483,2.41
8/18/08,1298.140015,-0.003805456,2.38
8/19/08,1276.650024,-0.007253377,2.38
8/20/08,1267.339966,0.003692801,2.44
8/21/08,1271.069946,-0.002682737,2.44
8/22/08,1277.589966,0.011318212,2.42
8/25/08,1290.469971,-0.008245036,2.42
8/26/08,1267.030029,0.005572063,2.42
8/27/08,1271.290039,0.005285939,2.46
8/28/08,1283.790039,0.006698884,2.4
8/29/08,1296.48999,-0.006563869,2.41
9/2/08,1287.829956,0.004239724,2.38
9/3/08,1276.609985,0.000313342,2.34
9/4/08,1271.800049,-0.015474169,2.29
9/5/08,1233.209961,-0.008952215,2.3
9/8/08,1249.5,0.015542217,2.34
9/9/08,1267.97998,-0.011309311,2.34
9/10/08,1227.5,-0.000423625,2.38
9/11/08,1229.040039,-0.004328613,2.43
9/12/08,1245.880005,-0.001428713,2.4
9/15/08,1250.920044,-0.018066737,2.31
9/16/08,1188.310059,-0.001211855,2.23
9/17/08,1210.339966,-0.024108901,2.16
9/18/08,1157.079956,0.011710551,2.18
9/19/08,1213.109985,0.0208555,2.49
9/22/08,1255.369995,-0.01507125,2.52
9/23/08,1207.609985,0.004844292,2.47
9/24/08,1188.790039,0.002775899,2.41
9/25/08,1187.869995,0.0162139,2.4
9/26/08,1204.469971,-0.007455537,2.35
9/29/08,1209.069946,-0.026392142,2.22
9/30/08,1113.780029,0.027357261,2.23
10/1/08,1164.170044,-0.018803133,2.07
10/2/08,1160.640015,-0.026562943,2.05
10/3/08,1115.160034,0.022212028,1.94
10/6/08,1097.560059,-0.056133656,1.79
10/7/08,1057.599976,0.002373321,1.74
10/8/08,988.909973,-0.008716641,1.63
10/9/08,988.419983,-0.009419056,1.63
10/10/08,902.309998,-0.016158524,1.65
10/13/08,912.75,0.038060805,1.65
10/14/08,1009.969971,-0.011267633,1.83
10/15/08,994.599976,-0.041785619,1.91
10/16/08,909.530029,-0.01933969,1.99
10/17/08,942.289978,0.00971041,2.19
10/20/08,943.51001,0.018441765,2.22
10/21/08,980.400024,-0.0030396,2.4
10/22/08,951.669983,-0.024062946,2.38
10/23/08,899.080017,0.014648288,2.33
10/24/08,895.219971,-0.029177154,2.3
10/27/08,874.280029,-0.007754986,2.64
10/28/08,848.919983,0.010589946,2.74
10/29/08,939.51001,-0.007823238,2.75
10/30/08,939.380005,0.00369392,2.72
10/31/08,953.109985,-0.002685928,2.73
11/3/08,968.669983,0.001899529,2.72
11/4/08,971.309998,0.028569666,2.78
11/5/08,1001.840027,-0.002006335,2.88
11/6/08,952.400024,-0.02374005,2.94
11/7/08,907.440002,0.018855239,2.98
11/10/08,936.75,1.06752E-05,3.01
11/11/08,917.150024,-0.027280187,3.01
11/12/08,893.390015,-0.025061859,3.05
11/13/08,853.130005,-0.000750185,2.89
11/14/08,904.359985,-0.020854511,2.84
11/17/08,873.22998,-0.020269551,2.82
11/18/08,852.340027,0.006640511,2.55
11/19/08,859.030029,-0.015261433,2.37
11/20/08,805.869995,-0.010063652,1.9
11/21/08,755.840027,0.000767322,2.08
11/24/08,801.200012,0.037056899,2.48
11/25/08,853.400024,-0.006468273,2.76
11/26/08,852.900024,-0.003306395,2.92
11/28/08,886.890015,-0.003540478,2.97
12/1/08,888.609985,-0.040478934,1
12/2/08,817.940002,0.024598379,0.92
12/3/08,843.599976,0.008558587,1.03
12/4/08,869.75,-0.000137971,1.1
12/5/08,844.429993,-0.02431225,1
12/8/08,882.710022,0.030632912,0.88
12/9/08,906.47998,0.0077222,0.85
12/10/08,892.169983,0.00480852,0.86
12/11/08,898.349976,0.000456419,0.93
12/12/08,871.789978,-0.011000331,0.72
12/15/08,881.070007,-0.015401735,0.79
12/16/08,871.530029,0.009729981,0.62
12/17/08,908.159973,-0.006672803,0.59
12/18/08,905.97998,0.003300316,0.57
12/19/08,886.960022,0.017678337,0.61
12/22/08,887.200012,-0.006244378,0.67
12/23/08,874.309998,0.005615859,0.57
12/24/08,863.869995,0.004005238,0.53
12/26/08,869.51001,-0.00060955,0.54
12/29/08,872.369995,-0.01123376,0.43
12/30/08,870.580017,0.009889939,0.43
12/31/08,890.590027,0.008073269,0.48
1/2/09,902.98999,0.010376649,0.59
1/5/09,929.169983,0.003476239,0.49
1/6/09,931.169983,0.001396111,0.98
1/7/09,927.450012,-0.013865989,1.03
1/8/09,905.72998,-0.000993652,1.08
1/9/09,909.909973,-0.016682939,1.21
1/12/09,890.400024,-0.01055708,1.28
1/13/09,869.789978,0.002839791,1.21
1/14/09,867.280029,-0.031373983,1.03
1/15/09,841.98999,-0.020926603,1
1/16/09,844.450012,0.007519673,1.1
1/20/09,849.640015,-0.025045919,1.13
1/21/09,806.77002,0.004487004,1.12
1/22/09,839.73999,-0.022292603,1.21
1/23/09,822.159973,-0.009547987,1.35
1/26/09,832.5,0.019831832,1.46
1/27/09,837.299988,-0.002149753,1.49
1/28/09,845.72998,0.025043478,1.55
1/29/09,868.890015,-0.011428391,1.79
1/30/09,845.690002,-0.013681138,1.91
2/2/09,823.090027,-0.003426146,1.81
2/3/09,825.690002,0.004856542,1.83
2/4/09,837.77002,0.012079664,1.83
2/5/09,831.75,-0.000817553,1.71
2/6/09,846.090027,0.016274832,1.76
2/9/09,868.23999,0.005067735,1.89
2/10/09,866.869995,-0.008421095,1.74
2/11/09,827.409973,0.007481209,1.58
2/12/09,829.909973,-0.010940913,1.77
2/13/09,833.950012,0.002997767,1.75
2/17/09,818.609985,-0.027106907,1.77
2/18/09,791.059998,-0.005107069,1.72
2/19/09,787.909973,0.003579123,1.62
2/20/09,775.869995,-0.006405706,1.65
2/23/09,773.25,-0.011070158,1.56
2/24/09,744.690002,0.018316344,1.43
2/25/09,770.640015,-0.021890915,1.34
2/26/09,765.76001,0.01642811,1.33
2/27/09,749.929993,-0.005947212,1.34
3/2/09,729.570007,-0.018298459,1.3
3/3/09,704.440002,0.001646695,1.4
3/4/09,698.599976,0.013298059,1.37
3/5/09,708.27002,-0.018114589,1.28
3/6/09,684.039978,-0.005906055,1.25
3/9/09,680.76001,0.010238542,1.28
3/10/09,679.280029,0.040572326,1.3
3/11/09,719.590027,0.007879449,1.45
3/12/09,720.890015,0.017422887,1.51
3/13/09,751.969971,0.005385892,1.54
3/16/09,758.840027,0.009936183,1.62
3/17/09,753.880005,0.008515937,1.65
3/18/09,776.01001,-0.008968969,1.86
3/19/09,797.919983,-0.003396309,1.94
3/20/09,784.580017,-0.001210861,1.81
3/23/09,772.309998,0.03126983,1.92
3/24/09,820.599976,-0.012393342,1.91
3/25/09,806.809998,0.020116263,1.92
3/26/09,814.059998,0.006326317,1.97
3/27/09,828.679993,-0.010245201,1.9
3/30/09,809.070007,-0.026684968,1.9
3/31/09,790.880005,0.008256619,1.83
4/1/09,793.590027,0.009790916,1.9
4/2/09,814.530029,0.027095344,1.92
4/3/09,835.130005,-0.008681289,1.96
4/6/09,839.75,-0.011610598,1.98
4/7/09,834.119995,-0.010849752,1.84
4/8/09,816.76001,-0.000759109,1.8
4/9/09,829.289978,0.021138591,1.86
4/13/09,855.330017,-0.005226073,1.89
4/14/09,856.880005,-0.001178701,1.81
4/15/09,839.440002,0.001965594,1.85
4/16/09,854.539978,-0.006541506,1.81
4/17/09,865.179993,-0.001178937,1.83
4/20/09,868.27002,-0.030071314,1.83
4/21/09,831.25,0.000745865,1.88
4/22/09,847.26001,0.009135318,2.02
4/23/09,844.619995,-0.004060992,2.25
4/24/09,853.909973,0.009520942,2.28
4/27/09,862.820007,0.003998508,2.2
4/28/09,854.47998,0.007232492,2.21
4/29/09,856.849976,0.018603051,2.19
4/30/09,876.590027,0.009776489,2.12
5/1/09,872.73999,-0.003254108,2.03
5/4/09,879.210022,0.019073916,2
5/5/09,906.099976,-0.007317047,2
5/6/09,903.950012,0.002489062,1.95
5/7/09,919.580017,-0.003425495,2.05
5/8/09,909.030029,0.006622412,2
5/11/09,922.98999,-0.006728123,1.94
5/12/09,910.52002,-0.005645148,1.97
5/13/09,905.400024,-0.014281007,1.92
5/14/09,884.23999,0.002058276,1.88
5/15/09,892.76001,0.002934708,1.96
5/18/09,886.070007,0.014242659,2.09
5/19/09,909.669983,0.003902533,2.11
5/20/09,908.619995,0.014439485,2.17
5/21/09,900.419983,-0.013471472,2.23
5/22/09,888.679993,0.005963909,2.27
5/26/09,887,0.018523112,2.31
5/27/09,909.950012,8.79037E-05,2.39
5/28/09,892.960022,-5.60182E-05,2.27
5/29/09,907.02002,0.002414478,2.24
6/1/09,923.26001,0.019084537,2.29
6/2/09,942.869995,0.003457534,2.33
6/3/09,942.51001,-0.011681584,2.26
6/4/09,932.48999,0.002959828,2.23
6/5/09,945.669983,-0.002495567,2.21
6/8/09,938.119995,-0.005916082,2.23
6/9/09,940.349976,-0.002828709,2.21
6/10/09,942.72998,-0.004126293,2.29
6/11/09,939.039978,0.009669473,2.2
6/12/09,943.440002,-0.001388538,2.13
6/15/09,942.450012,-0.019672144,2.12
6/16/09,925.599976,0.00041057,2.05
6/17/09,911.890015,-0.007204833,2.03
6/18/09,910.859985,0.0057638,2.23
6/19/09,919.960022,0.005956757,2.22
6/22/09,918.130005,-0.017078197,2.22
6/23/09,893.460022,-0.003044369,2.19
6/24/09,896.309998,0.015496873,2.24
6/25/09,899.450012,0.007371158,2.13
6/26/09,918.840027,-0.004244511,2.13
6/29/09,919.859985,0.00725112,2.15
6/30/09,927.150024,-0.010645552,2.16
7/1/09,920.820007,0.010425483,2.09
7/2/09,921.23999,-0.018844156,2.01
7/6/09,894.27002,-0.00716788,1.76
7/7/09,898.599976,-0.00777874,1.98
7/8/09,881.900024,0.001462724,1.96
7/9/09,881.280029,-0.000680861,2.04
7/10/09,880.030029,-0.000272751,1.98
7/13/09,879.570007,0.004706837,2.02
7/14/09,900.77002,-0.003119575,2.13
7/15/09,910.150024,0.01311869,2.25
7/16/09,930.169983,0.001924398,2.26
7/17/09,940.559998,-0.002604829,2.35
7/20/09,942.070007,-0.001135804,2.36
7/21/09,951.969971,0.000273148,2.25
7/22/09,953.400024,-0.000797172,2.32
7/23/09,954.070007,0.016906509,2.41
7/24/09,972.159973,-0.002972734,2.39
7/27/09,978.630005,-0.004996786,2.38
7/28/09,981.47998,-0.004472817,2.34
7/29/09,977.659973,-0.003395836,2.31
7/30/09,976.01001,0.020911661,2.4
7/31/09,986.799988,0.002594256,2.3
8/3/09,990.219971,0.009856425,2.38
8/4/09,1001.409973,-0.000748917,2.36
8/5/09,1005.409973,-0.010184873,2.46
8/6/09,1004.059998,-0.004352328,2.45
8/7/09,999.830017,0.010821823,2.54
8/10/09,1008.890015,-0.00055508,2.52
8/11/09,1005.77002,-0.010459668,2.46
8/12/09,994,0.013350101,2.42
8/13/09,1005.859985,0.003350382,2.34
8/14/09,1012.22998,-0.013909863,2.27
8/17/09,998.179993,-0.016339731,2.3
8/18/09,980.619995,0.004456369,2.3
8/19/09,986.880005,0.000283717,2.3
8/20/09,996.409973,0.00914285,2.34
8/21/09,1009.059998,0.013864391,2.38
8/24/09,1026.589966,0.007578521,2.33
8/25/09,1026.630005,0.004110532,2.25
8/26/09,1027.349976,0.001547695,2.24
8/27/09,1027.810059,-0.009398681,2.23
8/28/09,1031.619995,-0.000222945,2.22
8/31/09,1025.209961,-0.005618323,2.16
9/1/09,1019.52002,0.001755709,2.17
9/2/09,996.070007,0.001415556,2.09
9/3/09,996.119995,-9.03455E-05,2.13
9/4/09,1003.840027,0.003695781,2.26
9/8/09,1018.669983,0.005958767,2.3
9/9/09,1025.359985,0.003481719,2.28
9/10/09,1032.98999,0.001297215,2.22
9/11/09,1043.920044,0.001934972,2.14
9/14/09,1040.150024,0.00241309,2.13
9/15/09,1049.030029,4.76354E-05,2.21
9/16/09,1053.98999,0.004516181,2.2
9/17/09,1067.869995,0.002931073,2.14
9/18/09,1066.599976,0.000215661,2.17
9/21/09,1067.140015,-0.006269107,2.21
9/22/09,1066.349976,0.001622379,2.2
9/23/09,1072.689941,-0.003747533,2.22
9/24/09,1062.560059,-0.011575872,2.16
9/25/09,1049.47998,-0.000466879,2.12
9/28/09,1045.380005,0.013918379,2.13
9/29/09,1063.689941,6.58641E-05,2.1
9/30/09,1061.02002,-0.01219583,2.13
10/1/09,1054.910034,-0.010702367,2.09
10/2/09,1029.709961,-0.003534938,2.07
10/5/09,1026.869995,0.006008555,2.14
10/6/09,1042.02002,0.013598568,2.11
10/7/09,1053.650024,-0.000683362,2.17
10/8/09,1060.030029,0.005245107,2.17
10/9/09,1065.280029,0.00182109,2.22
10/12/09,1071.630005,0.006709401,2.22
10/13/09,1074.959961,-0.005190855,2.29
10/14/09,1078.680054,0.005182209,2.37
10/15/09,1090.359985,-0.003356676,2.42
10/16/09,1094.670044,-0.010405002,2.39
10/19/09,1088.219971,0.006110924,2.43
10/20/09,1098.640015,-0.004578401,2.39
10/21/09,1090.359985,0.00854765,2.43
10/22/09,1080.959961,-0.002627258,2.39
10/23/09,1095.619995,-0.007694269,2.44
10/26/09,1080.359985,0.00840462,2.4
10/27/09,1067.540039,0.00306308,2.39
10/28/09,1061.51001,-0.007008893,2.35
10/29/09,1043.689941,0.010319213,2.42
10/30/09,1065.410034,-0.007227296,2.39
11/2/09,1036.180054,0.012053838,2.45
11/3/09,1040.920044,0.00082615,2.47
11/4/09,1047.140015,0.011908613,2.54
11/5/09,1047.300049,0.015850234,2.61
11/6/09,1064.949951,-0.001483592,2.64
11/9/09,1072.310059,0.010015705,2.65
11/10/09,1091.859985,0.000833454,2.6
11/11/09,1096.040039,0.003083793,2.6
11/12/09,1098.310059,0.001147163,2.51
11/13/09,1087.589966,0.005516816,2.51
11/16/09,1094.130005,0.014458972,2.51
11/17/09,1109.219971,-0.005120689,2.52
11/18/09,1109.439941,-0.001270858,2.5
11/19/09,1106.439941,-0.015310312,2.5
11/20/09,1094.660034,-0.005033557,2.5
11/23/09,1094.859985,0.014193609,2.52
11/24/09,1105.829956,-0.00042498,2.41
11/25/09,1106.48999,0.001825602,2.43
11/27/09,1105.469971,-0.009552472,2.38
11/30/09,1091.069946,0.002722148,2.41
12/1/09,1098.890015,0.006106148,2.48
12/2/09,1109.030029,0.003705915,2.46
12/3/09,1110.589966,-0.000351134,2.48
12/4/09,1100.430054,0.013240229,2.47
12/7/09,1105.52002,0.002026178,2.45
12/8/09,1103.040039,-0.009700499,2.43
12/9/09,1091.069946,0.003061265,2.47
12/10/09,1098.689941,0.004186858,2.45
12/11/09,1103.959961,0.002835283,2.49
12/14/09,1107.839966,0.002572604,2.54
12/15/09,1114.109985,-0.000637267,2.56
12/16/09,1108.609985,0.005249831,2.61
12/17/09,1106.359985,-0.004546427,2.56
12/18/09,1097.859985,-0.000391657,2.56
12/21/09,1105.310059,0.008178647,2.62
12/22/09,1114.51001,0.002117514,2.65
12/23/09,1118.839966,-0.000571991,2.6
12/24/09,1121.079956,0.00289011,2.59
12/28/09,1127.530029,-0.000762755,2.62
12/29/09,1128.550049,7.97049E-05,2.62
12/30/09,1125.530029,-0.002150124,2.61
12/31/09,1126.599976,-0.002130282,2.61
1/4/10,1116.560059,0.013460934,2.63
1/5/10,1132.660034,0.002348424,2.56
1/6/10,1135.709961,-8.80163E-05,2.58
1/7/10,1136.27002,0.00131129,2.63
1/8/10,1140.52002,-0.001096009,2.66
1/11/10,1145.959961,0.000122202,2.64
1/12/10,1143.810059,-0.002299384,2.63
1/13/10,1137.310059,-0.002013575,2.61
1/14/10,1145.680054,0.000584758,2.6
1/15/10,1147.719971,-0.008869734,2.62
1/19/10,1136.030029,0.008925795,2.67
1/20/10,1147.949951,-0.011733918,2.65
1/21/10,1138.680054,-0.012198382,2.68
1/22/10,1115.48999,-0.005746345,2.67
1/25/10,1092.400024,0.004448898,2.69
1/26/10,1095.800049,0.00108592,2.71
1/27/10,1091.939941,-0.004533162,2.66
1/28/10,1096.930054,-0.007502807,2.72
1/29/10,1087.609985,0.005948837,2.75
2/1/10,1073.890015,0.009740276,2.79
2/2/10,1090.050049,0.005871245,2.8
2/3/10,1100.670044,-0.002444006,2.81
2/4/10,1097.25,-0.018427888,2.71
2/5/10,1064.119995,-0.000639021,2.65
2/8/10,1065.51001,0.001313915,2.63
2/9/10,1060.060059,0.006650511,2.66
2/10/10,1069.680054,-0.007104979,2.59
2/11/10,1067.099976,-0.001443141,2.56
2/12/10,1075.949951,-0.008931597,2.5
2/16/10,1079.130005,0.007570909,2.53
2/17/10,1096.140015,0.002216856,2.55
2/18/10,1099.030029,0.001537693,2.6
2/19/10,1105.48999,0.000416114,2.55
2/22/10,1110,-0.001018018,2.58
2/23/10,1107.48999,-0.008884947,2.48
2/24/10,1095.890015,0.008550114,2.48
2/25/10,1101.23999,-0.009761714,2.43
2/26/10,1103.099976,0.001287303,2.43
3/1/10,1105.359985,0.006061387,2.47
3/2/10,1117.01001,0.003894316,2.49
3/3/10,1119.359985,0.003591351,2.5
3/4/10,1119.119995,-0.000160836,2.5
3/5/10,1125.119995,0.00787472,2.53
3/8/10,1138.400024,0.000816915,2.59
3/9/10,1137.560059,0.002417403,2.58
3/10/10,1140.219971,0.005612977,2.57
3/11/10,1143.959961,0.000856707,2.59
3/12/10,1151.709961,-0.003255994,2.59
3/15/10,1148.530029,-0.002298616,2.57
3/16/10,1150.829956,0.002337482,2.56
3/17/10,1159.939941,0.003931289,2.54
3/18/10,1166.130005,-0.001680777,2.54
3/19/10,1166.680054,-0.00427714,2.54
3/22/10,1157.25,0.005625405,2.56
3/23/10,1166.469971,0.00102877,2.6
3/24/10,1172.699951,-0.000289887,2.59
3/25/10,1170.030029,0.004709256,2.65
3/26/10,1167.579956,0.004196752,2.62
3/29/10,1167.709961,0.003879421,2.59
3/30/10,1173.75,0.000673056,2.61
3/31/10,1171.75,-0.00056326,2.65
4/1/10,1171.22998,0.006446232,2.71
4/5/10,1178.709961,0.007024662,2.7
4/6/10,1186.01001,-8.43248E-05,2.57
4/7/10,1188.22998,-0.003778713,2.64
4/8/10,1181.75,-0.002013962,2.71
4/9/10,1187.469971,0.002265345,2.71
4/12/10,1194.939941,0.00194157,2.75
4/13/10,1195.939941,-0.004164039,2.75
4/14/10,1198.689941,0.003587299,2.73
4/15/10,1210.77002,0.001759195,2.78
4/16/10,1210.170044,-0.007213899,2.76
4/19/10,1192.060059,0.000553614,2.77
4/20/10,1199.040039,0.00367791,2.74
4/21/10,1207.160034,0.000853214,2.75
4/22/10,1202.52002,-0.003850264,2.73
4/23/10,1207.869995,0.001117674,2.75
4/26/10,1217.069946,-0.000131419,2.74
4/27/10,1209.920044,0.000330564,2.68
4/28/10,1184.589966,0.001806561,2.8
4/29/10,1193.300049,0.010265608,2.84
4/30/10,1206.77002,-0.001549608,2.79
5/3/10,1188.579956,0.003920682,2.8
5/4/10,1197.5,-0.017377871,2.7
5/5/10,1169.23999,0.002129597,2.67
5/6/10,1164.380005,-0.004500253,2.53
5/7/10,1127.040039,-0.016734134,2.55
5/10/10,1122.27002,0.027319611,2.63
5/11/10,1156.390015,-0.000285384,2.64
5/12/10,1155.430054,0.009312503,2.64
5/13/10,1170.040039,0.001794777,2.65
5/14/10,1157.189941,-0.014941316,2.53
5/17/10,1136.52002,-0.002340496,2.51
5/18/10,1138.780029,-0.001879229,2.49
5/19/10,1119.569946,-0.008413897,2.38
5/20/10,1107.339966,-0.021628377,2.2
5/21/10,1067.26001,0.004750473,2.13
5/24/10,1084.780029,0.000470115,2.14
5/25/10,1067.420044,-0.017556391,2.13
5/26/10,1075.51001,0.011799044,2.2
5/27/10,1074.27002,0.016159792,2.3
5/28/10,1102.589966,-0.006584466,2.29
6/1/10,1087.300049,0.004193829,2.26
6/2/10,1073.01001,0.004100605,2.27
6/3/10,1098.819946,0.001447056,2.33
6/4/10,1098.430054,-0.011243369,2.22
6/7/10,1065.839966,-0.001313486,2.2
6/8/10,1050.810059,-0.005833651,2.16
6/9/10,1062.75,0.005513997,2.21
6/10/10,1058.77002,0.018408134,2.28
6/11/10,1082.650024,0.003500647,2.25
6/14/10,1095,0.004328767,2.25
6/15/10,1091.209961,0.00959489,2.32
6/16/10,1114.02002,-0.004452362,2.31
6/17/10,1115.97998,-0.007580763,2.3
6/18/10,1116.160034,0.003323866,2.29
6/21/10,1122.790039,0.003553613,2.33
6/22/10,1113.900024,-0.002289275,2.28
6/23/10,1095.569946,-0.004764594,2.24
6/24/10,1090.930054,-0.009313204,2.22
6/25/10,1075.099976,-0.002260233,2.21
6/28/10,1077.5,-0.000454756,2.19
6/29/10,1071.099976,-0.022472203,2.12
6/30/10,1040.560059,0.002114189,2.1
7/1/10,1031.099976,-0.013907454,2.02
7/2/10,1027.650024,4.86313E-05,1.98
7/6/10,1028.089966,0.01104965,1.97
7/7/10,1028.540039,0.014204562,2
7/8/10,1062.920044,0.002850596,2.15
7/9/10,1070.5,0.001849603,2.15
7/12/10,1077.22998,-0.002227918,2.16
7/13/10,1080.650024,0.009373965,2.23
7/14/10,1095.609985,-0.001131776,2.2
7/15/10,1094.459961,-0.008817098,2.15
7/16/10,1093.849976,-0.014554076,2.06
7/19/10,1066.849976,-0.004461711,2.06
7/20/10,1064.530029,0.000291181,2.08
7/21/10,1086.670044,-0.002411076,2.08
7/22/10,1072.140015,0.021545679,2.13
7/23/10,1092.170044,0.003250369,2.17
7/26/10,1102.890015,0.0053133,2.18
7/27/10,1117.359985,-0.002783333,2.2
7/28/10,1112.839966,-0.002039796,2.16
7/29/10,1108.069946,0.000839346,2.19
7/30/10,1098.439941,0.004479133,2.17
8/2/10,1107.530029,0.012622656,2.22
8/3/10,1125.339966,-0.002532538,2.23
8/4/10,1121.060059,0.000552995,2.22
8/5/10,1125.780029,-0.002043054,2.24
8/6/10,1122.069946,-0.009330921,2.18
8/9/10,1122.800049,0.000561054,2.16
8/10/10,1122.920044,-0.007676454,2.2
8/11/10,1116.890015,-0.019169314,2.11
8/12/10,1081.47998,0.002505844,2.03
8/13/10,1082.219971,-0.00057287,2.02
8/16/10,1077.48999,0.002672888,1.97
8/17/10,1081.160034,0.007223691,1.98
8/18/10,1092.079956,-0.003671852,1.96
8/19/10,1092.439941,-0.012760373,1.9
8/20/10,1075.630005,-0.005773365,1.9
8/23/10,1073.359985,-0.000726676,1.89
8/24/10,1063.199951,-0.008502588,1.79
8/25/10,1048.97998,-0.002888501,1.85
8/26/10,1056.280029,0.003521766,1.86
8/27/10,1049.27002,0.002687564,1.95
8/30/10,1062.900024,-0.001787585,1.87
8/31/10,1046.880005,0.002645953,1.85
9/1/10,1049.719971,0.02559733,1.91
9/2/10,1080.660034,0.004469459,1.96
9/3/10,1093.609985,0.003493032,1.99
9/7/10,1102.599976,-0.006466512,2.02
9/8/10,1092.359985,0.007259525,2.05
9/9/10,1101.150024,0.005975549,2.15
9/10/10,1104.569946,0.003730007,2.24
9/13/10,1113.380005,0.009394811,2.26
9/14/10,1121.160034,0.001391386,2.22
9/15/10,1119.430054,0.001250588,2.25
9/16/10,1123.890015,-0.001512617,2.25
9/17/10,1126.390015,-0.00018645,2.25
9/20/10,1126.569946,0.008707896,2.32
9/21/10,1142.819946,-0.000647474,2.37
9/22/10,1139.48999,-0.002615196,2.32
9/23/10,1131.099976,0.001759371,2.29
9/24/10,1131.689941,0.012971803,2.31
9/27/10,1148.640015,-0.001114374,2.21
9/28/10,1142.310059,-0.002836409,2.27
9/29/10,1146.75,-0.00383693,2.26
9/30/10,1145.969971,0.002949492,2.26
10/1/10,1143.48999,-0.000411014,2.25
10/4/10,1144.959961,-0.003109245,2.23
10/5/10,1140.680054,0.012536334,2.3
10/6/10,1159.810059,6.03038E-05,2.33
10/7/10,1161.569946,-0.001902551,2.35
10/8/10,1158.359985,-0.000707884,2.44
10/11/10,1165.319946,-0.000180162,2.44
10/12/10,1164.280029,-0.000867514,2.42
10/13/10,1171.319946,0.005711551,2.47
10/14/10,1177.819946,0.000602854,2.55
10/15/10,1177.469971,-0.006522435,2.6
10/18/10,1176.829956,0.002515269,2.57
10/19/10,1178.640015,-0.003537989,2.61
10/20/10,1166.73999,0.009128006,2.6
10/21/10,1179.819946,0.007518142,2.62
10/22/10,1180.52002,0.00117743,2.62
10/25/10,1184.73999,0.004785869,2.66
10/26/10,1184.880005,-0.001493826,2.67
10/27/10,1183.839966,-0.006690065,2.67
10/28/10,1184.469971,-0.00281136,2.72
10/29/10,1183.869995,-0.001300814,2.78
11/1/10,1185.709961,0.006839817,2.83
11/2/10,1187.859985,0.002811792,2.79
11/3/10,1193.790039,-0.001038741,2.83
11/4/10,1198.339966,0.012525689,2.66
11/5/10,1221.199951,0.004372788,2.63
11/8/10,1223.23999,-0.001324344,2.66
11/9/10,1223.589966,-0.000163426,2.7
11/10/10,1213.140015,-0.005292064,2.58
11/11/10,1213.040039,-0.00456707,2.58
11/12/10,1209.069946,-0.005119593,2.53
11/15/10,1200.439941,0.002774032,2.53
11/16/10,1194.790039,-0.008302747,2.47
11/17/10,1178.329956,0.002715745,2.57
11/18/10,1183.75,0.013017951,2.57
11/19/10,1196.119995,-0.001070123,2.63
11/22/10,1198.069946,-0.005116518,2.62
11/23/10,1192.51001,-0.008301825,2.62
11/24/10,1183.699951,0.010053265,2.67
11/26/10,1194.160034,-0.001926068,2.64
11/29/10,1189.079956,-0.008460286,2.64
11/30/10,1182.959961,-0.001758268,2.6
12/1/10,1186.599976,0.01234622,2.68
12/2/10,1206.810059,0.007581923,2.7
12/3/10,1219.930054,-0.00123782,2.72
12/6/10,1223.869995,-0.000612806,2.72
12/7/10,1227.25,0.00311265,2.79
12/8/10,1225.02002,-0.003281595,2.7
12/9/10,1230.140015,-0.000772282,2.63
12/10/10,1233.849976,0.000543035,2.67
12/13/10,1242.52002,0.002575395,2.7
12/14/10,1241.839966,0.001666909,2.75
12/15/10,1241.579956,0.001699483,2.85
12/16/10,1236.339966,2.42927E-05,2.86
12/17/10,1243.630005,-0.002347969,2.81
12/20/10,1245.76001,-0.001862325,2.83
12/21/10,1249.430054,0.002521106,2.81
12/22/10,1254.939941,0.00121126,2.85
12/23/10,1257.530029,-0.000882706,2.83
12/27/10,1254.660034,9.56163E-05,2.77
12/28/10,1259.099976,-0.001651955,2.82
12/29/10,1258.780029,0.002303795,2.77
12/30/10,1259.439941,-0.000571636,2.78
12/31/10,1256.76001,0.000381927,2.77
1/3/11,1257.619995,0.012865576,2.8
1/4/11,1272.949951,-0.0034565,2.84
1/5/11,1268.780029,0.001584176,2.9
1/6/11,1276.290039,0.000235026,2.86
1/7/11,1274.410034,-0.001161348,2.81
1/10/11,1270.839966,-0.002730451,2.81
1/11/11,1272.579956,0.001328045,2.8
1/12/11,1275.650024,0.005691197,2.84
1/13/11,1285.780029,-0.001563276,2.79
1/14/11,1282.900024,0.003328378,2.77
1/18/11,1293.219971,-0.001422783,2.85
1/19/11,1294.52002,-0.005870917,2.82
1/20/11,1280.849976,-0.004746829,2.6
1/21/11,1283.630005,0.00198655,2.56
1/24/11,1283.290039,0.002103937,2.57
1/25/11,1288.170044,-2.3323E-05,2.54
1/26/11,1291.969971,0.004922737,2.62
1/27/11,1297.51001,0.001140639,2.62
1/28/11,1299.630005,-0.00710972,2.61
1/31/11,1276.5,0.003728946,2.72
2/1/11,1289.140015,0.009463662,2.73
2/2/11,1305.910034,-0.000367586,2.71
2/3/11,1302.77002,-0.002632867,2.7
2/4/11,1307.01001,-0.00147666,2.77
2/7/11,1311.849976,0.007272191,2.74
2/8/11,1318.76001,0.001675809,2.77
2/9/11,1322.47998,0.00153501,2.68
2/10/11,1318.130005,0.000409667,2.7
2/11/11,1318.660034,0.003609699,2.68
2/14/11,1328.72998,-0.001158986,2.7
2/15/11,1330.430054,-0.003337307,2.65
2/16/11,1329.51001,0.005738949,2.56
2/17/11,1334.369995,0.000524596,2.57
2/18/11,1340.380005,0.00096987,2.64
2/22/11,1338.910034,-0.003988344,2.59
2/23/11,1315.439941,-0.003124385,2.58
2/24/11,1307.089966,-0.000443708,2.62
2/25/11,1307.339966,0.008605286,2.63
2/28/11,1321.609985,0.004676126,2.63
3/1/11,1328.640015,-0.004824493,2.65
3/2/11,1305.469971,0.005622518,2.65
3/3/11,1312.369995,0.010248638,2.71
3/4/11,1330.72998,-0.005523269,2.74
3/7/11,1322.719971,-0.004029554,2.76
3/8/11,1311.050049,0.004576447,2.79
3/9/11,1319.920044,-0.001250109,2.75
3/10/11,1315.719971,-0.012571042,2.7
3/11/11,1293.430054,0.001530772,2.71
3/14/11,1301.189941,-0.004503525,2.71
3/15/11,1288.459961,-0.012309239,2.64
3/16/11,1279.459961,0.000812873,2.65
3/17/11,1261.609985,0.012254195,2.68
3/18/11,1276.709961,0.006963241,2.68
3/21/11,1281.650024,0.013201713,2.68
3/22/11,1298.290039,-0.00189483,2.59
3/23/11,1292.189941,-0.005571891,2.6
3/24/11,1300.609985,0.000768882,2.72
3/25/11,1311.800049,0.003209293,2.69
3/28/11,1315.449951,0.002615112,2.74
3/29/11,1309.369995,0.0021308,2.74
3/30/11,1321.890015,0.00347229,2.75
3/31/11,1327.439941,0.000813641,2.75
4/1/11,1329.47998,0.004024145,2.79
4/4/11,1333.560059,-0.000217507,2.79
4/5/11,1332.030029,0.00233476,2.8
4/6/11,1335.939941,0.00144472,2.8
4/7/11,1334.819946,-0.00250217,2.85
4/8/11,1336.160034,-0.001377106,2.9
4/11/11,1329.01001,0.002121873,2.88
4/12/11,1321.959961,-0.007867077,2.92
4/13/11,1314.030029,0.003896388,2.92
4/14/11,1311.130005,-0.000541521,2.99
4/15/11,1314.540039,0.001354056,2.99
4/18/11,1313.349976,-0.01225871,3.01
4/19/11,1305.98999,0.000727425,3.02
4/20/11,1319.119995,0.008952942,2.95
4/21/11,1333.22998,0.000847581,2.89
4/25/11,1337.140015,-0.002789547,2.9
4/26/11,1336.75,0.006463437,2.84
4/27/11,1348.430054,-0.002069113,2.79
4/28/11,1353.859985,0.002075558,2.71
4/29/11,1360.140015,0.000646981,2.69
5/2/11,1365.209961,0.003523296,2.68
5/3/11,1359.76001,-0.002235696,2.68
5/4/11,1355.900024,-0.008341341,2.69
5/5/11,1344.160034,-0.001755769,2.68
5/6/11,1340.23999,0.007230056,2.71
5/9/11,1340.199951,-0.000596889,2.67
5/10/11,1348.339966,0.004123614,2.67
5/11/11,1354.51001,-0.003551107,2.66
5/12/11,1339.390015,-0.002097981,2.66
5/13/11,1348.689941,-0.000274297,2.63
5/16/11,1334.77002,0.003686013,2.56
5/17/11,1326.099976,-0.000158341,2.52
5/18/11,1328.540039,0.004892559,2.58
5/19/11,1342.400024,-0.001877253,2.42
5/20/11,1342,-0.007682563,2.53
5/23/11,1333.069946,-0.012279885,2.55
5/24/11,1317.699951,0.001221863,2.59
5/25/11,1316.359985,0.001078744,2.58
5/26/11,1320.640015,-0.00271839,2.56
5/27/11,1325.689941,0.004322322,2.53
5/31/11,1331.099976,0.005341465,2.5
6/1/11,1345.199951,-0.011433208,2.45
6/2/11,1314.550049,0.001422503,2.5
6/3/11,1312.939941,-0.004524153,2.45
6/6/11,1300.26001,-0.006075716,2.47
6/7/11,1286.310059,0.006654648,2.46
6/8/11,1284.630005,0.000934117,2.43
6/9/11,1279.630005,0.008010124,2.39
6/10/11,1288.599976,-0.010065169,2.41
6/13/11,1271.310059,0.002619299,2.41
6/14/11,1272.219971,0.012364237,2.52
6/15/11,1287.869995,-0.005738153,2.49
6/16/11,1265.530029,0.005191478,2.45
6/17/11,1268.579956,0.007811919,2.48
6/20/11,1271.5,0.003924499,2.47
6/21/11,1278.400024,0.01033321,2.51
6/22/11,1295.47998,0.000370534,2.48
6/23/11,1286.599976,-0.017884328,2.63
6/24/11,1283.040039,-0.00863577,2.69
6/27/11,1268.439941,0.007292469,2.76
6/28/11,1280.209961,0.008373657,2.76
6/29/11,1296.849976,0.005112406,2.8
6/30/11,1307.640015,0.007379695,2.83
7/1/11,1320.640015,0.00733734,2.85
7/5/11,1339.589966,-0.002291721,2.75
7/6/11,1337.560059,-0.002564415,2.73
7/7/11,1339.619995,0.008703965,2.74
7/8/11,1352.390015,-0.011305921,2.67
7/11/11,1343.310059,-0.014791863,2.61
7/12/11,1319.609985,-0.00082599,2.63
7/13/11,1314.449951,0.011487732,2.67
7/14/11,1317.73999,0.002011026,2.62
7/15/11,1308.869995,0.001512759,2.68
7/18/11,1315.939941,-0.011254268,2.72
7/19/11,1307.069946,0.009226785,2.72
7/20/11,1328.660034,-0.001204246,2.67
7/21/11,1325.650024,0.013419813,2.66
7/22/11,1343.800049,-0.002299486,2.73
7/25/11,1344.319946,-0.004150757,2.84
7/26/11,1337.390015,-0.002362822,2.83
7/27/11,1331.910034,-0.013957425,2.8
7/28/11,1304.839966,0.004153792,2.81
7/29/11,1300.119995,-0.007276248,2.81
8/1/11,1292.589966,-0.004618608,2.81
8/2/11,1286.560059,-0.006358086,2.75
8/3/11,1254.25,-0.0122942,2.69
8/4/11,1260.22998,-0.020900931,2.67
8/5/11,1200.280029,-0.005165485,2.7
8/8/11,1198.47998,-0.030063064,2.66
8/9/11,1120.22998,0.02602146,2.65
8/10/11,1171.77002,-0.032275975,2.65
8/11/11,1121.300049,0.030776732,2.7
8/12/11,1172.869995,0.001619962,2.68
8/15/11,1178.859985,0.014709139,2.66
8/16/11,1204.219971,-0.006576847,2.62
8/17/11,1192.890015,0.010319464,2.59
8/18/11,1189.619995,-0.037961698,2.36
8/19/11,1140.469971,0.0051821,2.4
8/22/11,1123.550049,0.012433759,2.41
8/23/11,1124.359985,0.014514938,2.38
8/24/11,1162.160034,0.002245789,2.43
8/25/11,1176.689941,-0.013928853,2.52
8/26/11,1158.849976,0.005168938,2.44
8/29/11,1177.910034,0.016435861,2.45
8/30/11,1209.76001,-0.008481029,2.43
8/31/11,1213,0.010741962,2.38
9/1/11,1219.119995,-0.032753129,2.44
9/2/11,1203.900024,-0.02052498,2.32
9/6/11,1173.969971,-0.027658264,2.23
9/7/11,1165.849976,0.014967641,2.25
9/8/11,1197.97998,5.84484E-05,2.27
9/9/11,1185.369995,-0.008925479,2.27
9/12/11,1153.5,-0.008062419,2.25
9/13/11,1162.589966,0.005006093,2.25
9/14/11,1173.319946,-0.005403425,2.24
9/15/11,1189.439941,0.005103292,2.19
9/16/11,1209.209961,-0.001447194,2.21
9/19/11,1214.98999,-0.018880806,2.15
9/20/11,1204.5,0.009605645,2.15
9/21/11,1203.630005,-0.00625608,2.06
9/22/11,1164.550049,-0.020626034,1.93
9/23/11,1128.819946,0.005970885,2
9/26/11,1136.910034,-0.003667866,2.1
9/27/11,1163.319946,0.022341278,2.19
9/28/11,1175.390015,-0.001931287,2.17
9/29/11,1151.73999,0.005496041,2.1
9/30/11,1159.930054,-0.013526724,2
10/3/11,1131.209961,-0.005339381,1.98
10/4/11,1097.420044,-0.002824847,2.03
10/5/11,1124.030029,0.00585391,2.1
10/6/11,1144.109985,0.002928053,2.18
10/7/11,1165.030029,0.000180228,2.25
10/10/11,1158.150024,0.026490502,2.25
10/11/11,1194.599976,0.002971726,2.25
10/12/11,1196.189941,0.012899339,2.29
10/13/11,1206.959961,-0.011392226,2.23
10/14/11,1205.650024,0.008526501,2.3
10/17/11,1224.469971,-0.01277285,2.22
10/18/11,1200.75,0.004030814,2.22
10/19/11,1223.459961,0.003032416,2.19
10/20/11,1209.920044,-0.000124012,2.24
10/21/11,1215.390015,0.0179613,2.26
10/24/11,1238.719971,0.007766105,2.28
10/25/11,1254.189941,-0.007877548,2.28
10/26/11,1229.170044,-0.004507142,2.33
10/27/11,1243.969971,0.020048739,2.42
10/28/11,1284.390015,-0.001712887,2.37
10/31/11,1284.959961,-0.012716319,2.3
11/1/11,1251,-0.017929656,2.28
11/2/11,1219.619995,0.016759323,2.29
11/3/11,1238.25,0.007672118,2.27
11/4/11,1260.819946,-0.014117754,2.31
11/7/11,1253.209961,-0.004005682,2.34
11/8/11,1261.119995,0.002014087,2.37
11/9/11,1275.180054,-0.022334143,2.21
11/10/11,1229.589966,-0.00153707,2.28
11/11/11,1240.119995,0.020239981,2.28
11/14/11,1263.849976,-0.007018219,2.26
11/15/11,1251.699951,-0.000207678,2.28
11/16/11,1257.810059,-0.005756083,2.24
11/17/11,1236.560059,-0.001593177,2.21
11/18/11,1216.189941,0.004826597,2.28
11/21/11,1215.619995,-0.022811401,2.21
11/22/11,1192.97998,-0.004710875,2.18
11/23/11,1187.47998,-0.016345522,2.19
11/25/11,1161.410034,0.00843799,2.2
11/28/11,1158.670044,0.031337615,2.24
11/29/11,1192.560059,0.0068843,2.28
11/30/11,1196.719971,0.035137735,2.34
12/1/11,1246.910034,-0.001443596,2.34
12/2/11,1246.030029,0.009028652,2.34
12/5/11,1244.329956,0.01653102,2.33
12/6/11,1257.189941,0.000946602,2.31
12/7/11,1258.140015,-0.006978567,2.35
12/8/11,1260.869995,-0.007082407,2.31
12/9/11,1234.47998,0.009769312,2.4
12/12/11,1255.050049,-0.016055176,2.44
12/13/11,1236.829956,0.002934958,2.37
12/14/11,1225.72998,-0.007807576,2.32
12/15/11,1212.119995,0.003258757,2.25
12/16/11,1216.089966,0.010624242,2.24
12/19/11,1219.73999,-0.000901823,2.24
12/20/11,1205.719971,0.023803229,2.36
12/21/11,1241.25,-0.003303122,2.4
12/22/11,1243.719971,0.003288545,2.44
12/23/11,1254,0.003205742,2.46
12/27/11,1265.02002,0.001873472,2.43
12/28/11,1265.380005,-0.00750763,2.37
12/29/11,1249.75,0.007905581,2.31
12/30/11,1262.819946,-0.000807673,2.33
1/3/12,1258.859985,0.018620033,2.36
1/4/12,1277.030029,-0.006131437,2.45
1/5/12,1277.300049,-0.006920887,2.5
1/6/12,1280.930054,-0.001147646,2.47
1/9/12,1277.829956,3.91633E-05,2.49
1/10/12,1280.77002,0.010852831,2.46
1/11/12,1292.02002,-0.001439622,2.39
1/12/12,1292.47998,-0.004843386,2.39
1/13/12,1294.819946,-0.010457011,2.37
1/17/12,1290.219971,0.005642471,2.38
1/18/12,1293.650024,0.005117285,2.41
1/19/12,1308.069946,0.003707794,2.27
1/20/12,1314.48999,-0.002639799,2.32
1/23/12,1315.290039,0.003809016,2.37
1/24/12,1315.959961,-0.00278121,2.37
1/25/12,1314.400024,-0.002244388,2.43
1/26/12,1326.280029,-0.002148889,2.38
1/27/12,1318.25,-0.003315001,2.34
1/30/12,1316.160034,-0.008281694,2.35
1/31/12,1313.530029,-0.002337235,2.34
2/1/12,1312.449951,0.010408053,2.41
2/2/12,1324.23999,0.003322668,2.43
2/3/12,1326.209961,0.012087105,2.48
2/6/12,1344.319946,-0.003763945,2.47
2/7/12,1344.329956,-0.001658786,2.47
2/8/12,1347.040039,0.000616137,2.53
2/9/12,1349.969971,-0.001518531,2.51
2/10/12,1351.209961,-0.008444255,2.52
2/13/12,1343.060059,0.002583608,2.45
2/14/12,1351.300049,-0.004077591,2.46
2/15/12,1350.52002,0.002606389,2.48
2/16/12,1342.609985,0.003761342,2.53
2/17/12,1358.060059,0.001553643,2.55
2/21/12,1361.219971,0.003496884,2.56
2/22/12,1362.109985,-0.001108563,2.57
2/23/12,1357.530029,-4.42193E-05,2.54
2/24/12,1363.459961,0.001877605,2.51
2/27/12,1365.199951,-0.000849656,2.46
2/28/12,1367.560059,0.002683568,2.51
2/29/12,1372.199951,-0.002966004,2.53
3/1/12,1365.900024,0.003338441,2.53
3/2/12,1374.089966,-0.001404541,2.51
3/5/12,1369.589966,-0.004818936,2.46
3/6/12,1363.630005,-0.013068065,2.42
3/7/12,1343.390015,0.002419242,2.42
3/8/12,1352.650024,0.006032585,2.47
3/9/12,1365.969971,0.005454021,2.49
3/12/12,1370.780029,-0.001604947,2.5
3/13/12,1371.920044,0.005539649,2.55
3/14/12,1395.949951,0.00141126,2.57
3/15/12,1394.170044,0.002725604,2.61
3/16/12,1402.550049,0.001212043,2.68
3/19/12,1404.170044,0.00212934,2.71
3/20/12,1409.589966,-0.004646717,2.69
3/21/12,1405.52002,-0.001551042,2.67
3/22/12,1402.890015,-0.007955018,2.68
3/23/12,1392.780029,-0.000732369,2.68
3/26/12,1397.109985,0.010077957,2.66
3/27/12,1416.550049,0.000501183,2.65
3/28/12,1412.52002,-0.003745094,2.61
3/29/12,1405.390015,-0.008189908,2.63
3/30/12,1403.310059,0.000356258,2.62
4/2/12,1408.469971,0.00225779,2.68
4/3/12,1418.97998,-0.000937279,2.68
4/4/12,1413.089966,-0.011329757,2.64
4/5/12,1398.790039,0.001236755,2.59
4/9/12,1397.449951,-0.010733802,2.62
4/10/12,1382.180054,-0.003668157,2.63
4/11/12,1358.97998,0.009985445,2.65
4/12/12,1368.77002,0.009694821,2.69
4/13/12,1387.609985,-0.009844254,2.63
4/16/12,1370.27002,0.00048894,2.63
4/17/12,1369.569946,0.01089397,2.67
4/18/12,1390.780029,-0.00098508,2.65
4/19/12,1385.079956,0.002837413,2.47
4/20/12,1376.959961,0.006616052,2.5
4/23/12,1378.530029,-0.012578637,2.49
4/24/12,1366.969971,0.005318353,2.49
4/25/12,1372.109985,0.01074259,2.48
4/26/12,1390.640015,0.001589186,2.5
4/27/12,1400.189941,-0.000278492,2.46
4/30/12,1403.26001,-0.005031149,2.44
5/1/12,1397.859985,0.009149711,2.46
5/2/12,1405.5,-0.005336179,2.44
5/3/12,1402.319946,-0.002531481,2.45
5/4/12,1391.51001,-0.011505494,2.49
5/7/12,1368.790039,-0.001702262,2.44
5/8/12,1369.160034,-0.01312486,2.37
5/9/12,1363.199951,-0.01002784,2.34
5/10/12,1354.579956,0.004075096,2.32
5/11/12,1358.109985,0.00310727,2.33
5/14/12,1351.930054,-0.008565572,2.31
5/15/12,1338.359985,0.002398469,2.32
5/16/12,1330.780029,0.006575069,2.29
5/17/12,1324.819946,-0.003774057,2.23
5/18/12,1305.050049,0.00370097,2.35
5/21/12,1295.72998,0.009778287,2.46
5/22/12,1316.089966,0.008753227,2.47
5/23/12,1316.02002,-0.012796173,2.48
5/24/12,1318.719971,0.002024713,2.49
5/25/12,1320.810059,-0.000424027,2.48
5/29/12,1318.900024,0.011600558,2.46
5/30/12,1331.25,-0.012559624,2.45
5/31/12,1313.089966,-0.009054952,2.46
6/1/12,1309.869995,-0.017215445,2.47
6/4/12,1278.290039,-0.00280847,2.49
6/5/12,1277.819946,0.002269533,2.55
6/6/12,1285.609985,0.014794545,2.59
6/7/12,1316.150024,0.001998234,2.53
6/8/12,1314.98999,0.001247165,2.51
6/11/12,1325.719971,-0.001855574,2.47
6/12/12,1309.400024,0.001771786,2.49
6/13/12,1324.02002,0.001064923,2.44
6/14/12,1314.880005,0.00587886,2.43
6/15/12,1329.189941,0.005657626,2.42
6/18/12,1342.420044,0.002361374,2.41
6/19/12,1344.829956,0.009161042,2.47
6/20/12,1358.040039,-0.001767281,2.44
6/21/12,1355.430054,-0.003334775,2.43
6/22/12,1325.920044,0.001387682,2.48
6/25/12,1334.900024,-0.015761498,2.5
6/26/12,1314.089966,-0.000350026,2.52
6/27/12,1320.709961,0.006867548,2.52
6/28/12,1331.52002,-0.012219133,2.52
6/29/12,1330.119995,0.017374376,2.54
7/2/12,1362.329956,-0.002011228,2.51
7/3/12,1365.75,0.003792788,2.49
7/5/12,1373.719971,-0.003850836,2.46
7/6/12,1367.089966,-0.010584502,2.44
7/9/12,1354.660034,-0.002421297,2.43
7/10/12,1352.959961,-0.000901698,2.45
7/11/12,1341.400024,-0.001356809,2.43
7/12/12,1341.290039,-0.011302581,2.4
7/13/12,1334.810059,0.012436182,2.44
7/16/12,1356.5,-0.00200516,2.44
7/17/12,1353.680054,-0.005215452,2.46
7/18/12,1363.579956,0.005133578,2.45
7/19/12,1373.01001,0.001733411,2.5
7/20/12,1376.51001,-0.007032284,2.55
7/23/12,1362.339966,-0.013895185,2.55
7/24/12,1350.52002,-0.007115792,2.54
7/25/12,1338.349976,-0.002361098,2.52
7/26/12,1338.170044,0.012778612,2.51
7/27/12,1360.050049,0.008404066,2.59
7/30/12,1385.939941,0.00152969,2.56
7/31/12,1385.27002,-1.44376E-08,2.57
8/1/12,1379.319946,0.003081268,2.61
8/2/12,1375.130005,-0.001868918,2.57
8/3/12,1365.449951,0.017562012,2.65
8/6/12,1391.040039,0.005262222,2.65
8/7/12,1394.459961,0.0063394,2.67
8/8/12,1401.22998,-0.001741313,2.66
8/9/12,1402.26001,0.001825617,2.62
8/10/12,1402.579956,-0.00121915,2.6
8/13/12,1405.869995,-0.003812582,2.56
8/14/12,1404.359985,0.00187275,2.61
8/15/12,1403.890015,2.84816E-05,2.61
8/16/12,1405.569946,0.002852974,2.6
8/17/12,1415.839966,-0.000791026,2.62
8/20/12,1417.849976,-0.002764733,2.66
8/21/12,1418.130005,0.005260445,2.64
8/22/12,1413.089966,-0.001613461,2.64
8/23/12,1413.48999,-0.003933519,2.64
8/24/12,1401.98999,0.001333826,2.62
8/27/12,1411.130005,-9.21283E-05,2.61
8/28/12,1410.439941,0.00103518,2.66
8/29/12,1409.319946,-0.000475368,2.65
8/30/12,1410.079956,-0.007935689,2.6
8/31/12,1400.069946,0.005178351,2.55
9/4/12,1406.540039,-0.006029006,2.57
9/5/12,1404.939941,0.000391518,2.6
9/6/12,1403.73999,0.017161305,2.61
9/7/12,1432.119995,0.002611517,2.67
9/10/12,1437.920044,-0.00089716,2.64
9/11/12,1429.130005,0.004170366,2.65
9/12/12,1433.560059,0.000320838,2.64
9/13/12,1436.560059,0.000535962,2.71
9/14/12,1460.069946,0.006177823,2.89
9/17/12,1465.420044,-0.001166931,2.87
9/18/12,1461.189941,-0.0018683,2.87
9/19/12,1459.5,0.000938678,2.89
9/20/12,1461.050049,-0.00308001,2.79
9/21/12,1460.339966,0.003560838,2.78
9/24/12,1459.76001,-0.002705931,2.79
9/25/12,1456.939941,0.003617211,2.73
9/26/12,1441.599976,-0.005972514,2.73
9/27/12,1433.359985,0.003885985,2.77
9/28/12,1447.130005,-0.005887519,2.73
10/1/12,1440.900024,0.008675117,2.73
10/2/12,1444.98999,0.001861612,2.82
10/3/12,1446.050049,0.000539367,2.76
10/4/12,1451.079956,0.006271222,2.87
10/5/12,1461.400024,0.004269862,2.86
10/8/12,1460.930054,-0.003196631,2.86
10/9/12,1455.900024,-0.005446819,2.83
10/10/12,1441.47998,-0.001338888,2.81
10/11/12,1432.819946,0.007216576,2.75
10/12/12,1432.839966,0.000656063,2.79
10/15/12,1428.75,0.000265967,2.77
10/16/12,1440.310059,0.007338657,2.74
10/17/12,1454.219971,0.004235968,2.74
10/18/12,1460.939941,-0.001690652,2.82
10/19/12,1457.339966,-0.00737643,2.81
10/22/12,1433.209961,-0.001381487,2.88
10/23/12,1433.73999,-0.0161396,2.85
10/24/12,1413.199951,0.002257323,2.85
10/25/12,1409.73999,0.001354867,2.85
10/26/12,1412.969971,-0.00336877,2.86
10/31/12,1410.98999,0.001006393,2.88
11/1/12,1412.199951,0.010798789,2.91
11/2/12,1427.589966,-0.000889587,2.84
11/5/12,1414.02002,8.48503E-05,2.87
11/6/12,1417.26001,0.00420529,2.88
11/7/12,1428.27002,-0.019408109,2.88
11/8/12,1394.530029,-0.001348145,2.87
11/9/12,1377.550049,0.004036115,2.83
11/12/12,1379.859985,-0.000130437,2.83
11/13/12,1380.030029,0.001782549,2.82
11/14/12,1374.640015,-0.004670325,2.78
11/15/12,1355.410034,-0.000523852,2.76
11/16/12,1353.359985,-0.00277087,2.77
11/19/12,1359.880005,0.015552839,2.75
11/20/12,1386.819946,0.000620163,2.75
11/21/12,1387.790039,-0.000605307,2.75
11/23/12,1391.030029,0.008180967,2.78
11/26/12,1409.150024,-0.004683692,2.74
11/27/12,1406.290039,-0.002908389,2.74
11/28/12,1398.77002,-0.001479886,2.77
11/29/12,1409.959961,0.004347669,2.8
11/30/12,1415.949951,-0.001603129,2.81
12/3/12,1416.339966,0.000804916,2.84
12/4/12,1409.459961,-0.000638515,2.86
12/5/12,1407.050049,-0.003880494,2.84
12/6/12,1409.430054,0.002178147,2.86
12/7/12,1413.949951,5.66137E-05,2.9
12/10/12,1418.069946,0.000387889,2.95
12/11/12,1418.550049,0.008635544,2.93
12/12/12,1427.839966,0.001519802,2.9
12/13/12,1428.47998,-0.000294005,2.82
12/14/12,1419.449951,-0.001070803,2.81
12/17/12,1413.540039,0.005631224,2.85
12/18/12,1430.469971,0.006291659,2.88
12/19/12,1446.790039,-0.001375486,2.83
12/20/12,1435.810059,0.001121277,2.84
12/21/12,1443.670044,-0.008693153,2.86
12/24/12,1430.150024,-0.002782942,2.83
12/26/12,1426.660034,-0.001486012,2.85
12/27/12,1419.829956,-0.005542886,2.83
12/28/12,1418.099976,-0.002411661,2.86
12/31/12,1402.430054,0.002046409,2.81
1/2/13,1426.189941,0.017992035,2.84
1/3/13,1462.420044,-0.001374464,2.81
1/4/13,1459.369995,0.001212856,2.83
1/7/13,1466.469971,-0.00332088,2.88
1/8/13,1461.890015,-0.005616028,2.83
1/9/13,1457.150024,0.003479378,2.86
1/10/13,1461.02002,0.002019124,2.86
1/11/13,1472.119995,-0.001480854,2.86
1/14/13,1472.050049,-0.002221425,2.98
1/15/13,1470.670044,-0.002631484,2.84
1/16/13,1472.329956,-0.001276858,2.8
1/17/13,1472.630005,0.003558256,2.87
1/18/13,1480.949951,-0.001593539,2.86
1/22/13,1485.97998,-0.001823699,2.93
1/23/13,1492.560059,-0.001420418,2.83
1/24/13,1494.810059,0.003712807,2.78
1/25/13,1494.819946,0.001358059,2.87
1/28/13,1502.959961,-0.001689972,2.86
1/29/13,1500.180054,0.00111983,2.85
1/30/13,1507.839966,-0.001963051,2.88
1/31/13,1501.959961,-0.000852194,2.85
2/1/13,1498.109985,0.007422696,2.84
2/4/13,1513.170044,-0.007044842,2.86
2/5/13,1495.709961,0.009079326,2.86
2/6/13,1511.290039,-0.001773345,2.84
2/7/13,1512.119995,-0.007651506,2.85
2/8/13,1509.390015,0.005558527,2.91
2/11/13,1517.930054,-0.000830113,2.88
2/12/13,1517.01001,0.000586674,2.98
2/13/13,1519.430054,0.001987552,2.92
2/14/13,1520.329956,0.000657781,2.9
2/15/13,1521.380005,0.000552127,2.89
2/19/13,1519.790039,0.004217662,2.9
2/20/13,1530.939941,-0.002717246,2.89
2/21/13,1511.949951,-0.004371805,2.87
2/22/13,1502.420044,0.003833785,2.88
2/25/13,1515.599976,0.00079838,2.81
2/26/13,1487.849976,0.002607806,2.82
2/27/13,1496.939941,0.005036982,2.86
2/28/13,1515.98999,-0.0003496,2.88
3/1/13,1514.680054,-0.000673445,2.86
3/4/13,1518.199951,-0.000717923,2.84
3/5/13,1525.199951,0.011087103,2.84
3/6/13,1539.790039,0.001370291,2.85
3/7/13,1541.459961,0.001907308,2.9
3/8/13,1544.26001,0.000964857,2.94
3/11/13,1551.150024,-0.00070272,2.86
3/12/13,1556.219971,-0.001092372,2.83
3/13/13,1552.47998,-0.000173902,2.83
3/14/13,1554.52002,0.003512325,2.83
3/15/13,1563.209961,-0.002584401,2.82
3/18/13,1560.699951,-0.004600469,2.86
3/19/13,1552.099976,-0.001127489,2.81
3/20/13,1548.339966,0.005470397,2.81
3/21/13,1558.709961,-0.005260736,2.82
3/22/13,1545.900024,0.004948558,2.83
3/25/13,1556.890015,0.000186259,2.82
3/26/13,1551.689941,0.003911902,2.85
3/27/13,1563.75,-0.003427658,2.8
3/28/13,1562.859985,0.001490866,2.78
4/1/13,1569.180054,-0.004887937,2.79
4/2/13,1562.170044,0.00671499,2.8
4/3/13,1570.25,-0.003935679,2.78
4/4/13,1553.689941,0.002947859,2.83
4/5/13,1559.97998,-0.010448839,2.82
4/8/13,1553.26001,-0.000431357,2.76
4/9/13,1563.109985,0.000422245,2.84
4/10/13,1568.609985,0.008140975,2.78
4/11/13,1587.72998,0.003407393,2.82
4/12/13,1593.300049,-0.007644542,2.75
4/15/13,1588.839966,-0.005450496,2.8
4/16/13,1552.359985,0.005443335,2.78
4/17/13,1574.569946,-0.014511865,2.76
4/18/13,1552.030029,-0.001997403,2.54
4/19/13,1541.609985,0.004054213,2.6
4/22/13,1555.25,-0.00156888,2.66
4/23/13,1562.5,0.0089088,2.72
4/24/13,1578.780029,0.001260449,2.69
4/25/13,1578.930054,0.006700706,2.68
4/26/13,1585.160034,-0.002069213,2.65
4/29/13,1582.339966,0.005839475,2.64
4/30/13,1593.579956,-0.001324035,2.62
5/1/13,1597.550049,-0.00407502,2.62
5/2/13,1582.77002,0.00511128,2.57
5/3/13,1597.599976,0.012462459,2.59
5/6/13,1614.400024,0.001207864,2.57
5/7/13,1617.550049,0.002299744,2.59
5/8/13,1625.949951,0.002023463,2.55
5/9/13,1632.689941,-0.002064042,2.6
5/10/13,1626.689941,-0.000159798,2.65
5/13/13,1632.099976,0.000153192,2.64
5/14/13,1633.75,0.007412395,2.63
5/15/13,1649.130005,-0.000200109,2.59
5/16/13,1658.069946,-0.000844323,2.57
5/17/13,1652.449951,0.004175648,2.54
5/20/13,1665.709961,0.00161495,2.56
5/21/13,1666.199951,-0.001122285,2.57
5/22/13,1669.390015,0.004145218,2.57
5/23/13,1651.619995,-0.006218134,2.59
5/24/13,1646.670044,-0.004439289,2.61
5/28/13,1652.630005,0.011466568,2.62
5/29/13,1656.569946,-0.00856586,2.55
5/30/13,1649.140015,0.004990471,2.53
5/31/13,1652.130005,5.44721E-05,2.55
6/3/13,1631.709961,-0.002144965,2.51
6/4/13,1640.72998,0.002377003,2.46
6/5/13,1629.050049,-0.005395813,2.44
6/6/13,1609.290039,0.00075186,2.39
6/7/13,1625.27002,0.008847748,2.39
6/10/13,1644.670044,0.000498553,2.37
6/11/13,1638.640015,-0.003551735,2.31
6/12/13,1629.939941,-0.00144787,2.27
6/13/13,1612.150024,0.003330941,2.28
6/14/13,1635.52002,-0.001510235,2.28
6/17/13,1630.640015,0.007549174,2.28
6/18/13,1639.77002,0.004360355,2.28
6/19/13,1651.829956,-0.000895949,2.25
6/20/13,1624.619995,-0.011651952,2.16
6/21/13,1588.619995,0.000591712,2.2
6/24/13,1588.77002,-0.011757536,2.24
6/25/13,1577.52002,0.005071238,2.27
6/26/13,1592.27002,0.004936336,2.23
6/27/13,1606.439941,0.006666953,2.25
6/28/13,1611.119995,-0.001824814,2.22
7/1/13,1609.780029,0.008970152,2.24
7/2/13,1614.290039,0.004937131,2.26
7/3/13,1611.47998,-0.001222466,2.25
7/5/13,1618.650024,-0.000142109,2.27
7/8/13,1634.199951,0.00551955,2.27
7/9/13,1642.890015,0.003031235,2.26
7/10/13,1651.560059,-0.000902213,2.25
7/11/13,1657.410034,0.005991255,2.26
7/12/13,1675.26001,0.000358147,2.28
7/15/13,1679.589966,0.00015482,2.34
7/16/13,1682.699951,-0.001039966,2.39
7/17/13,1677.910034,0.001358813,2.38
7/18/13,1681.050049,0.006222272,2.47
7/19/13,1686.150024,0.000759112,2.51
7/22/13,1694.410034,-1.18236E-05,2.53
7/23/13,1696.630005,-0.002558015,2.5
7/24/13,1696.060059,-0.003449205,2.47
7/25/13,1685.209961,-1.77788E-05,2.51
7/26/13,1687.310059,-0.005440647,2.47
7/29/13,1690.319946,-0.001887185,2.51
7/30/13,1687.920044,0.001729914,2.52
7/31/13,1687.76001,0.00512513,2.57
8/1/13,1689.420044,0.007937609,2.58
8/2/13,1706.099976,-0.001512207,2.51
8/5/13,1708.01001,0.000544487,2.58
8/6/13,1705.790039,-0.005639638,2.62
8/7/13,1695.300049,-0.004777944,2.59
8/8/13,1693.349976,-0.002185004,2.58
8/9/13,1696.099976,-0.000742867,2.57
8/12/13,1688.369995,0.000882511,2.57
8/13/13,1690.650024,-0.002845074,2.54
8/14/13,1693.880005,-0.003967226,2.56
8/15/13,1679.609985,-0.010579828,2.51
8/16/13,1661.219971,0.001215991,2.53
8/19/13,1655.25,0.001600967,2.5
8/20/13,1646.810059,0.004165593,2.52
8/21/13,1650.660034,-0.000424093,2.51
8/22/13,1645.030029,0.006455792,2.45
8/23/13,1659.920044,-0.00055427,2.44
8/26/13,1664.290039,0.00204289,2.48
8/27/13,1652.540039,-0.007781983,2.44
8/28/13,1630.25,0.002809385,2.45
8/29/13,1633.5,0.006721763,2.4
8/30/13,1638.890015,-0.003600007,2.42
9/3/13,1635.949951,0.007836456,2.44
9/4/13,1640.719971,0.004522423,2.4
9/5/13,1653.280029,0.00120365,2.41
9/6/13,1657.439941,-0.000995476,2.43
9/9/13,1656.849976,0.004037797,2.43
9/10/13,1675.109985,0.004811633,2.46
9/11/13,1681.040039,-0.000886379,2.5
9/12/13,1689.209961,-5.89684E-06,2.47
9/13/13,1685.040039,8.89955E-05,2.45
9/16/13,1691.699951,0.005976266,2.48
9/17/13,1697.72998,0.003127718,2.53
9/18/13,1705.73999,-0.002210179,2.56
9/19/13,1727.339966,-0.000688901,2.59
9/20/13,1722.439941,-0.000220583,2.61
9/23/13,1711.439941,-0.005381399,2.68
9/24/13,1702.599976,-0.000798764,2.61
9/25/13,1698.02002,-0.000718496,2.57
9/26/13,1694.050049,0.001794487,2.61
9/27/13,1695.52002,-0.002400455,2.6
9/30/13,1687.26001,-0.002163277,2.64
10/1/13,1682.410034,0.005890339,2.63
10/2/13,1691.900024,-0.005496793,2.6
10/3/13,1692.349976,-0.008201599,2.61
10/4/13,1678.790039,0.003996903,2.61
10/7/13,1687.150024,-0.002293823,2.61
10/8/13,1676.219971,-0.003680884,2.6
10/9/13,1656.98999,-0.001575139,2.64
10/10/13,1660.880005,0.012089973,2.61
10/11/13,1691.089966,0.000195161,2.61
10/14/13,1699.859985,-0.002647268,2.61
10/15/13,1709.170044,-0.001439321,2.63
10/16/13,1700.48999,0.010608713,2.59
10/17/13,1720.170044,5.22948E-05,2.55
10/18/13,1736.719971,0.00073128,2.58
10/21/13,1745.199951,-0.001300682,2.59
10/22/13,1746.47998,0.003618719,2.58
10/23/13,1752.27002,-0.004782379,2.54
10/24/13,1747.47998,0.000612322,2.57
10/25/13,1756.01001,-0.000871299,2.61
10/28/13,1759.420044,0.000892314,2.59
10/29/13,1762.930054,0.002036352,2.6
10/30/13,1772.27002,0.000265185,2.59
10/31/13,1763.23999,-0.002319588,2.6
11/1/13,1758.699951,0.000989395,2.6
11/4/13,1763.400024,0.001321297,2.55
11/5/13,1765.670044,-0.002237136,2.56
11/6/13,1765,0.00188102,2.61
11/7/13,1770.73999,-0.004907547,2.58
11/8/13,1748.369995,0.006491764,2.59
11/11/13,1769.959961,0.001118691,2.59
11/12/13,1769.51001,0.000638589,2.57
11/13/13,1764.369995,0.001632314,2.55
11/14/13,1782.75,0.002389567,2.56
11/15/13,1790.660034,0.001814954,2.56
11/18/13,1798.819946,0.00020572,2.58
11/19/13,1790.790039,0.001513277,2.59
11/20/13,1789.589966,0.001575799,2.57
11/21/13,1783.52002,0.005276072,2.62
11/22/13,1797.209961,0.000406207,2.62
11/25/13,1806.329956,-7.19448E-05,2.61
11/26/13,1802.869995,0.000604594,2.63
11/27/13,1803.47998,0.002156952,2.61
11/29/13,1808.689941,0.001686336,2.61
12/2/13,1806.550049,-0.000476073,2.6
12/3/13,1800.099976,-0.000411075,2.61
12/4/13,1793.150024,0.002782799,2.58
12/5/13,1792.819946,-0.003792877,2.58
12/6/13,1788.359985,0.005038144,2.57
12/9/13,1806.209961,0.000802808,2.61
12/10/13,1807.599976,3.87387E-05,2.6
12/11/13,1802.76001,-0.005763391,2.65
12/12/13,1781.709961,-0.001346999,2.63
12/13/13,1777.97998,-0.001698546,2.66
12/16/13,1777.47998,0.005710343,2.68
12/17/13,1786.469971,-0.003873545,2.67
12/18/13,1781.459961,0.000639946,2.67
12/19/13,1809,-0.001315644,2.55
12/20/13,1810.390015,0.004595687,2.68
12/23/13,1822.920044,0.0023698,2.69
12/24/13,1828.02002,0.001684872,2.7
12/26/13,1834.959961,0.001634934,2.7
12/27/13,1842.969971,-0.001562679,2.76
12/30/13,1841.469971,-0.000906868,2.82
12/31/13,1842.609985,0.001383915,2.79
1/2/14,1845.859985,-0.004166072,2.81
1/3/14,1833.209961,0.001183737,2.83
1/6/14,1832.310059,-0.00106972,2.77
1/7/14,1828.709961,0.005659749,2.69
1/8/14,1837.900024,0.000163217,2.82
1/9/14,1839,-0.002751495,2.79
1/10/14,1840.060059,-0.00209779,2.83
1/13/14,1841.26001,0.000809223,2.83
1/14/14,1821.359985,0.003662107,2.76
1/15/14,1840.52002,0.003249071,2.84
1/16/14,1847.98999,-0.002683992,2.76
1/17/14,1844.22998,-0.000515109,2.8
1/21/14,1841.050049,-7.06385E-05,2.81
1/22/14,1844.709961,-0.001252208,2.71
1/23/14,1842.290039,-0.007599259,2.54
1/24/14,1826.959961,-0.010728183,2.6
1/27/14,1791.030029,-0.001903949,2.56
1/28/14,1783,0.005193494,2.59
1/29/14,1790.150024,-0.004368362,2.56
1/30/14,1777.170044,0.006206472,2.54
1/31/14,1790.880005,-0.006393508,2.56
2/3/14,1782.680054,-0.008094584,2.58
2/4/14,1743.819946,0.003417815,2.49
2/5/14,1753.380005,-0.006108205,2.5
2/6/14,1752.98999,0.009709131,2.5
2/7/14,1776.01001,0.002179036,2.59
2/10/14,1796.199951,-0.002271435,2.59
2/11/14,1800.449951,0.003876836,2.58
2/12/14,1820.119995,-0.000318658,2.59
2/13/14,1814.819946,0.001609005,2.57
2/14/14,1828.459961,0.003390853,2.65
2/18/14,1839.030029,0.00049481,2.49
2/19/14,1838.900024,0.003306311,2.48
2/20/14,1829.23999,0.002749781,2.48
2/21/14,1841.069946,0.002248722,2.5
2/24/14,1836.780029,0.009086538,2.54
2/25/14,1847.660034,-0.00062784,2.52
2/26/14,1845.790039,0.002622162,2.56
2/27/14,1844.900024,0.000254743,2.51
2/28/14,1855.119995,0.005368928,2.55
3/3/14,1857.680054,-0.007364053,2.54
3/4/14,1849.22998,0.011204674,2.57
3/5/14,1874.050049,-0.000672367,2.56
3/6/14,1874.180054,0.003276071,2.58
3/7/14,1878.52002,-0.000218268,2.63
3/10/14,1877.859985,-0.004569023,2.56
3/11/14,1878.26001,0.001054162,2.54
3/12/14,1866.150024,-0.003145526,2.56
3/13/14,1869.060059,-0.002364857,2.59
3/14/14,1845.069946,0.001620564,2.6
3/17/14,1842.810059,0.006690837,2.56
3/18/14,1858.920044,0.005761386,2.59
3/19/14,1872.25,0.000240353,2.59
3/20/14,1860.089966,0.003618123,2.51
3/21/14,1874.530029,0.002661985,2.49
3/24/14,1867.670044,-0.006216325,2.51
3/25/14,1859.47998,0.001511186,2.58
3/26/14,1867.089966,0.00168178,2.53
3/27/14,1852.109985,0.001020466,2.53
3/28/14,1850.069946,0.008010537,2.54
3/31/14,1859.160034,0.006943978,2.56
4/1/14,1873.959961,0.003420585,2.57
4/2/14,1886.609985,0.001298634,2.56
4/3/14,1891.430054,-0.001406372,2.6
4/4/14,1890.25,0.001444253,2.55
4/7/14,1863.920044,-0.004603225,2.63
4/8/14,1845.47998,-0.00083446,2.51
4/9/14,1852.640015,0.00174345,2.58
4/10/14,1872.280029,-0.004230152,2.59
4/11/14,1830.650024,-0.001502212,2.62
4/14/14,1818.180054,0.006495477,2.55
4/15/14,1831.449951,0.000425919,2.6
4/16/14,1846.01001,0.002318509,2.61
4/17/14,1861.72998,0.000214865,2.47
4/21/14,1865.790039,-0.000117933,2.43
4/22/14,1872.569946,0.003327007,2.44
4/23/14,1879.319946,-0.00034052,2.44
4/24/14,1881.969971,-0.00318282,2.43
4/25/14,1877.719971,-0.006598413,2.44
4/28/14,1865,0.004664879,2.41
4/29/14,1870.780029,0.002923899,2.41
4/30/14,1877.099976,0.001177361,2.4
5/1/14,1884.390015,7.95934E-05,2.44
5/2/14,1885.300049,-0.001978491,2.43
5/5/14,1879.449951,0.000814094,2.44
5/6/14,1883.689941,-0.00195889,2.41
5/7/14,1868.530029,-0.000272957,2.48
5/8/14,1877.390015,0.003526164,2.45
5/9/14,1875.27002,-0.002532979,2.44
5/12/14,1880.030029,0.007058382,2.45
5/13/14,1896.75,0.002298669,2.43
5/14/14,1897.130005,-0.001328325,2.42
5/15/14,1888.160034,-0.009443074,2.42
5/16/14,1871.189941,-0.000822974,2.42
5/19/14,1876.660034,0.001641195,2.41
5/20/14,1884.880005,-0.002445782,2.42
5/21/14,1873.339966,0.006202843,2.41
5/22/14,1888.189941,0.002515668,2.45
5/23/14,1893.319946,0.002635611,2.47
5/27/14,1902.01001,0.004847498,2.47
5/28/14,1911.77002,-0.001652929,2.5
5/29/14,1910.599976,0.001664411,2.5
5/30/14,1920.329956,-0.000291594,2.51
6/2/14,1923.869995,-0.002988765,2.51
6/3/14,1923.069946,-0.001159576,2.46
6/4/14,1923.060059,5.19698E-05,2.44
6/5/14,1928.52002,0.000337036,2.44
6/6/14,1942.410034,0.002399064,2.47
6/9/14,1948.969971,0.001770181,2.47
6/10/14,1950.339966,-0.000738315,2.48
6/11/14,1949.369995,-0.003231811,2.5
6/12/14,1943.349976,-0.004373878,2.43
6/13/14,1930.800049,0.002185597,2.45
6/16/14,1934.839966,0.002382644,2.48
6/17/14,1937.150024,-0.000382017,2.49
6/18/14,1942.72998,-0.000123527,2.48
6/19/14,1957.5,-5.10856E-06,2.48
6/20/14,1960.449951,0.000459103,2.54
6/23/14,1962.920044,-0.000774379,2.53
6/24/14,1961.969971,0.002553571,2.51
6/25/14,1949.27002,0.002010999,2.53
6/26/14,1959.890015,-0.0052452,2.52
6/27/14,1956.560059,3.06359E-05,2.51
6/30/14,1960.790039,0.000356979,2.52
7/1/14,1962.290039,0.004627227,2.52
7/2/14,1973.060059,0.001196082,2.51
7/3/14,1975.880005,0.002520393,2.53
7/7/14,1984.219971,-0.002071328,2.53
7/8/14,1976.390015,-0.005373441,2.55
7/9/14,1965.099976,0.002880273,2.6
7/10/14,1966.670044,-0.002577984,2.56
7/11/14,1965.76001,-0.001190384,2.57
7/14/14,1969.859985,0.004502866,2.55
7/15/14,1977.359985,-0.003838444,2.54
7/16/14,1976.349976,0.000323841,2.51
7/17/14,1979.75,-0.000232353,2.49
7/18/14,1961.540039,0.002584684,2.52
7/21/14,1976.930054,-0.005189892,2.51
7/22/14,1975.650024,0.004363109,2.53
7/23/14,1985.319946,0.001667265,2.54
7/24/14,1988.069946,0.000231407,2.61
7/25/14,1984.599976,-0.001174028,2.61
7/28/14,1978.25,-0.00374068,2.61
7/29/14,1980.030029,0.001888846,2.6
7/30/14,1973.209961,-0.003045779,2.6
7/31/14,1965.140015,-0.008594815,2.61
8/1/14,1929.800049,0.00031607,2.62
8/4/14,1926.619995,-0.000757801,2.6
8/5/14,1936.339966,-0.000784969,2.58
8/6/14,1917.290039,0.00214363,2.6
8/7/14,1923.030029,-0.000972439,2.59
8/8/14,1910.349976,0.002931413,2.64
8/11/14,1933.430054,0.004365271,2.64
8/12/14,1935.72998,-0.001157176,2.61
8/13/14,1935.599976,0.003048163,2.58
8/14/14,1947.410034,0.002392904,2.58
8/15/14,1958.869995,-0.001260928,2.53
8/18/14,1958.359985,0.006127584,2.51
8/19/14,1972.72998,0.00292996,2.53
8/20/14,1980.459961,0.000838209,2.51
8/21/14,1986.819946,0.002103892,2.54
8/22/14,1992.599976,-0.00143028,2.49
8/25/14,1991.73999,0.004383107,2.52
8/26/14,1998.589966,0.002536805,2.45
8/27/14,2000.540039,-0.000309936,2.48
8/28/14,1997.420044,-0.00085112,2.49
8/29/14,1998.449951,-0.000460332,2.48
9/2/14,2004.069946,0.00022457,2.54
9/3/14,2003.569946,0.001552256,2.57
9/4/14,2001.670044,0.004401303,2.58
9/5/14,1998,-0.003323323,2.53
9/8/14,2007.170044,-0.002271877,2.52
9/9/14,2000.72998,-0.003983536,2.51
9/10/14,1988.410034,-0.001589227,2.51
9/11/14,1992.849976,-0.002423653,2.48
9/12/14,1996.73999,-0.002954811,2.51
9/15/14,1986.040039,-0.002291011,2.53
9/16/14,1981.930054,0.0031131,2.49
9/17/14,1999.300049,0.001050343,2.49
9/18/14,2003.069946,0.004168628,2.48
9/19/14,2012.73999,0.001137757,2.5
9/22/14,2009.079956,-0.006102274,2.38
9/23/14,1992.780029,-0.000873167,2.41
9/24/14,1983.339966,0.000877325,2.4
9/25/14,1997.319946,-0.012536773,2.42
9/26/14,1966.219971,0.002370045,2.35
9/29/14,1978.959961,-0.002112201,2.29
9/30/14,1978.209961,0.001905783,2.38
10/1/14,1971.439941,-0.006507904,2.32
10/2/14,1945.829956,-0.003402125,2.33
10/3/14,1948.119995,0.006883562,2.3
10/6/14,1970.01001,5.58322E-05,2.31
10/7/14,1962.359985,-0.002843507,2.32
10/8/14,1935.550049,-0.003296246,2.38
10/9/14,1967.680054,-0.006677942,2.42
10/10/14,1925.630005,-0.0024875,2.4
10/13/14,1905.650024,-0.00665391,2.4
10/14/14,1877.109985,0.004704048,2.43
10/15/14,1874.180054,-0.01117825,2.35
10/16/14,1855.949951,0.001476359,2.41
10/17/14,1864.910034,0.012209686,2.41
10/20/14,1885.619995,0.004088843,2.37
10/21/14,1909.380005,0.00979899,2.38
10/22/14,1941.290039,0.001519588,2.35
10/23/14,1931.02002,0.011786506,2.39
10/24/14,1951.589966,0.001070939,2.34
10/27/14,1962.969971,-0.00041772,2.34
10/28/14,1964.140015,0.003126042,2.35
10/29/14,1983.290039,0.000342845,2.37
10/30/14,1979.48999,-0.000262689,2.31
10/31/14,2001.199951,0.005986433,2.31
11/3/14,2018.209961,-0.001585544,2.31
11/4/14,2015.810059,-0.004539147,2.35
11/5/14,2015.290039,0.000853456,2.32
11/6/14,2023.329956,-0.000301461,2.3
11/7/14,2032.359985,-0.001343259,2.29
11/10/14,2032.01001,0.002219472,2.3
11/11/14,2038.199951,0.000873344,2.3
11/12/14,2037.75,-0.001521286,2.29
11/13/14,2039.209961,0.003133586,2.28
11/14/14,2039.73999,-1.96054E-05,2.33
11/17/14,2038.290039,2.94173E-05,2.3
11/18/14,2041.47998,0.003242755,2.26
11/19/14,2051.159912,-0.004548603,2.27
11/20/14,2045.869995,0.002615027,2.29
11/21/14,2057.459961,0.004821498,2.28
11/24/14,2065.070068,0.001801359,2.29
11/25/14,2070.149902,-0.001188272,2.23
11/26/14,2067.360107,0.000904483,2.2
11/28/14,2074.780029,-0.000896495,2.19
12/1/14,2065.780029,-0.006162335,2.19
12/2/14,2053.77002,0.003578775,2.18
12/3/14,2067.449951,0.002379767,2.2
12/4/14,2073.639893,-0.005024929,2.18
12/5/14,2072.780029,0.001138554,2.15
12/8/14,2074.840088,-7.71568E-05,2.18
12/9/14,2056.550049,-0.007050667,2.12
12/10/14,2058.860107,-0.007387635,2.15
12/11/14,2027.920044,0.011864351,2.13
12/12/14,2030.359985,-0.004048536,2.08
12/15/14,2005.030029,-0.001880286,2.07
12/16/14,1986.709961,0.001958031,2.09
12/17/14,1973.77002,0.006434377,2.08
12/18/14,2018.97998,0.010936225,2.1
12/19/14,2061.040039,0.00186797,2.09
12/22/14,2069.280029,0.001391774,2.11
12/23/14,2081.47998,-0.000393941,2.1
12/24/14,2083.25,0.001123245,2.1
12/26/14,2084.300049,0.00298899,2.08
12/29/14,2087.629883,0.002409487,2.08
12/30/14,2088.48999,-0.002140298,2.07
12/31/14,2082.110107,0.001037358,2.09
1/2/15,2058.899902,-0.00165132,2.12
1/5/15,2054.439941,-0.010421303,2.03
1/6/15,2022.150024,-0.001528088,1.96
1/7/15,2005.550049,0.006741268,1.98
1/8/15,2030.609985,0.012282031,2.03
1/9/15,2063.449951,-0.008539074,2.04
1/12/15,2046.130005,-0.007457984,1.98
1/13/15,2031.579956,0.011006234,2.03
1/14/15,2018.400024,-0.005048565,1.96
1/15/15,2013.75,-0.002259466,1.98
1/16/15,1992.25,0.002364161,2.01
1/20/15,2020.76001,-0.004028192,1.99
1/21/15,2020.189941,0.006291517,2.05
1/22/15,2034.300049,0.00607086,2.03
1/23/15,2062.97998,-0.004314138,1.99
1/26/15,2050.419922,0.001029096,1.98
1/27/15,2047.859985,-0.012803602,2.03
1/28/15,2032.339966,-0.002071487,1.98
1/29/15,2002.449951,-0.005013834,1.93
1/30/15,2019.349976,-0.004768849,2.01
2/2/15,1996.670044,-0.003856443,1.98
2/3/15,2022.709961,0.005220738,2
2/4/15,2048.860107,-0.001449639,2.07
2/5/15,2043.449951,0.007756514,2.02
2/6/15,2062.280029,0.004853837,2.06
2/9/15,2053.469971,-0.002220617,2.06
2/10/15,2049.379883,-5.36177E-05,2.08
2/11/15,2068.550049,-0.001547001,2.04
2/12/15,2069.97998,0.005246437,1.95
2/13/15,2088.780029,0.001311757,2.04
2/17/15,2096.469971,-0.00101598,2.09
2/18/15,2099.159912,-0.001443393,2.1
2/19/15,2099.25,-0.000600214,2.13
2/20/15,2097.649902,-0.001701858,2.13
2/23/15,2109.830078,-0.001677897,2.1
2/24/15,2109.100098,0.001706843,2.11
2/25/15,2115.300049,-0.000567319,2.08
2/26/15,2113.909912,-0.001561047,2.09
2/27/15,2110.879883,0.000331671,2.17
3/2/15,2105.22998,0.00319206,2.12
3/3/15,2115.76001,-0.003729161,2.15
3/4/15,2107.719971,-0.008174696,2.13
3/5/15,2098.540039,0.002558903,2.15
3/6/15,2100.909912,-0.003955387,2.11
3/9/15,2072.25,0.002519001,2.05
3/10/15,2076.139893,-0.010129324,2.1
3/11/15,2044.689941,-0.001207978,1.99
3/12/15,2041.099976,0.007255903,2.01
3/13/15,2064.560059,-0.005594441,1.98
3/16/15,2055.350098,0.007682342,2.03
3/17/15,2080.590088,-0.004248837,1.94
3/18/15,2072.840088,-0.001596885,2.07
3/19/15,2098.689941,-0.003916701,2.09
3/20/15,2090.320068,0.00672621,2.02
3/23/15,2107.98999,0.002101533,2.02
3/24/15,2103.939941,-0.000608354,2.01
3/25/15,2093.100098,-0.002321962,2.06
3/26/15,2059.939941,-0.002548589,2.03
3/27/15,2055.780029,0.002028413,1.98
3/30/15,2064.110107,0.00828439,1.97
3/31/15,2084.050049,-0.001660252,2.01
4/1/15,2067.629883,-0.004850908,2.02
4/2/15,2060.030029,0.003339743,2.06
4/6/15,2064.870117,0.005980949,2.1
4/7/15,2080.790039,0.003465011,2.1
4/8/15,2076.939941,-0.000380339,2.1
4/9/15,2081.290039,-0.001739325,2.09
4/10/15,2091.51001,0.003256016,2.08
4/13/15,2102.030029,0.001465236,2.05
4/14/15,2092.280029,-0.001739743,2.05
4/15/15,2097.820068,0.004218633,2.09
4/16/15,2105.959961,-0.000484321,2.12
4/17/15,2102.580078,-0.008641801,2.13
4/20/15,2084.110107,0.007202063,2.18
4/21/15,2102.820068,-0.00148851,2.13
4/22/15,2098.27002,0.001892025,2.14
4/23/15,2107.209961,-0.000251499,2.08
4/24/15,2112.800049,0.001609216,2.07
4/27/15,2119.290039,0.001726975,2.11
4/28/15,2108.350098,-0.001219009,2.09
4/29/15,2112.48999,-0.002191722,2.14
4/30/15,2105.52002,-0.005438096,2.16
5/1/15,2087.379883,0.004158379,2.16
5/4/15,2110.22998,0.003582557,2.15
5/5/15,2112.629883,-0.002286195,2.16
5/6/15,2091.26001,-0.001114166,2.13
5/7/15,2079.959961,0.001283697,2.1
5/8/15,2092.129883,0.01013805,2.1
5/11/15,2115.560059,-0.00086032,2.12
5/12/15,2102.870117,-0.001925995,2.11
5/13/15,2099.620117,0.000614341,2.05
5/14/15,2100.429932,0.006098784,2.09
5/15/15,2122.070068,-0.000410009,2.04
5/18/15,2121.300049,0.000527955,2.08
5/19/15,2129.449951,0.000126816,2.08
5/20/15,2127.790039,0.000159772,2.11
5/21/15,2125.550049,0.001971231,2.05
5/22/15,2130.360107,-3.76026E-05,2.09
5/26/15,2125.340088,-0.008050518,2.05
5/27/15,2105.129883,0.004351331,2.06
5/28/15,2122.27002,-0.003157006,2.07
5/29/15,2120.659912,-0.006309315,2.03
6/1/15,2108.639893,-0.001607621,2.05
6/2/15,2110.409912,-2.83888E-05,2.07
6/3/15,2110.639893,0.004875349,2.07
6/4/15,2112.350098,-0.002395483,2.03
6/5/15,2095.090088,0.000300661,2.08
6/8/15,2092.340088,-0.002069495,2.07
6/9/15,2079.070068,-0.000726319,2.07
6/10/15,2081.120117,0.008418487,2.08
6/11/15,2106.23999,0.001804168,2.03
6/12/15,2107.429932,-0.006799719,2.04
6/15/15,2091.340088,-0.00638829,2.06
6/16/15,2084.26001,0.001923939,2.09
6/17/15,2097.399902,0.001501906,2.11
6/18/15,2101.580078,0.008065323,2.11
6/19/15,2121.060059,-0.001183398,2.09
6/22/15,2112.5,0.006769231,2.15
6/23/15,2123.159912,-0.000357916,2.17
6/24/15,2123.649902,-0.000244815,2.16
6/25/15,2109.959961,0.000800982,2.19
6/26/15,2102.620117,0.000941627,2.18
6/29/15,2098.629883,-0.006690023,2.15
6/30/15,2061.189941,0.000135872,2.13
7/1/15,2067,0.003642961,2.18
7/2/15,2078.030029,0.000312782,2.2
7/6/15,2073.949951,0.001489934,2.17
7/7/15,2069.52002,-0.009205043,2.17
7/8/15,2077.659912,-0.008085978,2.12
7/9/15,2049.72998,0.007225352,2.14
7/10/15,2052.73999,0.007692163,2.16
7/13/15,2080.030029,0.007355649,2.16
7/14/15,2099.719971,0.002538448,2.15
7/15/15,2109.01001,0.001763856,2.15
7/16/15,2110.550049,0.003889958,2.16
7/17/15,2126.800049,-0.002162897,2.16
7/20/15,2126.850098,-0.000578366,2.15
7/21/15,2127.550049,-0.002209137,2.15
7/22/15,2118.209961,-0.002143301,2.12
7/23/15,2114.159912,0.000283842,2.13
7/24/15,2102.23999,-0.003629457,2.12
7/27/15,2078.189941,-0.002304862,2.11
7/28/15,2070.75,0.001849571,2.12
7/29/15,2094.699951,0.00366642,2.14
7/30/15,2106.780029,-0.002791003,2.14
7/31/15,2111.600098,0.000350399,2.12
8/3/15,2104.48999,-0.002143032,2.09
8/4/15,2097.679932,0.000529188,2.11
8/5/15,2095.27002,0.006834432,2.09
8/6/15,2100.75,-0.003632036,2.03
8/7/15,2082.610107,-0.002136793,2.04
8/10/15,2080.97998,0.008890052,2.08
8/11/15,2102.659912,-0.005849692,2.05
8/12/15,2081.100098,-0.012051366,1.97
8/13/15,2086.189941,-0.000709399,2
8/14/15,2083.149902,0.00037448,1.99
8/17/15,2089.699951,0.00040678,1.94
8/18/15,2101.98999,-0.000123688,1.95
8/19/15,2095.689941,-0.009075742,1.97
8/20/15,2076.610107,-0.008937695,1.95
8/21/15,2034.079956,-0.013298374,1.93
8/24/15,1965.150024,-0.020924623,1.87
8/25/15,1898.079956,0.017612558,1.91
8/26/15,1872.75,0.012890135,1.93
8/27/15,1942.77002,0.016836774,1.96
8/28/15,1986.060059,-0.002003997,2
8/31/15,1986.72998,-0.00505352,2
9/1/15,1970.089966,-0.018912825,1.96
9/2/15,1916.52002,0.001956661,1.93
9/3/15,1950.790039,0.009565335,1.92
9/4/15,1947.76001,-0.01121802,1.88
9/8/15,1927.300049,0.010870103,1.91
9/9/15,1971.449951,0.001019579,1.97
9/10/15,1941.589966,0.006479243,1.97
9/11/15,1951.449951,-0.003648544,1.97
9/14/15,1963.060059,-0.002648956,1.93
9/15/15,1955.099976,0.006864111,1.92
9/16/15,1978.02002,0.000925157,1.93
9/17/15,1995.329956,0.000556321,1.92
9/18/15,1989.660034,-0.009639855,1.91
9/21/15,1960.839966,0.008603473,1.89
9/22/15,1961.390015,-0.014703866,1.87
9/23/15,1943.23999,0.001790829,1.88
9/24/15,1934.810059,-0.011205265,1.87
9/25/15,1935.930054,0.005666499,1.81
9/28/15,1929.180054,-0.012290223,1.76
9/29/15,1881.900024,0.00381528,1.75
9/30/15,1887.140015,0.014816063,1.75
10/1/15,1919.650024,-0.000906428,1.79
10/2/15,1921.77002,-0.006702165,1.81
10/5/15,1954.329956,0.009031251,1.84
10/6/15,1986.630005,-0.001963126,1.82
10/7/15,1982.339966,0.002809828,1.88
10/8/15,1994.01001,-0.001218655,1.9
10/9/15,2013.72998,0.001340805,1.86
10/12/15,2015.650024,-0.001155967,1.86
10/13/15,2015,0.000997519,1.86
10/14/15,2003.660034,-0.004347062,1.83
10/15/15,1996.469971,0.005239262,1.82
10/16/15,2024.369995,0.000903987,1.78
10/19/15,2031.72998,-0.001338751,1.77
10/20/15,2033.130005,0.002503527,1.8
10/21/15,2033.469971,-0.001898219,1.77
10/22/15,2021.880005,0.011029337,1.8
10/23/15,2058.189941,0.006185075,1.83
10/26/15,2075.080078,-0.001595157,1.8
10/27/15,2068.75,-0.00137281,1.81
10/28/15,2066.47998,0.006034426,1.8
10/29/15,2088.350098,-0.002571455,1.85
10/30/15,2090,-0.000770335,1.86
11/2/15,2080.76001,0.005368226,1.87
11/3/15,2102.629883,0.000780031,1.89
11/4/15,2110.600098,-0.001208234,1.88
11/5/15,2101.679932,-0.00522436,1.87
11/6/15,2098.600098,-0.001705946,1.93
11/9/15,2096.560059,-0.00758388,1.92
11/10/15,2077.189941,-0.001665683,1.85
11/11/15,2083.409912,-0.003273437,1.85
11/12/15,2072.290039,-0.005240598,1.84
11/13/15,2044.640015,-0.006475475,1.83
11/16/15,2022.079956,0.004248123,1.82
11/17/15,2053.669922,0.004586948,1.83
11/18/15,2051.98999,0.003942519,1.87
11/19/15,2083.699951,-0.000767841,1.85
11/20/15,2082.820068,0.005473316,1.89
11/23/15,2089.409912,0.002771159,1.89
11/24/15,2084.419922,-0.006702067,1.91
11/25/15,2089.300049,0.001421505,1.91
11/27/15,2088.820068,0.000129227,1.89
11/30/15,2090.949951,-0.001099955,1.88
12/1/15,2082.929932,0.00582356,1.85
12/2/15,2101.709961,-9.99001E-05,1.85
12/3/15,2080.709961,-0.003469951,1.89
12/4/15,2051.23999,0.011393113,1.9
12/7/15,2090.419922,-0.009490879,1.87
12/8/15,2073.389893,-0.004224914,1.87
12/9/15,2061.169922,0.007175574,1.85
12/10/15,2047.930054,0.00635273,1.82
12/11/15,2047.27002,-0.009383237,1.75
12/14/15,2013.369995,-0.003600925,1.73
12/15/15,2025.550049,0.0107378,1.74
12/16/15,2046.5,0.002707061,1.72
12/17/15,2073.76001,-0.008245896,1.73
12/18/15,2040.810059,-0.010363561,1.71
12/21/15,2010.27002,0.003735807,1.71
12/22/15,2023.150024,0.00170525,1.73
12/23/15,2042.199951,0.006615439,1.77
12/24/15,2063.52002,-0.000809306,1.81
12/28/15,2057.77002,-0.006196037,1.76
12/29/15,2060.540039,0.006687548,1.78
12/30/15,2077.340088,-0.002840213,1.8
12/31/15,2060.590088,-0.005901265,1.77