DATE,VALUE
2016-02-04,6.5638
2016-02-03,6.5765
2016-02-02,6.5795
2016-02-01,6.5778
2016-01-29,6.5752
2016-01-28,6.5744
2016-01-27,6.5773
2016-01-26,6.5814
2016-01-25,6.579
2016-01-22,6.5788
2016-01-21,6.5794
2016-01-20,6.5781
2016-01-19,6.5783
2016-01-15,6.584
2016-01-14,6.5891
2016-01-13,6.57
2016-01-12,6.57
2016-01-11,6.5675
2016-01-08,6.5932
2016-01-07,6.5926
2016-01-06,6.5554
2016-01-05,6.5219
2016-01-04,6.5338
2015-12-31,6.4778
2015-12-30,6.4896
2015-12-29,6.4778
2015-12-28,6.4778
2015-12-24,6.4758
2015-12-23,6.4763
2015-12-22,6.4778
2015-12-21,6.4793
2015-12-18,6.48
2015-12-17,6.4822
2015-12-16,6.4723
2015-12-15,6.46
2015-12-14,6.4588
2015-12-11,6.4538
2015-12-10,6.4363
2015-12-09,6.427
2015-12-08,6.4162
2015-12-07,6.4081
2015-12-04,6.3883
2015-12-03,6.3883
2015-12-02,6.3883
2015-12-01,6.3883
2015-11-30,6.3883
2015-11-27,6.3945
2015-11-25,6.3877
2015-11-24,6.3883
2015-11-23,6.389
2015-11-20,6.3835
2015-11-19,6.3825
2015-11-18,6.3834
2015-11-17,6.3771
2015-11-16,6.37
2015-11-13,6.3735
2015-11-12,6.369
2015-11-10,6.3603
2015-11-09,6.3619
2015-11-06,6.318
2015-11-05,6.318
2015-11-04,6.3357
2015-11-03,6.318
2015-11-02,6.318
2015-10-30,6.318
2015-10-29,6.3552
2015-10-28,6.3581
2015-10-27,6.3517
2015-10-26,6.3517
2015-10-23,6.3488
2015-10-22,6.3577
2015-10-21,6.3487
2015-10-20,6.348
2015-10-19,6.3591
2015-10-16,6.3523
2015-10-15,6.3459
2015-10-14,6.3462
2015-10-13,6.3417
2015-10-09,6.345
2015-10-08,6.3529
2015-10-07,6.3559
2015-10-06,6.3559
2015-10-05,6.3559
2015-10-02,6.3559
2015-10-01,6.3559
2015-09-30,6.3556
2015-09-29,6.3621
2015-09-28,6.3685
2015-09-25,6.3737
2015-09-24,6.3818
2015-09-23,6.3836
2015-09-22,6.375
2015-09-21,6.3676
2015-09-18,6.3628
2015-09-17,6.3645
2015-09-16,6.3694
2015-09-15,6.3685
2015-09-14,6.3664
2015-09-11,6.3735
2015-09-10,6.377
2015-09-09,6.3768
2015-09-08,6.3657
2015-09-04,6.3549
2015-09-03,6.3549
2015-09-02,6.3544
2015-09-01,6.363
2015-08-31,6.376
2015-08-28,6.389
2015-08-27,6.4053
2015-08-26,6.4083
2015-08-25,6.4122
2015-08-24,6.4029
2015-08-21,6.3887
2015-08-20,6.3875
2015-08-19,6.3956
2015-08-18,6.3928
2015-08-17,6.3937
2015-08-14,6.3908
2015-08-13,6.3982
2015-08-12,6.3845
2015-08-11,6.3232
2015-08-10,6.2094
2015-08-07,6.2087
2015-08-06,6.2096
2015-08-05,6.2096
2015-08-04,6.2086
2015-08-03,6.2087
2015-07-31,6.2097
2015-07-30,6.2096
2015-07-29,6.2089
2015-07-28,6.2084
2015-07-27,6.2091
2015-07-24,6.2095
2015-07-23,6.2091
2015-07-22,6.2093
2015-07-21,6.2095
2015-07-20,6.2095
2015-07-17,6.2085
2015-07-16,6.2094
2015-07-15,6.2082
2015-07-14,6.2088
2015-07-13,6.2081
2015-07-10,6.2092
2015-07-09,6.2086
2015-07-08,6.2087
2015-07-07,6.2097
2015-07-06,6.2089
2015-07-02,6.2044
2015-07-01,6.2008
2015-06-30,6.2
2015-06-29,6.2085
2015-06-26,6.208
2015-06-25,6.2084
2015-06-24,6.2061
2015-06-23,6.2066
2015-06-22,6.2085
2015-06-19,6.2085
2015-06-18,6.2075
2015-06-17,6.2086
2015-06-16,6.2085
2015-06-15,6.208
2015-06-12,6.2081
2015-06-11,6.2065
2015-06-10,6.2055
2015-06-09,6.2047
2015-06-08,6.2053
2015-06-05,6.2024
2015-06-04,6.2006
2015-06-03,6.1976
2015-06-02,6.198
2015-06-01,6.1985
2015-05-29,6.198
2015-05-28,6.2002
2015-05-27,6.2011
2015-05-26,6.2038
2015-05-22,6.1972
2015-05-21,6.1958
2015-05-20,6.2036
2015-05-19,6.2064
2015-05-18,6.2041
2015-05-15,6.2051
2015-05-14,6.2013
2015-05-13,6.2043
2015-05-12,6.2086
2015-05-11,6.2086
2015-05-08,6.2084
2015-05-07,6.2063
2015-05-06,6.2001
2015-05-05,6.2058
2015-05-04,6.2085
2015-05-01,6.2018
2015-04-30,6.2018
2015-04-29,6.1989
2015-04-28,6.2035
2015-04-27,6.2185
2015-04-24,6.193
2015-04-23,6.1975
2015-04-22,6.1927
2015-04-21,6.201
2015-04-20,6.2014
2015-04-17,6.1976
2015-04-16,6.1947
2015-04-15,6.2037
2015-04-14,6.2113
2015-04-13,6.2152
2015-04-10,6.2082
2015-04-09,6.205
2015-04-08,6.202
2015-04-07,6.1955
2015-04-06,6.193
2015-04-03,6.193
2015-04-02,6.1968
2015-04-01,6.1976
2015-03-31,6.199
2015-03-30,6.2065
2015-03-27,6.2145
2015-03-26,6.2103
2015-03-25,6.2116
2015-03-24,6.2046
2015-03-23,6.2135
2015-03-20,6.2037
2015-03-19,6.1955
2015-03-18,6.2289
2015-03-17,6.249
2015-03-16,6.262
2015-03-13,6.2585
2015-03-12,6.2614
2015-03-11,6.2613
2015-03-10,6.2615
2015-03-09,6.2635
2015-03-06,6.262
2015-03-05,6.2658
2015-03-04,6.2701
2015-03-03,6.2741
2015-03-02,6.272
2015-02-27,6.2695
2015-02-26,6.2584
2015-02-25,6.2591
2015-02-24,6.2546
2015-02-23,6.2546
2015-02-20,6.2546
2015-02-19,6.2546
2015-02-18,6.2546
2015-02-17,6.2546
2015-02-13,6.2399
2015-02-12,6.244
2015-02-11,6.2422
2015-02-10,6.2405
2015-02-09,6.2467
2015-02-06,6.2417
2015-02-05,6.2516
2015-02-04,6.2472
2015-02-03,6.2573
2015-02-02,6.2594
2015-01-30,6.2495
2015-01-29,6.2463
2015-01-28,6.2475
2015-01-27,6.243
2015-01-26,6.2535
2015-01-23,6.2279
2015-01-22,6.2085
2015-01-21,6.2112
2015-01-20,6.2137
2015-01-16,6.2065
2015-01-15,6.187
2015-01-14,6.1957
2015-01-13,6.197
2015-01-12,6.2027
2015-01-09,6.2085
2015-01-08,6.2143
2015-01-07,6.2127
2015-01-06,6.2125
2015-01-05,6.2201
2015-01-02,6.2046
2014-12-31,6.2046
2014-12-30,6.2015
2014-12-29,6.2222
2014-12-24,6.2148
2014-12-23,6.2256
2014-12-22,6.2213
2014-12-19,6.2196
2014-12-18,6.2139
2014-12-17,6.1957
2014-12-16,6.189
2014-12-15,6.19
2014-12-12,6.1864
2014-12-11,6.1881
2014-12-10,6.1763
2014-12-09,6.1855
2014-12-08,6.1725
2014-12-05,6.1497
2014-12-04,6.1541
2014-12-03,6.1499
2014-12-02,6.149
2014-12-01,6.1515
2014-11-28,6.1429
2014-11-26,6.1386
2014-11-25,6.1355
2014-11-24,6.1412
2014-11-21,6.1244
2014-11-20,6.123
2014-11-19,6.119
2014-11-18,6.1208
2014-11-17,6.1242
2014-11-14,6.129
2014-11-13,6.1243
2014-11-12,6.1257
2014-11-10,6.119
2014-11-07,6.1225
2014-11-06,6.1117
2014-11-05,6.1135
2014-11-04,6.115
2014-11-03,6.1178
2014-10-31,6.1124
2014-10-30,6.114
2014-10-29,6.1107
2014-10-28,6.113
2014-10-27,6.116
2014-10-24,6.1168
2014-10-23,6.119
2014-10-22,6.118
2014-10-21,6.1205
2014-10-20,6.1233
2014-10-17,6.1238
2014-10-16,6.123
2014-10-15,6.1249
2014-10-14,6.125
2014-10-10,6.1308
2014-10-09,6.1299
2014-10-08,6.1385
2014-10-07,6.1385
2014-10-06,6.1385
2014-10-03,6.1385
2014-10-02,6.138
2014-10-01,6.138
2014-09-30,6.138
2014-09-29,6.1495
2014-09-26,6.1266
2014-09-25,6.1355
2014-09-24,6.1346
2014-09-23,6.1368
2014-09-22,6.14
2014-09-19,6.1403
2014-09-18,6.14
2014-09-17,6.1385
2014-09-16,6.1459
2014-09-15,6.1415
2014-09-12,6.1344
2014-09-11,6.1295
2014-09-10,6.1284
2014-09-09,6.1362
2014-09-08,6.14
2014-09-05,6.14
2014-09-04,6.1383
2014-09-03,6.1408
2014-09-02,6.148
2014-08-29,6.143
2014-08-28,6.1423
2014-08-27,6.143
2014-08-26,6.1522
2014-08-25,6.154
2014-08-22,6.151
2014-08-21,6.151
2014-08-20,6.1395
2014-08-19,6.1425
2014-08-18,6.1425
2014-08-15,6.147
2014-08-14,6.1575
2014-08-13,6.1531
2014-08-12,6.1575
2014-08-11,6.1528
2014-08-08,6.1557
2014-08-07,6.1618
2014-08-06,6.1625
2014-08-05,6.1705
2014-08-04,6.178
2014-08-01,6.1793
2014-07-31,6.1737
2014-07-30,6.1712
2014-07-29,6.18
2014-07-28,6.187
2014-07-25,6.1913
2014-07-24,6.1944
2014-07-23,6.1982
2014-07-22,6.2025
2014-07-21,6.2088
2014-07-18,6.2075
2014-07-17,6.2033
2014-07-16,6.2035
2014-07-15,6.2075
2014-07-14,6.2059
2014-07-11,6.2034
2014-07-10,6.2023
2014-07-09,6.1994
2014-07-08,6.201
2014-07-07,6.2036
2014-07-03,6.2115
2014-07-02,6.2101
2014-07-01,6.1995
2014-06-30,6.2036
2014-06-27,6.218
2014-06-26,6.2235
2014-06-25,6.2343
2014-06-24,6.2308
2014-06-23,6.225
2014-06-20,6.224
2014-06-19,6.2287
2014-06-18,6.2309
2014-06-17,6.2263
2014-06-16,6.225
2014-06-13,6.209
2014-06-12,6.2175
2014-06-11,6.2277
2014-06-10,6.224
2014-06-09,6.2397
2014-06-06,6.2498
2014-06-05,6.2548
2014-06-04,6.2494
2014-06-03,6.2536
2014-06-02,6.2471
2014-05-30,6.2471
2014-05-29,6.2375
2014-05-28,6.2535
2014-05-27,6.2471
2014-05-23,6.2363
2014-05-22,6.2348
2014-05-21,6.2335
2014-05-20,6.2377
2014-05-19,6.2368
2014-05-16,6.2327
2014-05-15,6.2291
2014-05-14,6.2282
2014-05-13,6.2283
2014-05-12,6.2364
2014-05-09,6.227
2014-05-08,6.2272
2014-05-07,6.2349
2014-05-06,6.2255
2014-05-05,6.2453
2014-05-02,6.2591
2014-05-01,6.2591
2014-04-30,6.2591
2014-04-29,6.2578
2014-04-28,6.252
2014-04-25,6.2534
2014-04-24,6.2484
2014-04-23,6.2374
2014-04-22,6.2373
2014-04-21,6.2269
2014-04-18,6.224
2014-04-17,6.2188
2014-04-16,6.2204
2014-04-15,6.2215
2014-04-14,6.2186
2014-04-11,6.2111
2014-04-10,6.2123
2014-04-09,6.2003
2014-04-08,6.1966
2014-04-07,6.2118
2014-04-04,6.2118
2014-04-03,6.2102
2014-04-02,6.2054
2014-04-01,6.2064
2014-03-31,6.2164
2014-03-28,6.2117
2014-03-27,6.2123
2014-03-26,6.2084
2014-03-25,6.201
2014-03-24,6.1956
2014-03-21,6.2248
2014-03-20,6.2273
2014-03-19,6.1934
2014-03-18,6.1918
2014-03-17,6.1779
2014-03-14,6.15
2014-03-13,6.1359
2014-03-12,6.1448
2014-03-11,6.1397
2014-03-10,6.1383
2014-03-07,6.1258
2014-03-06,6.1183
2014-03-05,6.128
2014-03-04,6.143
2014-03-03,6.146
2014-02-28,6.1448
2014-02-27,6.1279
2014-02-26,6.1243
2014-02-25,6.1243
2014-02-24,6.0982
2014-02-21,6.0912
2014-02-20,6.0832
2014-02-19,6.0762
2014-02-18,6.0671
2014-02-14,6.0666
2014-02-13,6.0631
2014-02-12,6.0614
2014-02-11,6.0601
2014-02-10,6.0591
2014-02-07,6.0629
2014-02-06,6.06
2014-02-05,6.06
2014-02-04,6.06
2014-02-03,6.06
2014-01-31,6.059
2014-01-30,6.06
2014-01-29,6.0554
2014-01-28,6.0506
2014-01-27,6.0478
2014-01-24,6.0486
2014-01-23,6.0515
2014-01-22,6.0508
2014-01-21,6.0503
2014-01-17,6.05
2014-01-16,6.0555
2014-01-15,6.0459
2014-01-14,6.0402
2014-01-13,6.0432
2014-01-10,6.0519
2014-01-09,6.054
2014-01-08,6.051
2014-01-07,6.0507
2014-01-06,6.0524
2014-01-03,6.0505
2014-01-02,6.0504
2013-12-31,6.0537
2013-12-30,6.0617
2013-12-27,6.0684
2013-12-26,6.0744
2013-12-24,6.0712
2013-12-23,6.0697
2013-12-20,6.0711
2013-12-19,6.0711
2013-12-18,6.0713
2013-12-17,6.0707
2013-12-16,6.0713
2013-12-13,6.071
2013-12-12,6.071
2013-12-11,6.0712
2013-12-10,6.0705
2013-12-09,6.0643
2013-12-06,6.0815
2013-12-05,6.0903
2013-12-04,6.0913
2013-12-03,6.0914
2013-12-02,6.0927
2013-11-29,6.0922
2013-11-27,6.0922
2013-11-26,6.0925
2013-11-25,6.0916
2013-11-22,6.0935
2013-11-21,6.0914
2013-11-20,6.0925
2013-11-19,6.0924
2013-11-18,6.0918
2013-11-15,6.092
2013-11-14,6.092
2013-11-13,6.0926
2013-11-12,6.0917
2013-11-08,6.0903
2013-11-07,6.0906
2013-11-06,6.0925
2013-11-05,6.0966
2013-11-04,6.098
2013-11-01,6.0993
2013-10-31,6.0943
2013-10-30,6.0936
2013-10-29,6.0897
2013-10-28,6.0853
2013-10-25,6.0838
2013-10-24,6.0815
2013-10-23,6.0833
2013-10-22,6.0925
2013-10-21,6.0924
2013-10-18,6.0966
2013-10-17,6.098
2013-10-16,6.0996
2013-10-15,6.1026
2013-10-11,6.1204
2013-10-10,6.1156
2013-10-09,6.1209
2013-10-08,6.1206
2013-10-07,6.12
2013-10-04,6.12
2013-10-03,6.12
2013-10-02,6.12
2013-10-01,6.12
2013-09-30,6.12
2013-09-27,6.1179
2013-09-26,6.1194
2013-09-25,6.119
2013-09-24,6.1208
2013-09-23,6.1201
2013-09-20,6.121
2013-09-19,6.121
2013-09-18,6.121
2013-09-17,6.1213
2013-09-16,6.1198
2013-09-13,6.1186
2013-09-12,6.1178
2013-09-11,6.1183
2013-09-10,6.1195
2013-09-09,6.1209
2013-09-06,6.1202
2013-09-05,6.1194
2013-09-04,6.1199
2013-09-03,6.1204
2013-08-30,6.1193
2013-08-29,6.1203
2013-08-28,6.1202
2013-08-27,6.1212
2013-08-26,6.1202
2013-08-23,6.12
2013-08-22,6.1206
2013-08-21,6.1229
2013-08-20,6.1241
2013-08-19,6.1227
2013-08-16,6.1145
2013-08-15,6.1123
2013-08-14,6.1191
2013-08-13,6.1217
2013-08-12,6.1218
2013-08-09,6.1217
2013-08-08,6.1207
2013-08-07,6.119
2013-08-06,6.1215
2013-08-05,6.1245
2013-08-02,6.1293
2013-08-01,6.1302
2013-07-31,6.1284
2013-07-30,6.1315
2013-07-29,6.1323
2013-07-26,6.1316
2013-07-25,6.1346
2013-07-24,6.1358
2013-07-23,6.1369
2013-07-22,6.1404
2013-07-19,6.1377
2013-07-18,6.1408
2013-07-17,6.1351
2013-07-16,6.1345
2013-07-15,6.1373
2013-07-12,6.1373
2013-07-11,6.135
2013-07-10,6.1336
2013-07-09,6.1293
2013-07-08,6.1337
2013-07-05,6.1324
2013-07-03,6.1301
2013-07-02,6.1327
2013-07-01,6.1325
2013-06-28,6.1374
2013-06-27,6.1488
2013-06-26,6.1468
2013-06-25,6.1448
2013-06-24,6.1441
2013-06-21,6.1328
2013-06-20,6.1277
2013-06-19,6.1264
2013-06-18,6.1283
2013-06-17,6.1248
2013-06-14,6.1306
2013-06-13,6.1341
2013-06-12,6.1333
2013-06-11,6.1333
2013-06-10,6.1333
2013-06-07,6.1333
2013-06-06,6.1359
2013-06-05,6.1276
2013-06-04,6.1285
2013-06-03,6.1312
2013-05-31,6.134
2013-05-30,6.1307
2013-05-29,6.1264
2013-05-28,6.1213
2013-05-24,6.1311
2013-05-23,6.1337
2013-05-22,6.1309
2013-05-21,6.1353
2013-05-20,6.1386
2013-05-17,6.141
2013-05-16,6.1487
2013-05-15,6.1454
2013-05-14,6.1426
2013-05-13,6.1465
2013-05-10,6.1415
2013-05-09,6.1306
2013-05-08,6.141
2013-05-07,6.1539
2013-05-06,6.1665
2013-05-03,6.1555
2013-05-02,6.156
2013-05-01,6.1647
2013-04-30,6.1647
2013-04-29,6.1647
2013-04-26,6.1647
2013-04-25,6.1707
2013-04-24,6.1782
2013-04-23,6.179
2013-04-22,6.1823
2013-04-19,6.1772
2013-04-18,6.1811
2013-04-17,6.172
2013-04-16,6.1824
2013-04-15,6.1866
2013-04-12,6.1914
2013-04-11,6.1961
2013-04-10,6.1938
2013-04-09,6.2022
2013-04-08,6.2031
2013-04-05,6.2005
2013-04-04,6.2005
2013-04-03,6.1962
2013-04-02,6.1992
2013-04-01,6.2078
2013-03-29,6.2108
2013-03-28,6.2143
2013-03-27,6.2138
2013-03-26,6.2108
2013-03-25,6.2105
2013-03-22,6.212
2013-03-21,6.2141
2013-03-20,6.2117
2013-03-19,6.2154
2013-03-18,6.2156
2013-03-15,6.2133
2013-03-14,6.2145
2013-03-13,6.2137
2013-03-12,6.216
2013-03-11,6.2179
2013-03-08,6.2145
2013-03-07,6.22
2013-03-06,6.2173
2013-03-05,6.2208
2013-03-04,6.2246
2013-03-01,6.2226
2013-02-28,6.2213
2013-02-27,6.2271
2013-02-26,6.2293
2013-02-25,6.2337
2013-02-22,6.2346
2013-02-21,6.2403
2013-02-20,6.2371
2013-02-19,6.2438
2013-02-15,6.2323
2013-02-14,6.2323
2013-02-13,6.2323
2013-02-12,6.2323
2013-02-11,6.2323
2013-02-08,6.2323
2013-02-07,6.2323
2013-02-06,6.2315
2013-02-05,6.2292
2013-02-04,6.2326
2013-02-01,6.2265
2013-01-31,6.2186
2013-01-30,6.2204
2013-01-29,6.2259
2013-01-28,6.224
2013-01-25,6.2203
2013-01-24,6.2179
2013-01-23,6.2178
2013-01-22,6.2196
2013-01-18,6.2152
2013-01-17,6.2158
2013-01-16,6.216
2013-01-15,6.2134
2013-01-14,6.219
2013-01-11,6.2156
2013-01-10,6.223
2013-01-09,6.226
2013-01-08,6.2235
2013-01-07,6.2294
2013-01-04,6.2303
2013-01-03,6.2301
2013-01-02,6.2301
2012-12-31,6.2301
2012-12-28,6.2315
2012-12-27,6.2358
2012-12-26,6.2351
2012-12-24,6.2335
2012-12-21,6.2284
2012-12-20,6.2297
2012-12-19,6.2293
2012-12-18,6.2322
2012-12-17,6.236
2012-12-14,6.241
2012-12-13,6.2316
2012-12-12,6.2502
2012-12-11,6.246
2012-12-10,6.2296
2012-12-07,6.2299
2012-12-06,6.2282
2012-12-05,6.2251
2012-12-04,6.2254
2012-12-03,6.2277
2012-11-30,6.2265
2012-11-29,6.2281
2012-11-28,6.2273
2012-11-27,6.2221
2012-11-26,6.2253
2012-11-23,6.2275
2012-11-21,6.23
2012-11-20,6.2324
2012-11-19,6.2343
2012-11-16,6.2354
2012-11-15,6.2329
2012-11-14,6.225
2012-11-13,6.226
2012-11-09,6.245
2012-11-08,6.2427
2012-11-07,6.2435
2012-11-06,6.2454
2012-11-05,6.2452
2012-11-02,6.2411
2012-11-01,6.2393
2012-10-31,6.2372
2012-10-30,6.2396
2012-10-29,6.2384
2012-10-26,6.248
2012-10-25,6.2416
2012-10-24,6.2478
2012-10-23,6.2478
2012-10-22,6.2543
2012-10-19,6.2533
2012-10-18,6.2501
2012-10-17,6.254
2012-10-16,6.2637
2012-10-15,6.27
2012-10-12,6.267
2012-10-11,6.2765
2012-10-10,6.2831
2012-10-09,6.2877
2012-10-05,6.284
2012-10-04,6.284
2012-10-03,6.284
2012-10-02,6.284
2012-10-01,6.284
2012-09-28,6.2848
2012-09-27,6.3021
2012-09-26,6.3015
2012-09-25,6.3057
2012-09-24,6.309
2012-09-21,6.3051
2012-09-20,6.3036
2012-09-19,6.3091
2012-09-18,6.3187
2012-09-17,6.317
2012-09-14,6.3145
2012-09-13,6.3294
2012-09-12,6.3261
2012-09-11,6.3349
2012-09-10,6.3375
2012-09-07,6.3428
2012-09-06,6.3428
2012-09-05,6.3489
2012-09-04,6.3465
2012-08-31,6.3484
2012-08-30,6.3494
2012-08-29,6.3513
2012-08-28,6.3525
2012-08-27,6.3558
2012-08-24,6.3542
2012-08-23,6.3535
2012-08-22,6.3515
2012-08-21,6.3559
2012-08-20,6.3592
2012-08-17,6.358
2012-08-16,6.3659
2012-08-15,6.3619
2012-08-14,6.3586
2012-08-13,6.3611
2012-08-10,6.3599
2012-08-09,6.3579
2012-08-08,6.361
2012-08-07,6.3664
2012-08-06,6.3738
2012-08-03,6.3721
2012-08-02,6.3671
2012-08-01,6.368
2012-07-31,6.361
2012-07-30,6.3792
2012-07-27,6.3807
2012-07-26,6.3839
2012-07-25,6.3879
2012-07-24,6.3857
2012-07-23,6.3856
2012-07-20,6.3734
2012-07-19,6.3724
2012-07-18,6.369
2012-07-17,6.3725
2012-07-16,6.3784
2012-07-13,6.3789
2012-07-12,6.3732
2012-07-11,6.3682
2012-07-10,6.3654
2012-07-09,6.3709
2012-07-06,6.364
2012-07-05,6.3557
2012-07-03,6.3519
2012-07-02,6.3487
2012-06-29,6.353
2012-06-28,6.357
2012-06-27,6.3561
2012-06-26,6.3626
2012-06-25,6.3631
2012-06-22,6.3644
2012-06-21,6.3644
2012-06-20,6.3597
2012-06-19,6.3542
2012-06-18,6.3539
2012-06-15,6.3649
2012-06-14,6.3702
2012-06-13,6.3685
2012-06-12,6.3703
2012-06-11,6.369
2012-06-08,6.37
2012-06-07,6.3634
2012-06-06,6.3634
2012-06-05,6.367
2012-06-04,6.3641
2012-06-01,6.3692
2012-05-31,6.3684
2012-05-30,6.3574
2012-05-29,6.3478
2012-05-25,6.3439
2012-05-24,6.3449
2012-05-23,6.3343
2012-05-22,6.3223
2012-05-21,6.3277
2012-05-18,6.3245
2012-05-17,6.3247
2012-05-16,6.3227
2012-05-15,6.3176
2012-05-14,6.321
2012-05-11,6.3097
2012-05-10,6.314
2012-05-09,6.3096
2012-05-08,6.3076
2012-05-07,6.3074
2012-05-04,6.3059
2012-05-03,6.3052
2012-05-02,6.307
2012-05-01,6.3089
2012-04-30,6.279
2012-04-27,6.3093
2012-04-26,6.3054
2012-04-25,6.3039
2012-04-24,6.3073
2012-04-23,6.3084
2012-04-20,6.308
2012-04-19,6.3029
2012-04-18,6.3026
2012-04-17,6.3015
2012-04-16,6.315
2012-04-13,6.3022
2012-04-12,6.3069
2012-04-11,6.3076
2012-04-10,6.3105
2012-04-09,6.31
2012-04-06,6.3052
2012-04-05,6.3123
2012-04-04,6.2975
2012-04-03,6.2975
2012-04-02,6.2979
2012-03-30,6.2975
2012-03-29,6.3057
2012-03-28,6.3044
2012-03-27,6.3061
2012-03-26,6.3139
2012-03-23,6.3021
2012-03-22,6.299
2012-03-21,6.3226
2012-03-20,6.3203
2012-03-19,6.3191
2012-03-16,6.3222
2012-03-15,6.3282
2012-03-14,6.3315
2012-03-13,6.3266
2012-03-12,6.3258
2012-03-09,6.3109
2012-03-08,6.3159
2012-03-07,6.3097
2012-03-06,6.3082
2012-03-05,6.3066
2012-03-02,6.2982
2012-03-01,6.3001
2012-02-29,6.2935
2012-02-28,6.2989
2012-02-27,6.3012
2012-02-24,6.2976
2012-02-23,6.298
2012-02-22,6.296
2012-02-21,6.296
2012-02-17,6.2985
2012-02-16,6.3014
2012-02-15,6.2998
2012-02-14,6.2995
2012-02-13,6.2972
2012-02-10,6.2991
2012-02-09,6.2947
2012-02-08,6.2938
2012-02-07,6.3046
2012-02-06,6.312
2012-02-03,6.3027
2012-02-02,6.3017
2012-02-01,6.3076
2012-01-31,6.308
2012-01-30,6.331
2012-01-27,6.333
2012-01-26,6.333
2012-01-25,6.333
2012-01-24,6.333
2012-01-23,6.333
2012-01-20,6.333
2012-01-19,6.3162
2012-01-18,6.3109
2012-01-17,6.3136
2012-01-13,6.3065
2012-01-12,6.3177
2012-01-11,6.3149
2012-01-10,6.3141
2012-01-09,6.3143
2012-01-06,6.3088
2012-01-05,6.3013
2012-01-04,6.2941
2012-01-03,6.294
2011-12-30,6.2939
2011-12-29,6.3187
2011-12-28,6.3211
2011-12-27,6.321
2011-12-23,6.3364
2011-12-22,6.3392
2011-12-21,6.3386
2011-12-20,6.3459
2011-12-19,6.3376
2011-12-16,6.3479
2011-12-15,6.3733
2011-12-14,6.371
2011-12-13,6.3648
2011-12-12,6.3604
2011-12-09,6.3641
2011-12-08,6.3618
2011-12-07,6.3642
2011-12-06,6.3645
2011-12-05,6.3629
2011-12-02,6.3596
2011-12-01,6.3655
2011-11-30,6.3765
2011-11-29,6.3769
2011-11-28,6.3839
2011-11-25,6.3802
2011-11-23,6.3576
2011-11-22,6.3605
2011-11-21,6.3603
2011-11-18,6.3565
2011-11-17,6.3505
2011-11-16,6.3445
2011-11-15,6.3464
2011-11-14,6.3536
2011-11-10,6.3454
2011-11-09,6.3401
2011-11-08,6.3462
2011-11-07,6.3481
2011-11-04,6.34
2011-11-03,6.3513
2011-11-02,6.355
2011-11-01,6.3547
2011-10-31,6.3547
2011-10-28,6.357
2011-10-27,6.359
2011-10-26,6.3534
2011-10-25,6.3605
2011-10-24,6.3744
2011-10-21,6.3823
2011-10-20,6.3825
2011-10-19,6.3769
2011-10-18,6.3804
2011-10-17,6.3695
2011-10-14,6.378
2011-10-13,6.382
2011-10-12,6.358
2011-10-11,6.3745
2011-10-07,6.3745
2011-10-06,6.378
2011-10-05,6.3745
2011-10-04,6.3745
2011-10-03,6.3745
2011-09-30,6.378
2011-09-29,6.3964
2011-09-28,6.3933
2011-09-27,6.3975
2011-09-26,6.3975
2011-09-23,6.3877
2011-09-22,6.3879
2011-09-21,6.3811
2011-09-20,6.3837
2011-09-19,6.3864
2011-09-16,6.3833
2011-09-15,6.3904
2011-09-14,6.391
2011-09-13,6.397
2011-09-12,6.3877
2011-09-09,6.388
2011-09-08,6.3833
2011-09-07,6.394
2011-09-06,6.3901
2011-09-02,6.3821
2011-09-01,6.3812
2011-08-31,6.3778
2011-08-30,6.3802
2011-08-29,6.3809
2011-08-26,6.386
2011-08-25,6.39
2011-08-24,6.388
2011-08-23,6.3975
2011-08-22,6.4004
2011-08-19,6.391
2011-08-18,6.3873
2011-08-17,6.3839
2011-08-16,6.3818
2011-08-15,6.3902
2011-08-12,6.3892
2011-08-11,6.3935
2011-08-10,6.4172
2011-08-09,6.4304
2011-08-08,6.4342
2011-08-05,6.4401
2011-08-04,6.4377
2011-08-03,6.434
2011-08-02,6.4379
2011-08-01,6.4337
2011-07-29,6.436
2011-07-28,6.4418
2011-07-27,6.4428
2011-07-26,6.4411
2011-07-25,6.445
2011-07-22,6.4464
2011-07-21,6.4535
2011-07-20,6.4581
2011-07-19,6.4631
2011-07-18,6.4688
2011-07-15,6.461
2011-07-14,6.459
2011-07-13,6.4675
2011-07-12,6.472
2011-07-11,6.4671
2011-07-08,6.4645
2011-07-07,6.4655
2011-07-06,6.467
2011-07-05,6.466
2011-07-01,6.4645
2011-06-30,6.4635
2011-06-29,6.4633
2011-06-28,6.4699
2011-06-27,6.4815
2011-06-24,6.4737
2011-06-23,6.4676
2011-06-22,6.4628
2011-06-21,6.465
2011-06-20,6.472
2011-06-17,6.47
2011-06-16,6.4746
2011-06-15,6.482
2011-06-14,6.4794
2011-06-13,6.483
2011-06-10,6.4801
2011-06-09,6.4757
2011-06-08,6.4754
2011-06-07,6.481
2011-06-06,6.4796
2011-06-03,6.4796
2011-06-02,6.4824
2011-06-01,6.478
2011-05-31,6.4786
2011-05-27,6.492
2011-05-26,6.4913
2011-05-25,6.493
2011-05-24,6.499
2011-05-23,6.505
2011-05-20,6.4917
2011-05-19,6.5042
2011-05-18,6.5029
2011-05-17,6.5057
2011-05-16,6.5073
2011-05-13,6.4977
2011-05-12,6.4986
2011-05-11,6.4915
2011-05-10,6.4915
2011-05-09,6.4937
2011-05-06,6.4925
2011-05-05,6.4931
2011-05-04,6.4925
2011-05-03,6.4955
2011-05-02,6.492
2011-04-29,6.49
2011-04-28,6.501
2011-04-27,6.5112
2011-04-26,6.527
2011-04-25,6.5277
2011-04-22,6.5067
2011-04-21,6.492
2011-04-20,6.5254
2011-04-19,6.5303
2011-04-18,6.5286
2011-04-15,6.5317
2011-04-14,6.531
2011-04-13,6.5333
2011-04-12,6.5402
2011-04-11,6.5381
2011-04-08,6.535
2011-04-07,6.542
2011-04-06,6.544
2011-04-05,6.539
2011-04-04,6.5385
2011-04-01,6.5477
2011-03-31,6.5483
2011-03-30,6.5558
2011-03-29,6.56
2011-03-28,6.5643
2011-03-25,6.5568
2011-03-24,6.558
2011-03-23,6.5591
2011-03-22,6.551
2011-03-21,6.5635
2011-03-18,6.5689
2011-03-17,6.5743
2011-03-16,6.5713
2011-03-15,6.573
2011-03-14,6.5696
2011-03-11,6.5742
2011-03-10,6.5731
2011-03-09,6.558
2011-03-08,6.5684
2011-03-07,6.554
2011-03-04,6.567
2011-03-03,6.5717
2011-03-02,6.5723
2011-03-01,6.57
2011-02-28,6.5713
2011-02-25,6.5749
2011-02-24,6.572
2011-02-23,6.5741
2011-02-22,6.5795
2011-02-18,6.5731
2011-02-17,6.585
2011-02-16,6.5884
2011-02-15,6.5884
2011-02-14,6.5965
2011-02-11,6.5917
2011-02-10,6.5864
2011-02-09,6.5914
2011-02-08,6.552
2011-02-07,6.56
2011-02-04,6.556
2011-02-03,6.556
2011-02-02,6.556
2011-02-01,6.5937
2011-01-31,6.6017
2011-01-28,6.5819
2011-01-27,6.5814
2011-01-26,6.5814
2011-01-25,6.5824
2011-01-24,6.5809
2011-01-21,6.5831
2011-01-20,6.5852
2011-01-19,6.5823
2011-01-18,6.5828
2011-01-14,6.5876
2011-01-13,6.6044
2011-01-12,6.6037
2011-01-11,6.6185
2011-01-10,6.6364
2011-01-07,6.6276
2011-01-06,6.626
2011-01-05,6.585
2011-01-04,6.6065
2011-01-03,6.5895
2010-12-30,6.6
2010-12-29,6.62
2010-12-28,6.6247
2010-12-27,6.6306
2010-12-23,6.645
2010-12-22,6.645
2010-12-21,6.658
2010-12-20,6.6745
2010-12-17,6.6545
2010-12-16,6.6635
2010-12-15,6.6541
2010-12-14,6.6563
2010-12-13,6.6652
2010-12-10,6.655
2010-12-09,6.6549
2010-12-08,6.6616
2010-12-07,6.6455
2010-12-06,6.6483
2010-12-03,6.6628
2010-12-02,6.6609
2010-12-01,6.663
2010-11-30,6.667
2010-11-29,6.66
2010-11-26,6.6675
2010-11-24,6.6529
2010-11-23,6.6433
2010-11-22,6.6414
2010-11-19,6.6398
2010-11-18,6.633
2010-11-17,6.6415
2010-11-16,6.6378
2010-11-15,6.6418
2010-11-12,6.6368
2010-11-10,6.6335
2010-11-09,6.6424
2010-11-08,6.6791
2010-11-05,6.655
2010-11-04,6.6609
2010-11-03,6.6758
2010-11-02,6.6775
2010-11-01,6.6892
2010-10-29,6.6707
2010-10-28,6.6867
2010-10-27,6.6805
2010-10-26,6.6625
2010-10-25,6.6579
2010-10-22,6.6583
2010-10-21,6.6502
2010-10-20,6.6518
2010-10-19,6.6444
2010-10-18,6.644
2010-10-15,6.6397
2010-10-14,6.6505
2010-10-13,6.6634
2010-10-12,6.6733
2010-10-08,6.671
2010-10-07,6.6903
2010-10-06,6.6893
2010-10-05,6.6906
2010-10-04,6.6912
2010-10-01,6.6895
2010-09-30,6.6905
2010-09-29,6.6869
2010-09-28,6.6904
2010-09-27,6.6911
2010-09-24,6.7035
2010-09-23,6.7046
2010-09-22,6.7035
2010-09-21,6.7059
2010-09-20,6.7135
2010-09-17,6.723
2010-09-16,6.725
2010-09-15,6.738
2010-09-14,6.743
2010-09-13,6.7595
2010-09-10,6.769
2010-09-09,6.782
2010-09-08,6.794
2010-09-07,6.7906
2010-09-03,6.8014
2010-09-02,6.807
2010-09-01,6.8102
2010-08-31,6.8069
2010-08-30,6.8029
2010-08-27,6.7977
2010-08-26,6.7998
2010-08-25,6.7995
2010-08-24,6.7966
2010-08-23,6.7995
2010-08-20,6.79
2010-08-19,6.7897
2010-08-18,6.7911
2010-08-17,6.792
2010-08-16,6.8038
2010-08-13,6.7957
2010-08-12,6.7843
2010-08-11,6.7745
2010-08-10,6.772
2010-08-09,6.767
2010-08-06,6.768
2010-08-05,6.7705
2010-08-04,6.772
2010-08-03,6.7728
2010-08-02,6.774
2010-07-30,6.7735
2010-07-29,6.776
2010-07-28,6.778
2010-07-27,6.7781
2010-07-26,6.7788
2010-07-23,6.7803
2010-07-22,6.7795
2010-07-21,6.7769
2010-07-20,6.7781
2010-07-19,6.778
2010-07-16,6.775
2010-07-15,6.7774
2010-07-14,6.7714
2010-07-13,6.772
2010-07-12,6.7709
2010-07-09,6.772
2010-07-08,6.7763
2010-07-07,6.777
2010-07-06,6.7801
2010-07-02,6.7709
2010-07-01,6.7807
2010-06-30,6.7815
2010-06-29,6.7977
2010-06-28,6.796
2010-06-25,6.7911
2010-06-24,6.8001
2010-06-23,6.8124
2010-06-22,6.8127
2010-06-21,6.7968
2010-06-18,6.8267
2010-06-17,6.829
2010-06-16,6.8323
2010-06-15,6.8323
2010-06-14,6.8323
2010-06-11,6.832
2010-06-10,6.8305
2010-06-09,6.8285
2010-06-08,6.8294
2010-06-07,6.8322
2010-06-04,6.8268
2010-06-03,6.8283
2010-06-02,6.8296
2010-06-01,6.8275
2010-05-28,6.8305
2010-05-27,6.8296
2010-05-26,6.8292
2010-05-25,6.831
2010-05-24,6.8286
2010-05-21,6.8262
2010-05-20,6.8277
2010-05-19,6.8269
2010-05-18,6.8273
2010-05-17,6.8274
2010-05-14,6.8263
2010-05-13,6.8278
2010-05-12,6.827
2010-05-11,6.8285
2010-05-10,6.8263
2010-05-07,6.8254
2010-05-06,6.8265
2010-05-05,6.8263
2010-05-04,6.826
2010-05-03,6.8245
2010-04-30,6.8247
2010-04-29,6.8259
2010-04-28,6.8245
2010-04-27,6.8256
2010-04-26,6.8266
2010-04-23,6.827
2010-04-22,6.8263
2010-04-21,6.8275
2010-04-20,6.8253
2010-04-19,6.8262
2010-04-16,6.8253
2010-04-15,6.826
2010-04-14,6.8258
2010-04-13,6.8255
2010-04-12,6.8252
2010-04-09,6.8229
2010-04-08,6.824
2010-04-07,6.8254
2010-04-06,6.825
2010-04-05,6.8256
2010-04-02,6.8255
2010-04-01,6.8263
2010-03-31,6.8258
2010-03-30,6.8258
2010-03-29,6.8264
2010-03-26,6.8269
2010-03-25,6.827
2010-03-24,6.8266
2010-03-23,6.8263
2010-03-22,6.8266
2010-03-19,6.8265
2010-03-18,6.8261
2010-03-17,6.8259
2010-03-16,6.8257
2010-03-15,6.8259
2010-03-12,6.8254
2010-03-11,6.8266
2010-03-10,6.8259
2010-03-09,6.8263
2010-03-08,6.8261
2010-03-05,6.826
2010-03-04,6.8258
2010-03-03,6.8258
2010-03-02,6.8265
2010-03-01,6.8263
2010-02-26,6.8258
2010-02-25,6.8267
2010-02-24,6.8269
2010-02-23,6.8267
2010-02-22,6.8264
2010-02-19,6.829
2010-02-18,6.833
2010-02-17,6.8326
2010-02-16,6.8326
2010-02-12,6.8326
2010-02-11,6.8328
2010-02-10,6.828
2010-02-09,6.8267
2010-02-08,6.8265
2010-02-05,6.8275
2010-02-04,6.828
2010-02-03,6.826
2010-02-02,6.827
2010-02-01,6.826
2010-01-29,6.8268
2010-01-28,6.8267
2010-01-27,6.8268
2010-01-26,6.8263
2010-01-25,6.8268
2010-01-22,6.827
2010-01-21,6.8268
2010-01-20,6.8258
2010-01-19,6.8268
2010-01-15,6.8269
2010-01-14,6.8265
2010-01-13,6.8295
2010-01-12,6.8267
2010-01-11,6.8263
2010-01-08,6.8274
2010-01-07,6.828
2010-01-06,6.8272
2010-01-05,6.8258
2010-01-04,6.8273
2009-12-31,6.8259
2009-12-30,6.8244
2009-12-29,6.8289
2009-12-28,6.8299
2009-12-24,6.8271
2009-12-23,6.8282
2009-12-22,6.8285
2009-12-21,6.8284
2009-12-18,6.828
2009-12-17,6.8286
2009-12-16,6.8279
2009-12-15,6.827
2009-12-14,6.8281
2009-12-11,6.8269
2009-12-10,6.8264
2009-12-09,6.8275
2009-12-08,6.8275
2009-12-07,6.8288
2009-12-04,6.8261
2009-12-03,6.8269
2009-12-02,6.826
2009-12-01,6.827
2009-11-30,6.8265
2009-11-27,6.8272
2009-11-25,6.8272
2009-11-24,6.8292
2009-11-23,6.83
2009-11-20,6.8277
2009-11-19,6.8283
2009-11-18,6.8269
2009-11-17,6.826
2009-11-16,6.8263
2009-11-13,6.826
2009-11-12,6.8267
2009-11-10,6.8255
2009-11-09,6.8261
2009-11-06,6.8266
2009-11-05,6.8269
2009-11-04,6.8265
2009-11-03,6.8278
2009-11-02,6.8268
2009-10-30,6.8264
2009-10-29,6.8269
2009-10-28,6.827
2009-10-27,6.8292
2009-10-26,6.8278
2009-10-23,6.828
2009-10-22,6.8287
2009-10-21,6.8272
2009-10-20,6.8254
2009-10-19,6.8266
2009-10-16,6.8266
2009-10-15,6.827
2009-10-14,6.8261
2009-10-13,6.8264
2009-10-09,6.8248
2009-10-08,6.826
2009-10-07,6.826
2009-10-06,6.826
2009-10-05,6.826
2009-10-02,6.826
2009-10-01,6.826
2009-09-30,6.8262
2009-09-29,6.8273
2009-09-28,6.8265
2009-09-25,6.8273
2009-09-24,6.8263
2009-09-23,6.8254
2009-09-22,6.8268
2009-09-21,6.8287
2009-09-18,6.827
2009-09-17,6.8262
2009-09-16,6.8247
2009-09-15,6.8289
2009-09-14,6.8282
2009-09-11,6.828
2009-09-10,6.8291
2009-09-09,6.8286
2009-09-08,6.827
2009-09-04,6.8293
2009-09-03,6.8298
2009-09-02,6.8303
2009-09-01,6.8295
2009-08-31,6.8299
2009-08-28,6.83
2009-08-27,6.8316
2009-08-26,6.8309
2009-08-25,6.8318
2009-08-24,6.8308
2009-08-21,6.8313
2009-08-20,6.8317
2009-08-19,6.834
2009-08-18,6.8337
2009-08-17,6.8358
2009-08-14,6.8341
2009-08-13,6.8336
2009-08-12,6.8349
2009-08-11,6.8349
2009-08-10,6.8341
2009-08-07,6.8316
2009-08-06,6.8312
2009-08-05,6.8307
2009-08-04,6.8302
2009-08-03,6.8308
2009-07-31,6.8319
2009-07-30,6.8321
2009-07-29,6.8314
2009-07-28,6.8308
2009-07-27,6.8312
2009-07-24,6.8313
2009-07-23,6.8308
2009-07-22,6.8305
2009-07-21,6.83
2009-07-20,6.8303
2009-07-17,6.8309
2009-07-16,6.831
2009-07-15,6.8315
2009-07-14,6.833
2009-07-13,6.8326
2009-07-10,6.8325
2009-07-09,6.8317
2009-07-08,6.8323
2009-07-07,6.8326
2009-07-06,6.8342
2009-07-03,6.832
2009-07-02,6.8312
2009-07-01,6.8331
2009-06-30,6.8302
2009-06-29,6.8334
2009-06-26,6.833
2009-06-25,6.8344
2009-06-24,6.8307
2009-06-23,6.8346
2009-06-22,6.834
2009-06-19,6.836
2009-06-18,6.8344
2009-06-17,6.8364
2009-06-16,6.8338
2009-06-15,6.8361
2009-06-12,6.8352
2009-06-11,6.8358
2009-06-10,6.833
2009-06-09,6.8353
2009-06-08,6.8371
2009-06-05,6.8329
2009-06-04,6.8331
2009-06-03,6.829
2009-06-02,6.8305
2009-06-01,6.8264
2009-05-29,6.8278
2009-05-28,6.8278
2009-05-27,6.8272
2009-05-26,6.8326
2009-05-22,6.8227
2009-05-21,6.8245
2009-05-20,6.8248
2009-05-19,6.8245
2009-05-18,6.8265
2009-05-15,6.8225
2009-05-14,6.8248
2009-05-13,6.822
2009-05-12,6.821
2009-05-11,6.823
2009-05-08,6.82
2009-05-07,6.8215
2009-05-06,6.8176
2009-05-05,6.8185
2009-05-04,6.8223
2009-05-01,6.818
2009-04-30,6.818
2009-04-29,6.8243
2009-04-28,6.8266
2009-04-27,6.827
2009-04-24,6.825
2009-04-23,6.8265
2009-04-22,6.8296
2009-04-21,6.8254
2009-04-20,6.8331
2009-04-17,6.8325
2009-04-16,6.8316
2009-04-15,6.8321
2009-04-14,6.832
2009-04-13,6.8347
2009-04-10,6.8333
2009-04-09,6.834
2009-04-08,6.835
2009-04-07,6.8361
2009-04-06,6.8343
2009-04-03,6.8343
2009-04-02,6.834
2009-04-01,6.8339
2009-03-31,6.8329
2009-03-30,6.836
2009-03-27,6.831
2009-03-26,6.832
2009-03-25,6.8304
2009-03-24,6.8294
2009-03-23,6.8335
2009-03-20,6.8277
2009-03-19,6.824
2009-03-18,6.8347
2009-03-17,6.8369
2009-03-16,6.8381
2009-03-13,6.838
2009-03-12,6.8383
2009-03-11,6.8399
2009-03-10,6.841
2009-03-09,6.8398
2009-03-06,6.8395
2009-03-05,6.8406
2009-03-04,6.8432
2009-03-03,6.8413
2009-03-02,6.8438
2009-02-27,6.8395
2009-02-26,6.8361
2009-02-25,6.8369
2009-02-24,6.8368
2009-02-23,6.8355
2009-02-20,6.8367
2009-02-19,6.8348
2009-02-18,6.8378
2009-02-17,6.8355
2009-02-13,6.8392
2009-02-12,6.8345
2009-02-11,6.8332
2009-02-10,6.8241
2009-02-09,6.8392
2009-02-06,6.8338
2009-02-05,6.8355
2009-02-04,6.8335
2009-02-03,6.8399
2009-02-02,6.847
2009-01-30,6.8392
2009-01-29,6.8392
2009-01-28,6.8392
2009-01-27,6.8392
2009-01-26,6.8392
2009-01-23,6.8392
2009-01-22,6.837
2009-01-21,6.8392
2009-01-20,6.8403
2009-01-16,6.8369
2009-01-15,6.8363
2009-01-14,6.8347
2009-01-13,6.8341
2009-01-12,6.8362
2009-01-09,6.835
2009-01-08,6.8342
2009-01-07,6.833
2009-01-06,6.836
2009-01-05,6.83
2009-01-02,6.8225
2008-12-31,6.8225
2008-12-30,6.8295
2008-12-29,6.8447
2008-12-26,6.8409
2008-12-24,6.8355
2008-12-23,6.848
2008-12-22,6.851
2008-12-19,6.844
2008-12-18,6.8341
2008-12-17,6.835
2008-12-16,6.8448
2008-12-15,6.848
2008-12-12,6.842
2008-12-11,6.8513
2008-12-10,6.864
2008-12-09,6.873
2008-12-08,6.877
2008-12-05,6.8812
2008-12-04,6.8817
2008-12-03,6.8746
2008-12-02,6.8786
2008-12-01,6.8842
2008-11-28,6.8254
2008-11-26,6.8282
2008-11-25,6.822
2008-11-24,6.8249
2008-11-21,6.8302
2008-11-20,6.834
2008-11-19,6.8295
2008-11-18,6.8239
2008-11-17,6.8264
2008-11-14,6.8236
2008-11-13,6.8291
2008-11-12,6.8293
2008-11-10,6.8267
2008-11-07,6.8255
2008-11-06,6.8245
2008-11-05,6.8285
2008-11-04,6.836
2008-11-03,6.8373
2008-10-31,6.8388
2008-10-30,6.8408
2008-10-29,6.839
2008-10-28,6.8385
2008-10-27,6.8521
2008-10-24,6.8432
2008-10-23,6.8354
2008-10-22,6.8341
2008-10-21,6.8337
2008-10-20,6.8299
2008-10-17,6.8332
2008-10-16,6.8332
2008-10-15,6.835
2008-10-14,6.8339
2008-10-10,6.8357
2008-10-09,6.8202
2008-10-08,6.8171
2008-10-07,6.8171
2008-10-06,6.842
2008-10-03,6.8431
2008-10-02,6.842
2008-10-01,6.8485
2008-09-30,6.7899
2008-09-29,6.8431
2008-09-26,6.8431
2008-09-25,6.815
2008-09-24,6.8233
2008-09-23,6.8114
2008-09-22,6.8306
2008-09-19,6.8355
2008-09-18,6.8375
2008-09-17,6.829
2008-09-16,6.8391
2008-09-15,6.8482
2008-09-12,6.781
2008-09-11,6.8465
2008-09-10,6.835
2008-09-09,6.8381
2008-09-08,6.8438
2008-09-05,6.84
2008-09-04,6.851
2008-09-03,6.8429
2008-09-02,6.8215
2008-08-29,6.8252
2008-08-28,6.8405
2008-08-27,6.807
2008-08-26,6.78
2008-08-25,6.848
2008-08-22,6.8333
2008-08-21,6.8405
2008-08-20,6.8529
2008-08-19,6.8599
2008-08-18,6.8705
2008-08-15,6.8649
2008-08-14,6.86
2008-08-13,6.8601
2008-08-12,6.8659
2008-08-11,6.8577
2008-08-08,6.8604
2008-08-07,6.8555
2008-08-06,6.8482
2008-08-05,6.8501
2008-08-04,6.8471
2008-08-01,6.8423
2008-07-31,6.8388
2008-07-30,6.8272
2008-07-29,6.8264
2008-07-28,6.8332
2008-07-25,6.8189
2008-07-24,6.8292
2008-07-23,6.8279
2008-07-22,6.8248
2008-07-21,6.8271
2008-07-18,6.8168
2008-07-17,6.8189
2008-07-16,6.8104
2008-07-15,6.8211
2008-07-14,6.845
2008-07-11,6.8338
2008-07-10,6.843
2008-07-09,6.8632
2008-07-08,6.851
2008-07-07,6.8567
2008-07-03,6.8529
2008-07-02,6.8542
2008-07-01,6.8608
2008-06-30,6.8591
2008-06-27,6.8618
2008-06-26,6.863
2008-06-25,6.8653
2008-06-24,6.8699
2008-06-23,6.874
2008-06-20,6.8796
2008-06-19,6.877
2008-06-18,6.8821
2008-06-17,6.8954
2008-06-16,6.8911
2008-06-13,6.9044
2008-06-12,6.907
2008-06-11,6.9095
2008-06-10,6.9248
2008-06-09,6.923
2008-06-06,6.923
2008-06-05,6.946
2008-06-04,6.9633
2008-06-03,6.9341
2008-06-02,6.9325
2008-05-30,6.94
2008-05-29,6.9377
2008-05-28,6.9408
2008-05-27,6.945
2008-05-23,6.9412
2008-05-22,6.942
2008-05-21,6.9592
2008-05-20,6.9725
2008-05-19,6.97
2008-05-16,6.988
2008-05-15,6.9943
2008-05-14,6.999
2008-05-13,6.9889
2008-05-12,6.9881
2008-05-09,6.9876
2008-05-08,7.0
2008-05-07,6.986
2008-05-06,6.986
2008-05-05,6.9815
2008-05-02,6.987
2008-05-01,6.9876
2008-04-30,6.987
2008-04-29,6.9845
2008-04-28,7.002
2008-04-25,7.0095
2008-04-24,6.9955
2008-04-23,6.9895
2008-04-22,6.989
2008-04-21,6.9996
2008-04-18,7.0065
2008-04-17,6.984
2008-04-16,6.992
2008-04-15,6.9945
2008-04-14,6.999
2008-04-11,7.006
2008-04-10,6.991
2008-04-09,7.0017
2008-04-08,7.0008
2008-04-07,7.001
2008-04-04,7.015
2008-04-03,7.015
2008-04-02,7.0185
2008-04-01,7.0116
2008-03-31,7.012
2008-03-28,7.012
2008-03-27,7.0105
2008-03-26,7.029
2008-03-25,7.044
2008-03-24,7.055
2008-03-21,7.0515
2008-03-20,7.052
2008-03-19,7.066
2008-03-18,7.0795
2008-03-17,7.083
2008-03-14,7.089
2008-03-13,7.09
2008-03-12,7.101
2008-03-11,7.1027
2008-03-10,7.106
2008-03-07,7.111
2008-03-06,7.1059
2008-03-05,7.1075
2008-03-04,7.106
2008-03-03,7.1035
2008-02-29,7.1115
2008-02-28,7.11
2008-02-27,7.14
2008-02-26,7.158
2008-02-25,7.1522
2008-02-22,7.14
2008-02-21,7.1395
2008-02-20,7.1425
2008-02-19,7.1485
2008-02-15,7.178
2008-02-14,7.188
2008-02-13,7.1973
2008-02-12,7.184
2008-02-11,7.1905
2008-02-08,7.183
2008-02-07,7.183
2008-02-06,7.183
2008-02-05,7.1835
2008-02-04,7.1915
2008-02-01,7.1845
2008-01-31,7.1818
2008-01-30,7.1912
2008-01-29,7.1965
2008-01-28,7.195
2008-01-25,7.2115
2008-01-24,7.2228
2008-01-23,7.24
2008-01-22,7.2456
2008-01-18,7.2424
2008-01-17,7.2245
2008-01-16,7.24
2008-01-15,7.2345
2008-01-14,7.2526
2008-01-11,7.2615
2008-01-10,7.27
2008-01-09,7.2625
2008-01-08,7.267
2008-01-07,7.2705
2008-01-04,7.2695
2008-01-03,7.2755
2008-01-02,7.2946
2007-12-31,7.2946
2007-12-28,7.304
2007-12-27,7.3079
2007-12-26,7.345
2007-12-24,7.3475
2007-12-21,7.368
2007-12-20,7.3669
2007-12-19,7.3718
2007-12-18,7.3741
2007-12-17,7.3805
2007-12-14,7.375
2007-12-13,7.37
2007-12-12,7.374
2007-12-11,7.379
2007-12-10,7.39
2007-12-07,7.407
2007-12-06,7.412
2007-12-05,7.39
2007-12-04,7.405
2007-12-03,7.401
2007-11-30,7.385
2007-11-29,7.38
2007-11-28,7.3905
2007-11-27,7.3865
2007-11-26,7.397
2007-11-23,7.4079
2007-11-22,7.416
2007-11-21,7.416
2007-11-20,7.4225
2007-11-19,7.4313
2007-11-16,7.425
2007-11-15,7.425
2007-11-14,7.425
2007-11-13,7.4279
2007-11-09,7.419
2007-11-08,7.4211
2007-11-07,7.442
2007-11-06,7.4515
2007-11-05,7.455
2007-11-02,7.458
2007-11-01,7.4582
2007-10-31,7.4682
2007-10-30,7.472
2007-10-29,7.4728
2007-10-26,7.4976
2007-10-25,7.48
2007-10-24,7.4925
2007-10-23,7.502
2007-10-22,7.5075
2007-10-19,7.508
2007-10-18,7.5148
2007-10-17,7.5156
2007-10-16,7.5116
2007-10-15,7.513
2007-10-12,7.509
2007-10-11,7.508
2007-10-10,7.5075
2007-10-09,7.5095
2007-10-08,7.5098
2007-10-05,7.5098
2007-10-04,7.5098
2007-10-03,7.5
2007-10-02,7.5093
2007-10-01,7.5158
2007-09-28,7.4928
2007-09-27,7.5135
2007-09-26,7.516
2007-09-25,7.514
2007-09-24,7.5075
2007-09-21,7.5
2007-09-20,7.5055
2007-09-19,7.5135
2007-09-18,7.522
2007-09-17,7.519
2007-09-14,7.517
2007-09-13,7.511
2007-09-12,7.521
2007-09-11,7.522
2007-09-10,7.5235
2007-09-07,7.537
2007-09-06,7.533
2007-09-05,7.554
2007-09-04,7.551
2007-09-03,7.5462
2007-08-31,7.5462
2007-08-30,7.542
2007-08-29,7.549
2007-08-28,7.5535
2007-08-27,7.5604
2007-08-24,7.567
2007-08-23,7.5867
2007-08-22,7.5937
2007-08-21,7.594
2007-08-20,7.585
2007-08-17,7.596
2007-08-16,7.6181
2007-08-15,7.585
2007-08-14,7.578
2007-08-13,7.5835
2007-08-10,7.5698
2007-08-09,7.5663
2007-08-08,7.5748
2007-08-07,7.57
2007-08-06,7.5608
2007-08-03,7.567
2007-08-02,7.5733
2007-08-01,7.567
2007-07-31,7.572
2007-07-30,7.57
2007-07-27,7.564
2007-07-26,7.568
2007-07-25,7.5596
2007-07-24,7.566
2007-07-23,7.5652
2007-07-20,7.5727
2007-07-19,7.558
2007-07-18,7.5655
2007-07-17,7.5651
2007-07-16,7.566
2007-07-13,7.571
2007-07-12,7.569
2007-07-11,7.566
2007-07-10,7.5855
2007-07-09,7.6055
2007-07-06,7.6
2007-07-05,7.6
2007-07-03,7.5948
2007-07-02,7.6055
2007-06-29,7.612
2007-06-28,7.6198
2007-06-27,7.621
2007-06-26,7.6178
2007-06-25,7.6187
2007-06-22,7.622
2007-06-21,7.6208
2007-06-20,7.618
2007-06-19,7.6175
2007-06-18,7.6193
2007-06-15,7.6245
2007-06-14,7.642
2007-06-13,7.637
2007-06-12,7.6456
2007-06-11,7.668
2007-06-08,7.6666
2007-06-07,7.6525
2007-06-06,7.6377
2007-06-05,7.6397
2007-06-04,7.6503
2007-06-01,7.6483
2007-05-31,7.6516
2007-05-30,7.6463
2007-05-29,7.6514
2007-05-25,7.6527
2007-05-24,7.6525
2007-05-23,7.649
2007-05-22,7.656
2007-05-21,7.6656
2007-05-18,7.6636
2007-05-17,7.673
2007-05-16,7.683
2007-05-15,7.6938
2007-05-14,7.6719
2007-05-11,7.6835
2007-05-10,7.6936
2007-05-09,7.6941
2007-05-08,7.6951
2007-05-07,7.7039
2007-05-04,7.7035
2007-05-03,7.705
2007-05-02,7.7039
2007-05-01,7.7065
2007-04-30,7.709
2007-04-27,7.7139
2007-04-26,7.73
2007-04-25,7.7203
2007-04-24,7.7345
2007-04-23,7.728
2007-04-20,7.715
2007-04-19,7.7125
2007-04-18,7.7208
2007-04-17,7.7288
2007-04-16,7.7283
2007-04-13,7.7222
2007-04-12,7.724
2007-04-11,7.7317
2007-04-10,7.7304
2007-04-09,7.729
2007-04-06,7.7248
2007-04-05,7.725
2007-04-04,7.7345
2007-04-03,7.7267
2007-04-02,7.7296
2007-03-30,7.7232
2007-03-29,7.728
2007-03-28,7.7318
2007-03-27,7.7334
2007-03-26,7.7396
2007-03-23,7.729
2007-03-22,7.7286
2007-03-21,7.735
2007-03-20,7.732
2007-03-19,7.7355
2007-03-16,7.728
2007-03-15,7.743
2007-03-14,7.737
2007-03-13,7.741
2007-03-12,7.7454
2007-03-09,7.7445
2007-03-08,7.74
2007-03-07,7.743
2007-03-06,7.7453
2007-03-05,7.7415
2007-03-02,7.7445
2007-03-01,7.7435
2007-02-28,7.741
2007-02-27,7.7416
2007-02-26,7.75
2007-02-23,7.7416
2007-02-22,7.7436
2007-02-21,7.7426
2007-02-20,7.7466
2007-02-16,7.7426
2007-02-15,7.7545
2007-02-14,7.7565
2007-02-13,7.7632
2007-02-12,7.757
2007-02-09,7.7476
2007-02-08,7.7484
2007-02-07,7.7474
2007-02-06,7.7565
2007-02-05,7.7602
2007-02-02,7.7555
2007-02-01,7.7575
2007-01-31,7.7714
2007-01-30,7.775
2007-01-29,7.773
2007-01-26,7.7748
2007-01-25,7.7705
2007-01-24,7.7705
2007-01-23,7.7756
2007-01-22,7.7759
2007-01-19,7.7752
2007-01-18,7.7705
2007-01-17,7.7752
2007-01-16,7.79
2007-01-12,7.7984
2007-01-11,7.7945
2007-01-10,7.8075
2007-01-09,7.8055
2007-01-08,7.8127
2007-01-05,7.8047
2007-01-04,7.809
2007-01-03,7.8051
2007-01-02,7.8051
2006-12-29,7.8041
2006-12-28,7.8116
2006-12-27,7.8215
2006-12-26,7.8199
2006-12-22,7.8153
2006-12-21,7.816
2006-12-20,7.8158
2006-12-19,7.8243
2006-12-18,7.8192
2006-12-15,7.8265
2006-12-14,7.8229
2006-12-13,7.8265
2006-12-12,7.8283
2006-12-11,7.834
2006-12-08,7.8235
2006-12-07,7.8226
2006-12-06,7.8224
2006-12-05,7.8217
2006-12-04,7.8274
2006-12-01,7.835
2006-11-30,7.834
2006-11-29,7.8303
2006-11-28,7.844
2006-11-27,7.8426
2006-11-24,7.8515
2006-11-22,7.8731
2006-11-21,7.8683
2006-11-20,7.8694
2006-11-17,7.8717
2006-11-16,7.8713
2006-11-15,7.8677
2006-11-14,7.864
2006-11-13,7.8642
2006-11-10,7.8635
2006-11-09,7.8645
2006-11-08,7.8651
2006-11-07,7.872
2006-11-06,7.875
2006-11-03,7.8715
2006-11-02,7.872
2006-11-01,7.8714
2006-10-31,7.8785
2006-10-30,7.8728
2006-10-27,7.8886
2006-10-26,7.8949
2006-10-25,7.901
2006-10-24,7.9023
2006-10-23,7.8981
2006-10-20,7.9028
2006-10-19,7.9102
2006-10-18,7.9066
2006-10-17,7.9081
2006-10-16,7.912
2006-10-13,7.9
2006-10-12,7.9143
2006-10-11,7.9168
2006-10-10,7.91
2006-10-06,7.904
2006-10-05,7.904
2006-10-04,7.904
2006-10-03,7.904
2006-10-02,7.904
2006-09-29,7.904
2006-09-28,7.8965
2006-09-27,7.9019
2006-09-26,7.9135
2006-09-25,7.9212
2006-09-22,7.9195
2006-09-21,7.9248
2006-09-20,7.9264
2006-09-19,7.9357
2006-09-18,7.9465
2006-09-15,7.9429
2006-09-14,7.9462
2006-09-13,7.949
2006-09-12,7.9464
2006-09-11,7.9545
2006-09-08,7.9485
2006-09-07,7.9409
2006-09-06,7.947
2006-09-05,7.9495
2006-09-01,7.9533
2006-08-31,7.9538
2006-08-30,7.959
2006-08-29,7.9615
2006-08-28,7.9706
2006-08-25,7.969
2006-08-24,7.9694
2006-08-23,7.9698
2006-08-22,7.9663
2006-08-21,7.9698
2006-08-18,7.9736
2006-08-17,7.9685
2006-08-16,7.9827
2006-08-15,8.0
2006-08-14,7.9928
2006-08-11,7.9725
2006-08-10,7.969
2006-08-09,7.9745
2006-08-08,7.9712
2006-08-07,7.968
2006-08-04,7.9783
2006-08-03,7.9748
2006-08-02,7.972
2006-08-01,7.973
2006-07-31,7.969
2006-07-28,7.9792
2006-07-27,7.974
2006-07-26,7.9849
2006-07-25,7.9872
2006-07-24,7.9851
2006-07-21,7.9897
2006-07-20,7.9918
2006-07-19,8.0018
2006-07-18,8.0016
2006-07-17,7.997
2006-07-14,7.9956
2006-07-13,7.9899
2006-07-12,7.9892
2006-07-11,7.9911
2006-07-10,7.9908
2006-07-07,7.9936
2006-07-06,7.9945
2006-07-05,7.9955
2006-07-03,7.9924
2006-06-30,7.9943
2006-06-29,7.9955
2006-06-28,7.997
2006-06-27,7.998
2006-06-26,7.9995
2006-06-23,7.9997
2006-06-22,7.9963
2006-06-21,7.9969
2006-06-20,8.0009
2006-06-19,8.0035
2006-06-16,7.9995
2006-06-15,7.999
2006-06-14,7.9985
2006-06-13,8.0034
2006-06-12,8.015
2006-06-09,8.011
2006-06-08,8.0084
2006-06-07,8.0171
2006-06-06,8.012
2006-06-05,8.0057
2006-06-02,8.0225
2006-06-01,8.0184
2006-05-31,8.0215
2006-05-30,8.03
2006-05-26,8.0245
2006-05-25,8.0235
2006-05-24,8.0175
2006-05-23,8.0235
2006-05-22,8.0255
2006-05-19,8.0175
2006-05-18,8.0095
2006-05-17,8.002
2006-05-16,8.0005
2006-05-15,8.003
2006-05-12,8.0056
2006-05-11,8.0038
2006-05-10,8.0032
2006-05-09,8.0042
2006-05-08,8.007
2006-05-05,8.0114
2006-05-04,8.0114
2006-05-03,8.01
2006-05-02,8.0165
2006-05-01,8.0165
2006-04-28,8.0165
2006-04-27,8.0205
2006-04-26,8.0163
2006-04-25,8.01
2006-04-24,8.0163
2006-04-21,8.0165
2006-04-20,8.011
2006-04-19,8.0128
2006-04-18,8.014
2006-04-17,8.0158
2006-04-14,8.0175
2006-04-13,8.0248
2006-04-12,8.0115
2006-04-11,8.0045
2006-04-10,8.004
2006-04-07,8.013
2006-04-06,8.0098
2006-04-05,8.0116
2006-04-04,8.0194
2006-04-03,8.021
2006-03-31,8.0167
2006-03-30,8.027
2006-03-29,8.028
2006-03-28,8.0212
2006-03-27,8.0245
2006-03-24,8.0338
2006-03-23,8.0274
2006-03-22,8.0306
2006-03-21,8.0272
2006-03-20,8.025
2006-03-17,8.0286
2006-03-16,8.0385
2006-03-15,8.0374
2006-03-14,8.0473
2006-03-13,8.0505
2006-03-10,8.0492
2006-03-09,8.048
2006-03-08,8.0476
2006-03-07,8.0425
2006-03-06,8.0382
2006-03-03,8.038
2006-03-02,8.0394
2006-03-01,8.039
2006-02-28,8.0415
2006-02-27,8.042
2006-02-24,8.0432
2006-02-23,8.0477
2006-02-22,8.0497
2006-02-21,8.0485
2006-02-17,8.0493
2006-02-16,8.0494
2006-02-15,8.0481
2006-02-14,8.0477
2006-02-13,8.0472
2006-02-10,8.0516
2006-02-09,8.0558
2006-02-08,8.0545
2006-02-07,8.0566
2006-02-06,8.056
2006-02-03,8.0616
