Date,Date,DataText,ID,Out-Sample?,Learning-1 or Test-0 or Out_Sample-2,SP_Change,DayClass,Shiller P/E 10,Dividend D,Earnings E,CPI,Long Interest Rate GS10,Real Price,Real Dividend,Real Earnings,Industry Production,CPIAUCSL (CPI FRED),MICHExpectedInflation,Weekly Sentiment bullish,RealGDP-Quarterly,RiskPremium,US_BusinessConfidenceIndex,G7_BCI,UMichSentiment,US_MoneyStockM2,US_ConsumerConfidence,US_CompositeLeadingIndex,US_InitialClaims,US_CivilianUnEmP,US_CollegeGradUnEmp,TenYearTreasury
2/7/06,2006-02,2006-02,3,No,1,-0.004513778,0,26.24962476,22.59333333,71.72333333,198.7,4.57,1515.768087,26.82509196,85.1572003,100.9981,199.4,3,0.4019,14589.6,0.049149036,100,100,86.7,6699.2,100.7803,100.1885,286500,4.8,2.2,4.57
2/8/06,2006-02,2006-02,4,No,1,0.002263322,0,26.24962476,22.59333333,71.72333333,198.7,4.57,1515.768087,26.82509196,85.1572003,100.9981,199.4,3,0.4019,14589.6,0.049149036,100,100,86.7,6699.2,100.7803,100.1885,286500,4.8,2.2,4.56
2/15/06,2006-02,2006-02,9,No,1,0.002485219,0,26.24962476,22.59333333,71.72333333,198.7,4.57,1515.768087,26.82509196,85.1572003,100.9981,199.4,3,0.4019,14589.6,0.049149036,100,100,86.7,6699.7,100.7803,100.1885,289750,4.8,2.2,4.61
2/16/06,2006-02,2006-02,10,No,1,0.000703125,0,26.24962476,22.59333333,71.72333333,198.7,4.57,1515.768087,26.82509196,85.1572003,100.9981,199.4,3,0.4018,14589.6,0.049149036,100,100,86.7,6699.7,100.7803,100.1885,289750,4.8,2.2,4.59
5/22/06,2006-05,2006-05,75,No,1,-0.00455398,0,25.65064071,23.22,73.88333333,202.5,5.11,1502.888724,27.05178733,86.07563397,101.5254,201.3,4,0.3939,14589.6,0.049149036,100,100,79.1,6777.3,100.4968,100.6932,330500,4.6,2,5.04
5/23/06,2006-05,2006-05,76,No,1,0.007368858,1,25.65064071,23.22,73.88333333,202.5,5.11,1502.888724,27.05178733,86.07563397,101.5254,201.3,4,0.3939,14589.6,0.049149036,100,100,79.1,6777.3,100.4968,100.6932,330500,4.6,2,5.07
6/2/06,2006-06,2006-06,83,No,1,0.001882259,0,24.74958224,23.44,74.49,202.9,5.11,1457.091146,27.25425638,86.61132926,101.9173,201.8,3.3,0.3077,14589.6,0.049149036,100,100,84.9,6778.4,100.4335,100.7673,332750,4.6,2.1,5
6/5/06,2006-06,2006-06,84,No,1,-0.003431277,0,24.74958224,23.44,74.49,202.9,5.11,1457.091146,27.25425638,86.61132926,101.9173,201.8,3.3,0.3077,14589.6,0.049149036,100,100,84.9,6789.1,100.4335,100.7673,322750,4.6,2.1,5.02
6/8/06,2006-06,2006-06,87,No,1,-0.005787813,-1,24.74958224,23.44,74.49,202.9,5.11,1457.091146,27.25425638,86.61132926,101.9173,201.8,3.3,0.2623,14589.6,0.049149036,100,100,84.9,6789.1,100.4335,100.7673,322750,4.6,2.1,5
6/9/06,2006-06,2006-06,88,No,1,0.002353029,0,24.74958224,23.44,74.49,202.9,5.11,1457.091146,27.25425638,86.61132926,101.9173,201.8,3.3,0.2623,14589.6,0.049149036,100,100,84.9,6789.1,100.4335,100.7673,322750,4.6,2.1,4.98
7/5/06,2006-07,2006-07,105,No,1,-0.009655911,-1,24.69678677,23.66,75.85,203.5,5.09,1460.991278,27.42894499,87.93260682,101.8981,202.9,3.3,0.386,14602.6,0.049149036,100,100,84.7,6825.2,100.413,100.8093,307750,4.7,2.3,5.23
7/6/06,2006-07,2006-07,106,No,1,0.004328767,0,24.69678677,23.66,75.85,203.5,5.09,1460.991278,27.42894499,87.93260682,101.8981,202.9,3.3,0.377,14602.6,0.049149036,100,100,84.7,6825.2,100.413,100.8093,307750,4.7,2.3,5.19
9/20/06,2006-09,2006-09,159,No,1,0.007077382,1,25.64415644,24.1,78.57,202.9,4.72,1532.168251,28.02165439,91.3552442,102.1093,202.8,3.1,0.4795,14602.6,0.049149036,100,100,85.4,6900.4,100.5433,100.8972,316750,4.5,2.1,4.73
9/21/06,2006-09,2006-09,160,No,1,0.001003846,0,25.64415644,24.1,78.57,202.9,4.72,1532.168251,28.02165439,91.3552442,102.1093,202.8,3.1,0.4775,14602.6,0.049149036,100,100,85.4,6900.4,100.5433,100.8972,316750,4.5,2.1,4.65
10/26/06,2006-10,2006-10,185,No,1,-0.001606095,0,26.53804028,24.36,79.55,201.8,4.73,1593.876009,28.47835496,92.99889724,102.0843,201.9,3.1,0.5217,14716.9,0.049149036,100,100,93.6,6960,100.7248,100.9606,310750,4.4,1.8,4.73
10/27/06,2006-10,2006-10,186,No,1,-0.003765608,0,26.53804028,24.36,79.55,201.8,4.73,1593.876009,28.47835496,92.99889724,102.0843,201.9,3.1,0.5217,14716.9,0.049149036,100,100,93.6,6960,100.7248,100.9606,310750,4.4,1.8,4.68
12/6/06,2006-12,2006-12,213,No,1,-7.77885E-05,0,27.28268979,24.88,81.51,201.8,4.56,1655.883068,29.08626729,95.29025913,102.9751,203.1,2.9,0.4022,14716.9,0.049149036,100,100,91.7,7015.4,100.9155,101.136,328250,4.4,1.7,4.48
12/7/06,2006-12,2006-12,214,No,1,-0.001097055,0,27.28268979,24.88,81.51,201.8,4.56,1655.883068,29.08626729,95.29025913,102.9751,203.1,2.9,0.3894,14716.9,0.049149036,100,100,91.7,7015.4,100.9155,101.136,328250,4.4,1.7,4.49
12/8/06,2006-12,2006-12,215,No,1,0.0002558,0,27.28268979,24.88,81.51,201.8,4.56,1655.883068,29.08626729,95.29025913,102.9751,203.1,2.9,0.3894,14716.9,0.049149036,100,100,91.7,7015.4,100.9155,101.136,328250,4.4,1.7,4.56
12/11/06,2006-12,2006-12,216,No,1,0.003035828,0,27.28268979,24.88,81.51,201.8,4.56,1655.883068,29.08626729,95.29025913,102.9751,203.1,2.9,0.3894,14716.9,0.049149036,100,100,91.7,7019.5,100.9155,101.136,328250,4.4,1.7,4.52
12/27/06,2006-12,2006-12,227,No,1,0.004510701,0,27.28268979,24.88,81.51,201.8,4.56,1655.883068,29.08626729,95.29025913,102.9751,203.1,2.9,0.3908,14716.9,0.049149036,100,100,91.7,7061.4,100.9155,101.136,319750,4.4,1.7,4.66
12/28/06,2006-12,2006-12,228,No,1,-0.001569994,0,27.28268979,24.88,81.51,201.8,4.56,1655.883068,29.08626729,95.29025913,102.9751,203.1,2.9,0.46,14716.9,0.049149036,100,100,91.7,7061.4,100.9155,101.136,319750,4.4,1.7,4.7
2/21/07,2007-02,2007-02,263,No,1,-0.003959973,0,27.31518141,25.28666667,82.60333333,203.499,4.72,1674.959191,29.31487731,95.76219018,103.6101,204.226,3,0.4757,14726,0.047948712,100,100,91.3,7087.8,100.9203,101.3231,319250,4.5,1.9,4.69
2/22/07,2007-02,2007-02,264,No,1,0.000329352,0,27.31518141,25.28666667,82.60333333,203.499,4.72,1674.959191,29.31487731,95.76219018,103.6101,204.226,3,0.5385,14726,0.047948712,100,100,91.3,7087.8,100.9203,101.3231,319250,4.5,1.9,4.73
3/19/07,2007-03,2007-03,281,No,1,0.00713079,1,26.22760555,25.49,83.15,205.352,4.56,1616.361523,29.28395125,95.52611011,103.7575,205.288,3,0.3299,14726,0.047948712,100,100,88.4,7112.9,100.8575,101.4217,314750,4.4,1.8,4.58
3/20/07,2007-03,2007-03,282,No,1,0.001711764,0,26.22760555,25.49,83.15,205.352,4.56,1616.361523,29.28395125,95.52611011,103.7575,205.288,3,0.3299,14726,0.047948712,100,100,88.4,7112.9,100.8575,101.4217,314750,4.4,1.8,4.56
3/29/07,2007-03,2007-03,289,No,1,0.002236821,0,26.22760555,25.49,83.15,205.352,4.56,1616.361523,29.28395125,95.52611011,103.7575,205.288,3,0.4268,14726,0.047948712,100,100,88.4,7153.5,100.8575,101.4217,310000,4.4,1.8,4.64
3/30/07,2007-03,2007-03,290,No,1,0.001349703,0,26.22760555,25.49,83.15,205.352,4.56,1616.361523,29.28395125,95.52611011,103.7575,205.288,3,0.4268,14726,0.047948712,100,100,88.4,7153.5,100.8575,101.4217,310000,4.4,1.8,4.65
4/11/07,2007-04,2007-04,297,No,1,-0.004681563,0,26.97626831,25.71666667,83.74,206.686,4.69,1670.636579,29.35366895,95.58300342,104.5126,205.904,3,0.3226,14838.7,0.047948712,100,100,87.1,7182,100.844,101.5087,312750,4.5,1.7,4.74
4/12/07,2007-04,2007-04,298,No,1,0.001042488,0,26.97626831,25.71666667,83.74,206.686,4.69,1670.636579,29.35366895,95.58300342,104.5126,205.904,3,0.4085,14838.7,0.047948712,100,100,87.1,7182,100.844,101.5087,312750,4.5,1.7,4.74
5/21/07,2007-05,2007-05,325,No,1,0.001963553,0,27.54849045,25.94333333,84.33,207.949,4.75,1714.378225,29.43253819,95.67182111,104.564,206.755,3.3,0.3839,14838.7,0.047948712,100,100,88.3,7209,100.8702,101.5813,302000,4.4,1.9,4.79
5/22/07,2007-05,2007-05,326,No,1,-0.000511426,0,27.54849045,25.94333333,84.33,207.949,4.75,1714.378225,29.43253819,95.67182111,104.564,206.755,3.3,0.3839,14838.7,0.047948712,100,100,88.3,7209,100.8702,101.5813,302000,4.4,1.9,4.83
6/15/07,2007-06,2007-06,343,No,1,0.009855762,1,27.41826274,26.17,84.92,208.352,5.1,1714.515741,29.63226342,96.1548265,104.5525,207.234,3.4,0.373,14838.7,0.047948712,100,100,85.3,7225.5,100.858,101.6094,311500,4.6,2,5.16
6/18/07,2007-06,2007-06,344,No,1,-0.001311256,0,27.41826274,26.17,84.92,208.352,5.1,1714.515741,29.63226342,96.1548265,104.5525,207.234,3.4,0.373,14838.7,0.047948712,100,100,85.3,7243.7,100.858,101.6094,314000,4.6,2,5.15
7/10/07,2007-07,2007-07,359,No,1,-0.007350574,-1,27.41008817,26.44,82.81333333,208.299,5,1722.336453,29.94560161,93.79330893,104.5442,207.603,3.4,0.4384,14938.5,0.047948712,100,100,90.4,7256.6,100.8268,101.575,317750,4.7,2.4,5.03
7/11/07,2007-07,2007-07,360,No,1,0.001556328,0,27.41008817,26.44,82.81333333,208.299,5,1722.336453,29.94560161,93.79330893,104.5442,207.603,3.4,0.4384,14938.5,0.047948712,100,100,90.4,7256.6,100.8268,101.575,317750,4.7,2.4,5.09
7/30/07,2007-07,2007-07,373,No,1,0.002124808,0,27.41008817,26.44,82.81333333,208.299,5,1722.336453,29.94560161,93.79330893,104.5442,207.603,3.4,0.4421,14938.5,0.047948712,100,100,90.4,7278,100.8268,101.575,313250,4.7,2.4,4.82
7/31/07,2007-07,2007-07,374,No,1,0.001960768,0,27.41008817,26.44,82.81333333,208.299,5,1722.336453,29.94560161,93.79330893,104.5442,207.603,3.4,0.4421,14938.5,0.047948712,100,100,90.4,7278,100.8268,101.575,313250,4.7,2.4,4.78
8/15/07,2007-08,2007-08,385,No,1,0.005911002,1,26.14860719,26.71,80.70666667,207.917,4.67,1650.51065,30.30698015,91.57526563,104.7213,207.667,3.2,0.4576,14938.5,0.047948712,100,100,83.4,7314.2,100.6851,101.5048,311250,4.6,2.3,4.69
8/16/07,2007-08,2007-08,386,No,1,-0.009732423,-1,26.14860719,26.71,80.70666667,207.917,4.67,1650.51065,30.30698015,91.57526563,104.7213,207.667,3.2,0.4222,14938.5,0.047948712,100,100,83.4,7314.2,100.6851,101.5048,311250,4.6,2.3,4.6
8/29/07,2007-08,2007-08,395,No,1,0.005307218,1,26.14860719,26.71,80.70666667,207.917,4.67,1650.51065,30.30698015,91.57526563,104.7213,207.667,3.2,0.4128,14938.5,0.047948712,100,100,83.4,7396.6,100.6851,101.5048,320000,4.6,2.3,4.57
8/30/07,2007-08,2007-08,396,No,1,-0.002623572,0,26.14860719,26.71,80.70666667,207.917,4.67,1650.51065,30.30698015,91.57526563,104.7213,207.667,3.2,0.403,14938.5,0.047948712,100,100,83.4,7396.6,100.6851,101.5048,320000,4.6,2.3,4.51
10/18/07,2007-10,2007-10,431,No,1,-0.001760577,0,27.32064813,27.23,74.46,208.936,4.53,1738.482518,30.74631994,84.0753207,104.537,209.19,3.1,0.4196,14991.8,0.047948712,100,100,80.9,7368.3,100.274,101.3183,317500,4.7,2,4.52
10/19/07,2007-10,2007-10,432,No,1,-0.01138961,-1,27.32064813,27.23,74.46,208.936,4.53,1738.482518,30.74631994,84.0753207,104.537,209.19,3.1,0.4196,14991.8,0.047948712,100,100,80.9,7368.3,100.274,101.3183,317500,4.7,2,4.41
10/24/07,2007-10,2007-10,435,No,1,-0.010345432,-1,27.32064813,27.23,74.46,208.936,4.53,1738.482518,30.74631994,84.0753207,104.537,209.19,3.1,0.4196,14991.8,0.047948712,100,100,80.9,7362.1,100.274,101.3183,325500,4.7,2,4.36
10/25/07,2007-10,2007-10,436,No,1,0.001596132,0,27.32064813,27.23,74.46,208.936,4.53,1738.482518,30.74631994,84.0753207,104.537,209.19,3.1,0.3125,14991.8,0.047948712,100,100,80.9,7362.1,100.274,101.3183,325500,4.7,2,4.37
11/26/07,2007-11,2007-11,457,No,1,-0.003512077,0,25.72905358,27.48,70.32,210.177,4.15,1642.607006,30.8453936,78.93188056,105.1581,210.834,3.4,0.3301,14991.8,0.047948712,100,100,76.1,7439.4,100.0391,101.0999,336000,4.7,2,3.83
11/27/07,2007-11,2007-11,458,No,1,0.008101671,1,25.72905358,27.48,70.32,210.177,4.15,1642.607006,30.8453936,78.93188056,105.1581,210.834,3.4,0.3301,14991.8,0.047948712,100,100,76.1,7439.4,100.0391,101.0999,336000,4.7,2,3.95
12/12/07,2007-12,2007-12,469,No,1,0.005129166,1,25.95551011,27.73,66.18,210.036,4.1,1661.490292,31.14690566,74.33473555,105.1322,211.445,3.4,0.4065,14991.8,0.047948712,100,100,75.5,7437.5,99.86184,101.0391,340000,5,2,4.05
12/13/07,2007-12,2007-12,470,No,1,-0.004024904,0,25.95551011,27.73,66.18,210.036,4.1,1661.490292,31.14690566,74.33473555,105.1322,211.445,3.4,0.4762,14991.8,0.047948712,100,100,75.5,7437.5,99.86184,101.0391,340000,5,2,4.18
2/20/08,2008-02,2008-02,515,No,1,-0.00485024,0,23.4952634,28.11,62.32,211.693,3.74,1509.905982,31.32659012,69.45119517,104.5926,212.687,3.6,0.3333,14889.5,0.038795869,99.10673,100.0154,70.8,7546.3,99.36915,100.8965,349750,4.9,2.1,3.93
2/21/08,2008-02,2008-02,516,No,1,-0.002606031,0,23.4952634,28.11,62.32,211.693,3.74,1509.905982,31.32659012,69.45119517,104.5926,212.687,3.6,0.3318,14889.5,0.038795869,99.10673,100.0154,70.8,7546.3,99.36915,100.8965,349750,4.9,2.1,3.77
3/24/08,2008-03,2008-03,537,No,1,0.017763014,2,22.60681084,28.3,60.39,213.528,3.51,1455.023251,31.26729996,66.72198743,104.2989,213.448,3.6,0.2521,14889.5,0.038795869,99.08316,99.95354,69.5,7636.4,99.03667,100.79,357500,5.1,2,3.56
3/25/08,2008-03,2008-03,538,No,1,-0.001971689,0,22.60681084,28.3,60.39,213.528,3.51,1455.023251,31.26729996,66.72198743,104.2989,213.448,3.6,0.2521,14889.5,0.038795869,99.08316,99.95354,69.5,7636.4,99.03667,100.79,357500,5.1,2,3.51
4/15/08,2008-04,2008-04,553,No,1,-0.000998687,0,23.35604064,28.43666667,57.38333333,214.823,3.68,1505.038233,31.22889998,63.01787753,103.53,213.942,4.8,0.4576,14963.4,0.038795869,99.14769,99.91257,62.6,7661.9,98.65435,100.641,368500,5,2,3.6
4/16/08,2008-04,2008-04,554,No,1,0.012482969,1,23.35604064,28.43666667,57.38333333,214.823,3.68,1505.038233,31.22889998,63.01787753,103.53,213.942,4.8,0.4576,14963.4,0.038795869,99.14769,99.91257,62.6,7661.9,98.65435,100.641,368500,5,2,3.72
4/17/08,2008-04,2008-04,555,No,1,0.00074815,0,23.35604064,28.43666667,57.38333333,214.823,3.68,1505.038233,31.22889998,63.01787753,103.53,213.942,4.8,0.3037,14963.4,0.038795869,99.14769,99.91257,62.6,7661.9,98.65435,100.641,368500,5,2,3.75
4/18/08,2008-04,2008-04,556,No,1,0.014799123,1,23.35604064,28.43666667,57.38333333,214.823,3.68,1505.038233,31.22889998,63.01787753,103.53,213.942,4.8,0.3037,14963.4,0.038795869,99.14769,99.91257,62.6,7661.9,98.65435,100.641,368500,5,2,3.77
4/21/08,2008-04,2008-04,557,No,1,-0.004229939,0,23.35604064,28.43666667,57.38333333,214.823,3.68,1505.038233,31.22889998,63.01787753,103.53,213.942,4.8,0.3037,14963.4,0.038795869,99.14769,99.91257,62.6,7685.9,98.65435,100.641,363750,5,2,3.75
4/22/08,2008-04,2008-04,558,No,1,-0.004782105,0,23.35604064,28.43666667,57.38333333,214.823,3.68,1505.038233,31.22889998,63.01787753,103.53,213.942,4.8,0.3037,14963.4,0.038795869,99.14769,99.91257,62.6,7685.9,98.65435,100.641,363750,5,2,3.74
5/15/08,2008-05,2008-05,575,No,1,0.002243755,0,23.69643212,28.57333333,54.37666667,216.632,3.88,1528.135741,31.1169538,59.21732004,103.0519,215.208,5.2,0.4516,14963.4,0.038795869,99.28589,99.91235,59.8,7662.4,98.29681,100.4459,363750,5.4,2.1,3.83
5/16/08,2008-05,2008-05,576,No,1,-0.003518541,0,23.69643212,28.57333333,54.37666667,216.632,3.88,1528.135741,31.1169538,59.21732004,103.0519,215.208,5.2,0.4516,14963.4,0.038795869,99.28589,99.91235,59.8,7662.4,98.29681,100.4459,363750,5.4,2.1,3.85
6/9/08,2008-06,2008-06,591,No,1,0.003644867,0,22.4168128,28.71,51.37,218.815,4.1,1446.07701,30.95386465,55.38488425,102.8476,217.463,5.2,0.4348,14963.4,0.038795869,99.38276,99.88611,56.4,7685.1,98.03822,100.1852,370000,5.6,2.4,4.02
6/10/08,2008-06,2008-06,592,No,1,-0.000161871,0,22.4168128,28.71,51.37,218.815,4.1,1446.07701,30.95386465,55.38488425,102.8476,217.463,5.2,0.4348,14963.4,0.038795869,99.38276,99.88611,56.4,7685.1,98.03822,100.1852,370000,5.6,2.4,4.11
7/24/08,2008-07,2008-07,623,No,1,-0.008034453,-1,20.90720646,28.75666667,49.56333333,219.964,4.01,1348.517063,30.84222573,53.15788274,102.3093,219.016,5.1,0.3582,14891.6,0.038795869,99.29543,99.73743,61.2,7746.3,97.96185,99.84481,387500,5.8,2.8,4.03
7/25/08,2008-07,2008-07,624,No,1,0.004818462,0,20.90720646,28.75666667,49.56333333,219.964,4.01,1348.517063,30.84222573,53.15788274,102.3093,219.016,5.1,0.3582,14891.6,0.038795869,99.29543,99.73743,61.2,7746.3,97.96185,99.84481,387500,5.8,2.8,4.13
8/11/08,2008-08,2008-08,635,No,1,0.002078117,0,21.40161736,28.80333333,47.75666667,219.086,3.89,1379.915821,31.01607948,51.42545663,100.7832,218.69,4.8,0.3561,14891.6,0.038795869,98.88284,99.38964,63,7749.6,97.99023,99.41774,428500,6.1,3.1,3.99
8/12/08,2008-08,2008-08,636,No,1,-0.005863042,-1,21.40161736,28.80333333,47.75666667,219.086,3.89,1379.915821,31.01607948,51.42545663,100.7832,218.69,4.8,0.3561,14891.6,0.038795869,98.88284,99.38964,63,7749.6,97.99023,99.41774,428500,6.1,3.1,3.91
10/13/08,2008-10,2008-10,679,No,1,0.038060805,4,16.38735655,28.69666667,35.59333333,216.573,3.81,1055.330754,31.25978001,38.77243942,97.3647,216.995,3.9,0.3147,14577,0.038795869,97.14373,98.06462,57.6,7917.6,97.53677,98.26559,477250,6.5,3,3.89
10/14/08,2008-10,2008-10,680,No,1,-0.011267633,-1,16.38735655,28.69666667,35.59333333,216.573,3.81,1055.330754,31.25978001,38.77243942,97.3647,216.995,3.9,0.3147,14577,0.038795869,97.14373,98.06462,57.6,7917.6,97.53677,98.26559,477250,6.5,3,4.08
12/5/08,2008-12,2008-12,717,No,1,-0.02431225,-2,15.37608075,28.39,14.88,210.228,2.42,984.7931918,31.85910789,16.69825732,93.3954,211.398,1.7,0.2667,14577,0.038795869,96.02234,96.97106,60.1,8055.7,96.97613,97.08015,527250,7.3,3.5,2.67
12/8/08,2008-12,2008-12,718,No,1,0.030632912,3,15.37608075,28.39,14.88,210.228,2.42,984.7931918,31.85910789,16.69825732,93.3954,211.398,1.7,0.2667,14577,0.038795869,96.02234,96.97106,60.1,8114.5,96.97613,97.08015,541750,7.3,3.5,2.77
12/9/08,2008-12,2008-12,719,No,1,0.0077222,1,15.37608075,28.39,14.88,210.228,2.42,984.7931918,31.85910789,16.69825732,93.3954,211.398,1.7,0.2667,14577,0.038795869,96.02234,96.97106,60.1,8114.5,96.97613,97.08015,541750,7.3,3.5,2.67
12/10/08,2008-12,2008-12,720,No,1,0.00480852,0,15.37608075,28.39,14.88,210.228,2.42,984.7931918,31.85910789,16.69825732,93.3954,211.398,1.7,0.2667,14577,0.038795869,96.02234,96.97106,60.1,8114.5,96.97613,97.08015,541750,7.3,3.5,2.69
12/26/08,2008-12,2008-12,731,No,1,-0.00060955,0,15.37608075,28.39,14.88,210.228,2.42,984.7931918,31.85910789,16.69825732,93.3954,211.398,1.7,0.3973,14577,0.038795869,96.02234,96.97106,60.1,8181.9,96.97613,97.08015,563000,7.3,3.5,2.16
12/29/08,2008-12,2008-12,732,No,1,-0.01123376,-1,15.37608075,28.39,14.88,210.228,2.42,984.7931918,31.85910789,16.69825732,93.3954,211.398,1.7,0.3973,14577,0.038795869,96.02234,96.97106,60.1,8196.3,96.97613,97.08015,564000,7.3,3.5,2.13
2/2/09,2009-02,2009-02,755,No,1,-0.003426146,0,14.1221818,27.63666667,9.533333333,212.193,2.87,895.2568869,30.72652058,10.59918573,90.6371,212.705,1.7,0.2527,14375,0.042868506,96.27453,96.69141,56.3,8258.5,96.83874,96.49895,589250,7.8,4.2,2.76
2/3/09,2009-02,2009-02,756,No,1,0.004856542,0,14.1221818,27.63666667,9.533333333,212.193,2.87,895.2568869,30.72652058,10.59918573,90.6371,212.705,1.7,0.2527,14375,0.042868506,96.27453,96.69141,56.3,8258.5,96.83874,96.49895,589250,8.3,4.2,2.89
3/13/09,2009-03,2009-03,783,No,1,0.005385892,1,13.32366766,27.26,6.86,212.709,2.82,839.7371476,30.23421954,7.608464639,89.2352,212.495,1.7,0.2764,14375,0.042868506,96.65096,96.77951,57.3,8324.2,97.0396,96.50964,649750,8.7,4.3,2.89
3/16/09,2009-03,2009-03,784,No,1,0.009936183,1,13.32366766,27.26,6.86,212.709,2.82,839.7371476,30.23421954,7.608464639,89.2352,212.495,1.7,0.2764,14375,0.042868506,96.65096,96.77951,57.3,8359.8,97.0396,96.50964,654500,8.7,4.3,2.97
3/17/09,2009-03,2009-03,785,No,1,0.008515937,1,13.32366766,27.26,6.86,212.709,2.82,839.7371476,30.23421954,7.608464639,89.2352,212.495,1.7,0.2764,14375,0.042868506,96.65096,96.77951,57.3,8359.8,97.0396,96.50964,654500,8.7,4.3,3.02
3/18/09,2009-03,2009-03,786,No,1,-0.008968969,-1,13.32366766,27.26,6.86,212.709,2.82,839.7371476,30.23421954,7.608464639,89.2352,212.495,1.7,0.2764,14375,0.042868506,96.65096,96.77951,57.3,8359.8,97.0396,96.50964,654500,8.7,4.3,2.51
5/5/09,2009-05,2009-05,819,No,1,-0.007317047,-1,15.99635576,26.14666667,7.293333333,213.856,3.29,995.4999363,28.84387917,8.045691945,87.5811,213.022,2.8,0.3609,14355.6,0.042868506,97.85205,97.48761,68.7,8377.9,97.91549,97.06888,615000,9.4,4.6,3.2
5/6/09,2009-05,2009-05,820,No,1,0.002489062,0,15.99635576,26.14666667,7.293333333,213.856,3.29,995.4999363,28.84387917,8.045691945,87.5811,213.022,2.8,0.3609,14355.6,0.042868506,97.85205,97.48761,68.7,8377.9,97.91549,97.06888,615000,9.4,4.6,3.18
5/26/09,2009-05,2009-05,833,No,1,0.018523112,2,15.99635576,26.14666667,7.293333333,213.856,3.29,995.4999363,28.84387917,8.045691945,87.5811,213.022,2.8,0.3372,14355.6,0.042868506,97.85205,97.48761,68.7,8407.1,97.91549,97.06888,613250,9.4,4.6,3.5
5/27/09,2009-05,2009-05,834,No,1,8.79037E-05,0,15.99635576,26.14666667,7.293333333,213.856,3.29,995.4999363,28.84387917,8.045691945,87.5811,213.022,2.8,0.3372,14355.6,0.042868506,97.85205,97.48761,68.7,8407.1,97.91549,97.06888,613250,9.4,4.6,3.71
6/25/09,2009-06,2009-06,855,No,1,0.007371158,1,16.38418282,25.59,7.51,215.693,3.72,1012.954618,27.98936281,8.214150633,87.214,214.79,3.1,0.28,14355.6,0.042868506,98.48797,97.91344,70.8,8400.3,98.25485,97.5245,601500,9.5,4.8,3.55
6/26/09,2009-06,2009-06,856,No,1,-0.004244511,0,16.38418282,25.59,7.51,215.693,3.72,1012.954618,27.98936281,8.214150633,87.214,214.79,3.1,0.28,14355.6,0.042868506,98.48797,97.91344,70.8,8400.3,98.25485,97.5245,601500,9.5,4.8,3.52
7/20/09,2009-07,2009-07,871,No,1,-0.001135804,0,16.69462082,25.02666667,9.186666667,215.351,3.56,1025.189635,27.4166819,10.06398179,88.1641,214.726,2.9,0.2868,14402.5,0.042868506,99.14056,98.37231,66,8404.6,98.46909,98.02166,568250,9.5,5.3,3.61
7/21/09,2009-07,2009-07,872,No,1,0.000273148,0,16.69462082,25.02666667,9.186666667,215.351,3.56,1025.189635,27.4166819,10.06398179,88.1641,214.726,2.9,0.2868,14402.5,0.042868506,99.14056,98.37231,66,8404.6,98.46909,98.02166,568250,9.5,5.3,3.5
7/22/09,2009-07,2009-07,873,No,1,-0.000797172,0,16.69462082,25.02666667,9.186666667,215.351,3.56,1025.189635,27.4166819,10.06398179,88.1641,214.726,2.9,0.2868,14402.5,0.042868506,99.14056,98.37231,66,8404.6,98.46909,98.02166,568250,9.5,5.3,3.58
7/23/09,2009-07,2009-07,874,No,1,0.016906509,2,16.69462082,25.02666667,9.186666667,215.351,3.56,1025.189635,27.4166819,10.06398179,88.1641,214.726,2.9,0.376,14402.5,0.042868506,99.14056,98.37231,66,8404.6,98.46909,98.02166,568250,9.5,5.3,3.72
9/2/09,2009-09,2009-09,903,No,1,0.001415556,0,18.83190226,23.9,12.54,215.969,3.4,1141.028764,26.10749841,13.69824394,89.7943,215.861,2.2,0.3398,14402.5,0.042868506,99.99626,99.12273,73.5,8391.3,98.85386,99.0023,560250,9.8,5,3.29
9/3/09,2009-09,2009-09,904,No,1,-9.03455E-05,0,18.83190226,23.9,12.54,215.969,3.4,1141.028764,26.10749841,13.69824394,89.7943,215.861,2.2,0.3797,14402.5,0.042868506,99.99626,99.12273,73.5,8391.3,98.85386,99.0023,560250,9.8,5,3.33
9/9/09,2009-09,2009-09,907,No,1,0.003481719,0,18.83190226,23.9,12.54,215.969,3.4,1141.028764,26.10749841,13.69824394,89.7943,215.861,2.2,0.3797,14402.5,0.042868506,99.99626,99.12273,73.5,8397.5,98.85386,99.0023,561000,9.8,5,3.48
9/10/09,2009-09,2009-09,908,No,1,0.001297215,0,18.83190226,23.9,12.54,215.969,3.4,1141.028764,26.10749841,13.69824394,89.7943,215.861,2.2,0.3733,14402.5,0.042868506,99.99626,99.12273,73.5,8397.5,98.85386,99.0023,561000,9.8,5,3.36
9/17/09,2009-09,2009-09,913,No,1,0.002931073,0,18.83190226,23.9,12.54,215.969,3.4,1141.028764,26.10749841,13.69824394,89.7943,215.861,2.2,0.4214,14402.5,0.042868506,99.99626,99.12273,73.5,8405.7,98.85386,99.0023,556000,9.8,5,3.42
9/18/09,2009-09,2009-09,914,No,1,0.000215661,0,18.83190226,23.9,12.54,215.969,3.4,1141.028764,26.10749841,13.69824394,89.7943,215.861,2.2,0.4214,14402.5,0.042868506,99.99626,99.12273,73.5,8405.7,98.85386,99.0023,556000,9.8,5,3.49
11/10/09,2009-11,2009-11,951,No,1,0.000833454,0,19.81276108,22.90666667,38.16,216.33,3.4,1186.585024,24.98066081,41.61504729,90.4311,217.234,2.9,0.2222,14541.9,0.042868506,100.3362,99.57865,67.4,8462.9,98.96461,99.84693,523750,9.9,4.6,3.5
11/11/09,2009-11,2009-11,952,No,1,0.003083793,0,19.81276108,22.90666667,38.16,216.33,3.4,1186.585024,24.98066081,41.61504729,90.4311,217.234,2.9,0.2222,14541.9,0.042868506,100.3362,99.57865,67.4,8462.9,98.96461,99.84693,523750,9.9,4.6,3.5
11/20/09,2009-11,2009-11,959,No,1,-0.005033557,-1,19.81276108,22.90666667,38.16,216.33,3.4,1186.585024,24.98066081,41.61504729,90.4311,217.234,2.9,0.4273,14541.9,0.042868506,100.3362,99.57865,67.4,8478.2,98.96461,99.84693,517750,9.9,4.6,3.36
11/23/09,2009-11,2009-11,960,No,1,0.014193609,1,19.81276108,22.90666667,38.16,216.33,3.4,1186.585024,24.98066081,41.61504729,90.4311,217.234,2.9,0.4273,14541.9,0.042868506,100.3362,99.57865,67.4,8475.7,98.96461,99.84693,505750,9.9,4.6,3.37
12/3/09,2009-12,2009-12,967,No,1,-0.000351134,0,20.3223765,22.41,50.97,215.949,3.59,1213.051419,24.48214332,55.68294712,90.7512,217.347,2.5,0.4158,14541.9,0.042868506,100.5568,99.80445,72.5,8477.9,99.06126,100.1663,494000,9.9,4.7,3.39
12/4/09,2009-12,2009-12,968,No,1,0.013240229,1,20.3223765,22.41,50.97,215.949,3.59,1213.051419,24.48214332,55.68294712,90.7512,217.347,2.5,0.4158,14541.9,0.042868506,100.5568,99.80445,72.5,8477.9,99.06126,100.1663,494000,9.9,4.7,3.48
1/21/10,2010-01,2010-01,999,No,1,-0.012198382,-1,20.5278598,22.24,54.29,216.687,3.73,1223.291392,24.21367466,59.10793152,91.8162,217.488,2.5,0.4,14604.8,0.043108516,100.8745,100.078,74.4,8419.7,99.17661,100.4346,475000,9.8,5.1,3.62
1/22/10,2010-01,2010-01,1000,No,1,-0.005746345,-1,20.5278598,22.24,54.29,216.687,3.73,1223.291392,24.21367466,59.10793152,91.8162,217.488,2.5,0.4,14604.8,0.043108516,100.8745,100.078,74.4,8419.7,99.17661,100.4346,475000,9.8,5.1,3.62
1/27/10,2010-01,2010-01,1003,No,1,-0.004533162,0,20.5278598,22.24,54.29,216.687,3.73,1223.291392,24.21367466,59.10793152,91.8162,217.488,2.5,0.4,14604.8,0.043108516,100.8745,100.078,74.4,8440.6,99.17661,100.4346,475750,9.8,5.1,3.66
1/28/10,2010-01,2010-01,1004,No,1,-0.007502807,-1,20.5278598,22.24,54.29,216.687,3.73,1223.291392,24.21367466,59.10793152,91.8162,217.488,2.5,0.35,14604.8,0.043108516,100.8745,100.078,74.4,8440.6,99.17661,100.4346,475750,9.8,5.1,3.68
2/2/10,2010-02,2010-02,1007,No,1,0.005871245,1,19.92053931,22.07,57.61,216.741,3.69,1185.521371,24.0226015,62.70693578,92.0991,217.281,2.7,0.35,14604.8,0.043108516,101.1023,100.313,73.6,8448.5,99.24271,100.6708,485750,9.8,5,3.67
2/3/10,2010-02,2010-02,1008,No,1,-0.002444006,0,19.92053931,22.07,57.61,216.741,3.69,1185.521371,24.0226015,62.70693578,92.0991,217.281,2.7,0.35,14604.8,0.043108516,101.1023,100.313,73.6,8448.5,99.24271,100.6708,485750,9.8,5,3.73
2/4/10,2010-02,2010-02,1009,No,1,-0.018427888,-2,19.92053931,22.07,57.61,216.741,3.69,1185.521371,24.0226015,62.70693578,92.0991,217.281,2.7,0.2923,14604.8,0.043108516,101.1023,100.313,73.6,8448.5,99.24271,100.6708,485750,9.8,5,3.62
2/5/10,2010-02,2010-02,1010,No,1,-0.000639021,0,19.92053931,22.07,57.61,216.741,3.69,1185.521371,24.0226015,62.70693578,92.0991,217.281,2.7,0.2923,14604.8,0.043108516,101.1023,100.313,73.6,8448.5,99.24271,100.6708,485750,9.8,5,3.59
2/12/10,2010-02,2010-02,1015,No,1,-0.008931597,-1,19.92053931,22.07,57.61,216.741,3.69,1185.521371,24.0226015,62.70693578,92.0991,217.281,2.7,0.3675,14604.8,0.043108516,101.1023,100.313,73.6,8454.7,99.24271,100.6708,485000,9.8,5,3.69
2/16/10,2010-02,2010-02,1016,No,1,0.007570909,1,19.92053931,22.07,57.61,216.741,3.69,1185.521371,24.0226015,62.70693578,92.0991,217.281,2.7,0.3675,14604.8,0.043108516,101.1023,100.313,73.6,8490.7,99.24271,100.6708,480500,9.8,5,3.66
3/5/10,2010-03,2010-03,1029,No,1,0.00787472,1,21.00460121,21.9,60.93,217.631,3.73,1248.847323,23.74007759,66.04944873,92.7191,217.353,2.7,0.3586,14604.8,0.043108516,101.2923,100.5328,73.6,8471.4,99.29402,100.8901,485750,9.9,4.7,3.69
3/8/10,2010-03,2010-03,1030,No,1,0.000816915,0,21.00460121,21.9,60.93,217.631,3.73,1248.847323,23.74007759,66.04944873,92.7191,217.353,2.7,0.3586,14604.8,0.043108516,101.2923,100.5328,73.6,8462.6,99.29402,100.8901,487250,9.9,4.7,3.72
3/9/10,2010-03,2010-03,1031,No,1,0.002417403,0,21.00460121,21.9,60.93,217.631,3.73,1248.847323,23.74007759,66.04944873,92.7191,217.353,2.7,0.3586,14604.8,0.043108516,101.2923,100.5328,73.6,8462.6,99.29402,100.8901,487250,9.9,4.7,3.71
3/10/10,2010-03,2010-03,1032,No,1,0.005612977,1,21.00460121,21.9,60.93,217.631,3.73,1248.847323,23.74007759,66.04944873,92.7191,217.353,2.7,0.3586,14604.8,0.043108516,101.2923,100.5328,73.6,8462.6,99.29402,100.8901,487250,9.9,4.7,3.73
3/11/10,2010-03,2010-03,1033,No,1,0.000856707,0,21.00460121,21.9,60.93,217.631,3.73,1248.847323,23.74007759,66.04944873,92.7191,217.353,2.7,0.4529,14604.8,0.043108516,101.2923,100.5328,73.6,8462.6,99.29402,100.8901,487250,9.9,4.7,3.73
3/12/10,2010-03,2010-03,1034,No,1,-0.003255994,0,21.00460121,21.9,60.93,217.631,3.73,1248.847323,23.74007759,66.04944873,92.7191,217.353,2.7,0.4529,14604.8,0.043108516,101.2923,100.5328,73.6,8462.6,99.29402,100.8901,487250,9.9,4.7,3.71
3/25/10,2010-03,2010-03,1043,No,1,0.004709256,0,21.00460121,21.9,60.93,217.631,3.73,1248.847323,23.74007759,66.04944873,92.7191,217.353,2.7,0.3239,14604.8,0.043108516,101.2923,100.5328,73.6,8462.4,99.29402,100.8901,477500,9.9,4.7,3.91
3/26/10,2010-03,2010-03,1044,No,1,0.004196752,0,21.00460121,21.9,60.93,217.631,3.73,1248.847323,23.74007759,66.04944873,92.7191,217.353,2.7,0.3239,14604.8,0.043108516,101.2923,100.5328,73.6,8462.4,99.29402,100.8901,477500,9.9,4.7,3.86
3/31/10,2010-03,2010-03,1047,No,1,-0.00056326,0,21.00460121,21.9,60.93,217.631,3.73,1248.847323,23.74007759,66.04944873,92.7191,217.353,2.7,0.3239,14604.8,0.043108516,101.2923,100.5328,73.6,8476.4,99.29402,100.8901,470250,9.9,4.7,3.84
4/1/10,2010-04,2010-04,1048,No,1,0.006446232,1,21.8048456,21.94666667,62.98666667,218.009,3.85,1295.67056,23.74941527,68.16053325,93.0609,217.403,2.9,0.413,14745.9,0.043108516,101.2342,100.6195,72.2,8476.4,99.33047,101.0671,470250,9.9,4.4,3.89
4/9/10,2010-04,2010-04,1053,No,1,0.002265345,0,21.8048456,21.94666667,62.98666667,218.009,3.85,1295.67056,23.74941527,68.16053325,93.0609,217.403,2.9,0.4286,14745.9,0.043108516,101.2342,100.6195,72.2,8485.2,99.33047,101.0671,472000,9.9,4.4,3.9
4/12/10,2010-04,2010-04,1054,No,1,0.00194157,0,21.8048456,21.94666667,62.98666667,218.009,3.85,1295.67056,23.74941527,68.16053325,93.0609,217.403,2.9,0.4286,14745.9,0.043108516,101.2342,100.6195,72.2,8490,99.33047,101.0671,472250,9.9,4.4,3.87
5/27/10,2010-05,2010-05,1087,No,1,0.016159792,2,20.48006864,21.99333333,65.04333333,218.178,3.42,1216.531909,23.7814799,70.33161826,94.4844,217.29,2.9,0.2983,14745.9,0.043108516,100.9608,100.5784,73.6,8549.6,99.34373,101.1821,459750,9.6,4.4,3.34
5/28/10,2010-05,2010-05,1088,No,1,-0.006584466,-1,20.48006864,21.99333333,65.04333333,218.178,3.42,1216.531909,23.7814799,70.33161826,94.4844,217.29,2.9,0.2983,14745.9,0.043108516,100.9608,100.5784,73.6,8549.6,99.34373,101.1821,459750,9.6,4.4,3.31
6/9/10,2010-06,2010-06,1095,No,1,0.005513997,1,19.74203985,22.04,67.1,217.965,3.2,1172.586288,23.85522983,72.62640298,94.6828,217.199,2.8,0.3709,14745.9,0.043108516,100.6377,100.483,76,8573.5,98.39719,101.2645,463500,9.4,4.5,3.2
6/10/10,2010-06,2010-06,1096,No,1,0.018408134,2,19.74203985,22.04,67.1,217.965,3.2,1172.586288,23.85522983,72.62640298,94.6828,217.199,2.8,0.3448,14745.9,0.043108516,100.6377,100.483,76,8573.5,98.39719,101.2645,463500,9.4,4.5,3.33
6/23/10,2010-06,2010-06,1105,No,1,-0.004764594,0,19.74203985,22.04,67.1,217.965,3.2,1172.586288,23.85522983,72.62640298,94.6828,217.199,2.8,0.4245,14745.9,0.043108516,100.6377,100.483,76,8575.9,98.39719,101.2645,459000,9.4,4.5,3.13
6/24/10,2010-06,2010-06,1106,No,1,-0.009313204,-1,19.74203985,22.04,67.1,217.965,3.2,1172.586288,23.85522983,72.62640298,94.6828,217.199,2.8,0.3446,14745.9,0.043108516,100.6377,100.483,76,8575.9,98.39719,101.2645,459000,9.4,4.5,3.14
6/29/10,2010-06,2010-06,1109,No,1,-0.022472203,-2,19.74203985,22.04,67.1,217.965,3.2,1172.586288,23.85522983,72.62640298,94.6828,217.199,2.8,0.3446,14745.9,0.043108516,100.6377,100.483,76,8582.5,98.39719,101.2645,460500,9.4,4.5,2.97
6/30/10,2010-06,2010-06,1110,No,1,0.002114189,0,19.74203985,22.04,67.1,217.965,3.2,1172.586288,23.85522983,72.62640298,94.6828,217.199,2.8,0.3446,14745.9,0.043108516,100.6377,100.483,76,8582.5,98.39719,101.2645,460500,9.4,4.5,2.97
8/3/10,2010-08,2010-08,1133,No,1,-0.002532538,0,19.77029917,22.24666667,70.27333333,218.312,2.7,1174.958609,24.04064503,75.94019757,95.4866,217.923,2.7,0.4,14845.5,0.043108516,100.433,100.517,68.9,8606.7,99.89353,99.69518,460500,9.5,5,2.94
8/4/10,2010-08,2010-08,1134,No,1,0.000552995,0,19.77029917,22.24666667,70.27333333,218.312,2.7,1174.958609,24.04064503,75.94019757,95.4866,217.923,2.7,0.4,14845.5,0.043108516,100.433,100.517,68.9,8606.7,99.89353,99.69518,460500,9.5,5,2.98
8/13/10,2010-08,2010-08,1141,No,1,-0.00057287,0,19.77029917,22.24666667,70.27333333,218.312,2.7,1174.958609,24.04064503,75.94019757,95.4866,217.923,2.7,0.3976,14845.5,0.043108516,100.433,100.517,68.9,8620.2,99.89353,99.69518,471500,9.5,5,2.68
8/16/10,2010-08,2010-08,1142,No,1,0.002672888,0,19.77029917,22.24666667,70.27333333,218.312,2.7,1174.958609,24.04064503,75.94019757,95.4866,217.923,2.7,0.3976,14845.5,0.043108516,100.433,100.517,68.9,8636.2,99.89353,99.69518,477500,9.5,5,2.58
8/19/10,2010-08,2010-08,1145,No,1,-0.012760373,-1,19.77029917,22.24666667,70.27333333,218.312,2.7,1174.958609,24.04064503,75.94019757,95.4866,217.923,2.7,0.3011,14845.5,0.043108516,100.433,100.517,68.9,8636.2,99.89353,99.69518,477500,9.5,5,2.58
8/20/10,2010-08,2010-08,1146,No,1,-0.005773365,-1,19.77029917,22.24666667,70.27333333,218.312,2.7,1174.958609,24.04064503,75.94019757,95.4866,217.923,2.7,0.3011,14845.5,0.043108516,100.433,100.517,68.9,8636.2,99.89353,99.69518,477500,9.5,5,2.62
9/7/10,2010-09,2010-09,1157,No,1,-0.006466512,-1,20.38139523,22.35,71.86,218.439,2.65,1211.85991,24.13826909,77.60966519,95.715,218.275,2.2,0.308,14845.5,0.043108516,100.5413,100.6339,68.2,8648.4,100.081,99.97341,467250,9.5,4.5,2.61
9/8/10,2010-09,2010-09,1158,No,1,0.007259525,1,20.38139523,22.35,71.86,218.439,2.65,1211.85991,24.13826909,77.60966519,95.715,218.275,2.2,0.308,14845.5,0.043108516,100.5413,100.6339,68.2,8648.4,100.081,99.97341,467250,9.5,4.5,2.66
10/7/10,2010-10,2010-10,1179,No,1,-0.001902551,0,21.24012765,22.47666667,73.69,218.711,2.54,1263.74689,24.24488092,79.48710996,95.4803,219.035,2.7,0.4903,14939,0.043108516,100.7634,100.8102,67.7,8689.4,100.1745,100.2099,452000,9.4,4.5,2.41
10/8/10,2010-10,2010-10,1180,No,1,-0.000707884,0,21.24012765,22.47666667,73.69,218.711,2.54,1263.74689,24.24488092,79.48710996,95.4803,219.035,2.7,0.4903,14939,0.043108516,100.7634,100.8102,67.7,8689.4,100.1745,100.2099,452000,9.4,4.5,2.41
10/19/10,2010-10,2010-10,1187,No,1,-0.003537989,0,21.24012765,22.47666667,73.69,218.711,2.54,1263.74689,24.24488092,79.48710996,95.4803,219.035,2.7,0.471,14939,0.043108516,100.7634,100.8102,67.7,8715,100.1745,100.2099,452000,9.4,4.5,2.5
10/20/10,2010-10,2010-10,1188,No,1,0.009128006,1,21.24012765,22.47666667,73.69,218.711,2.54,1263.74689,24.24488092,79.48710996,95.4803,219.035,2.7,0.471,14939,0.043108516,100.7634,100.8102,67.7,8715,100.1745,100.2099,452000,9.4,4.5,2.51
10/27/10,2010-10,2010-10,1193,No,1,-0.006690065,-1,21.24012765,22.47666667,73.69,218.711,2.54,1263.74689,24.24488092,79.48710996,95.4803,219.035,2.7,0.4962,14939,0.043108516,100.7634,100.8102,67.7,8719.7,100.1745,100.2099,445250,9.4,4.5,2.75
10/28/10,2010-10,2010-10,1194,No,1,-0.00281136,0,21.24012765,22.47666667,73.69,218.711,2.54,1263.74689,24.24488092,79.48710996,95.4803,219.035,2.7,0.5123,14939,0.043108516,100.7634,100.8102,67.7,8719.7,100.1745,100.2099,445250,9.4,4.5,2.69
11/16/10,2010-11,2010-11,1207,No,1,-0.008302747,-1,21.70072383,22.60333333,75.52,218.803,2.76,1292.661583,24.37126063,81.42682212,95.518,219.59,3,0.5756,14939,0.043108516,100.9994,101.0093,71.6,8733.2,100.2102,100.3979,437750,9.8,4.8,2.85
11/17/10,2010-11,2010-11,1208,No,1,0.002715745,0,21.70072383,22.60333333,75.52,218.803,2.76,1292.661583,24.37126063,81.42682212,95.518,219.59,3,0.5756,14939,0.043108516,100.9994,101.0093,71.6,8733.2,100.2102,100.3979,437750,9.8,4.8,2.89
11/18/10,2010-11,2010-11,1209,No,1,0.013017951,1,21.70072383,22.60333333,75.52,218.803,2.76,1292.661583,24.37126063,81.42682212,95.518,219.59,3,0.4,14939,0.043108516,100.9994,101.0093,71.6,8733.2,100.2102,100.3979,437750,9.8,4.8,2.9
11/19/10,2010-11,2010-11,1210,No,1,-0.001070123,0,21.70072383,22.60333333,75.52,218.803,2.76,1292.661583,24.37126063,81.42682212,95.518,219.59,3,0.4,14939,0.043108516,100.9994,101.0093,71.6,8733.2,100.2102,100.3979,437750,9.8,4.8,2.88
11/22/10,2010-11,2010-11,1211,No,1,-0.005116518,-1,21.70072383,22.60333333,75.52,218.803,2.76,1292.661583,24.37126063,81.42682212,95.518,219.59,3,0.4,14939,0.043108516,100.9994,101.0093,71.6,8741,100.2102,100.3979,431500,9.8,4.8,2.8
11/23/10,2010-11,2010-11,1212,No,1,-0.008301825,-1,21.70072383,22.60333333,75.52,218.803,2.76,1292.661583,24.37126063,81.42682212,95.518,219.59,3,0.4,14939,0.043108516,100.9994,101.0093,71.6,8741,100.2102,100.3979,431500,9.8,4.8,2.77
12/3/10,2010-12,2010-12,1219,No,1,-0.00123782,0,22.39637977,22.73,77.35,219.179,3.29,1336.340264,24.46579156,83.25688416,96.3941,220.472,3,0.4966,14939,0.043108516,101.1835,101.2204,74.5,8759.8,100.1659,100.5056,426250,9.3,4.6,3.03
12/6/10,2010-12,2010-12,1220,No,1,-0.000612806,0,22.39637977,22.73,77.35,219.179,3.29,1336.340264,24.46579156,83.25688416,96.3941,220.472,3,0.4966,14939,0.043108516,101.1835,101.2204,74.5,8754.3,100.1659,100.5056,424750,9.3,4.6,2.95
12/7/10,2010-12,2010-12,1221,No,1,0.00311265,0,22.39637977,22.73,77.35,219.179,3.29,1336.340264,24.46579156,83.25688416,96.3941,220.472,3,0.4966,14939,0.043108516,101.1835,101.2204,74.5,8754.3,100.1659,100.5056,424750,9.3,4.6,3.15
12/8/10,2010-12,2010-12,1222,No,1,-0.003281595,0,22.39637977,22.73,77.35,219.179,3.29,1336.340264,24.46579156,83.25688416,96.3941,220.472,3,0.4966,14939,0.043108516,101.1835,101.2204,74.5,8754.3,100.1659,100.5056,424750,9.3,4.6,3.26
12/17/10,2010-12,2010-12,1229,No,1,-0.002347969,0,22.39637977,22.73,77.35,219.179,3.29,1336.340264,24.46579156,83.25688416,96.3941,220.472,3,0.5023,14939,0.043108516,101.1835,101.2204,74.5,8767.2,100.1659,100.5056,423000,9.3,4.6,3.33
12/20/10,2010-12,2010-12,1230,No,1,-0.001862325,0,22.39637977,22.73,77.35,219.179,3.29,1336.340264,24.46579156,83.25688416,96.3941,220.472,3,0.5023,14939,0.043108516,101.1835,101.2204,74.5,8770.1,100.1659,100.5056,427250,9.3,4.6,3.36
12/30/10,2010-12,2010-12,1237,No,1,-0.000571636,0,22.39637977,22.73,77.35,219.179,3.29,1336.340264,24.46579156,83.25688416,96.3941,220.472,3,0.5161,14939,0.043108516,101.1835,101.2204,74.5,8796,100.1659,100.5056,420250,9.3,4.6,3.38
12/31/10,2010-12,2010-12,1238,No,1,0.000381927,0,22.39637977,22.73,77.35,219.179,3.29,1336.340264,24.46579156,83.25688416,96.3941,220.472,3,0.5161,14939,0.043108516,101.1835,101.2204,74.5,8796,100.1659,100.5056,420250,9.3,4.6,3.3
1/5/11,2011-01,2011-01,1241,No,1,0.001584176,0,22.97829943,22.96333333,78.67,220.223,3.39,1374.023339,24.59976918,84.27625962,96.3665,221.148,3,0.5161,14881.3,0.040970429,101.3223,101.4096,74.2,8770,100.1532,100.571,416500,9.1,4.5,3.5
1/6/11,2011-01,2011-01,1242,No,1,0.000235026,0,22.97829943,22.96333333,78.67,220.223,3.39,1374.023339,24.59976918,84.27625962,96.3665,221.148,3,0.5588,14881.3,0.040970429,101.3223,101.4096,74.2,8770,100.1532,100.571,416500,9.1,4.5,3.44
1/11/11,2011-01,2011-01,1245,No,1,0.001328045,0,22.97829943,22.96333333,78.67,220.223,3.39,1374.023339,24.59976918,84.27625962,96.3665,221.148,3,0.5588,14881.3,0.040970429,101.3223,101.4096,74.2,8786.3,100.1532,100.571,418750,9.1,4.5,3.37
1/12/11,2011-01,2011-01,1246,No,1,0.005691197,1,22.97829943,22.96333333,78.67,220.223,3.39,1374.023339,24.59976918,84.27625962,96.3665,221.148,3,0.5588,14881.3,0.040970429,101.3223,101.4096,74.2,8786.3,100.1532,100.571,418750,9.1,4.5,3.4
1/18/11,2011-01,2011-01,1249,No,1,-0.001422783,0,22.97829943,22.96333333,78.67,220.223,3.39,1374.023339,24.59976918,84.27625962,96.3665,221.148,3,0.5234,14881.3,0.040970429,101.3223,101.4096,74.2,8838.6,100.1532,100.571,418500,9.1,4.5,3.39
1/19/11,2011-01,2011-01,1250,No,1,-0.005870917,-1,22.97829943,22.96333333,78.67,220.223,3.39,1374.023339,24.59976918,84.27625962,96.3665,221.148,3,0.5234,14881.3,0.040970429,101.3223,101.4096,74.2,8838.6,100.1532,100.571,418500,9.1,4.5,3.37
2/1/11,2011-02,2011-02,1259,No,1,0.009463662,1,23.4898287,23.19666667,79.99,221.309,3.58,1408.322015,24.7277888,85.26983011,95.8776,221.904,3.4,0.4204,14881.3,0.040970429,101.3737,101.507,77.5,8816.9,100.1854,100.5714,430750,9.1,4.4,3.48
2/2/11,2011-02,2011-02,1260,No,1,-0.000367586,0,23.4898287,23.19666667,79.99,221.309,3.58,1408.322015,24.7277888,85.26983011,95.8776,221.904,3.4,0.4204,14881.3,0.040970429,101.3737,101.507,77.5,8816.9,100.1854,100.5714,430750,9,4.4,3.52
2/7/11,2011-02,2011-02,1263,No,1,0.007272191,1,23.4898287,23.19666667,79.99,221.309,3.58,1408.322015,24.7277888,85.26983011,95.8776,221.904,3.4,0.5154,14881.3,0.040970429,101.3737,101.507,77.5,8836.2,100.1854,100.5714,423500,9,4.4,3.68
2/8/11,2011-02,2011-02,1264,No,1,0.001675809,0,23.4898287,23.19666667,79.99,221.309,3.58,1408.322015,24.7277888,85.26983011,95.8776,221.904,3.4,0.5154,14881.3,0.040970429,101.3737,101.507,77.5,8836.2,100.1854,100.5714,423500,9,4.4,3.75
2/22/11,2011-02,2011-02,1273,No,1,-0.003988344,0,23.4898287,23.19666667,79.99,221.309,3.58,1408.322015,24.7277888,85.26983011,95.8776,221.904,3.4,0.4658,14881.3,0.040970429,101.3737,101.507,77.5,8853.6,100.1854,100.5714,412000,9,4.4,3.46
2/23/11,2011-02,2011-02,1274,No,1,-0.003124385,0,23.4898287,23.19666667,79.99,221.309,3.58,1408.322015,24.7277888,85.26983011,95.8776,221.904,3.4,0.4658,14881.3,0.040970429,101.3737,101.507,77.5,8853.6,100.1854,100.5714,412000,9,4.4,3.49
3/18/11,2011-03,2011-03,1291,No,1,0.006963241,1,22.89933643,23.43,81.31,223.467,3.41,1377.165493,24.7353276,85.83992689,96.6955,223.044,4.6,0.2849,14881.3,0.040970429,101.277,101.4474,67.5,8877.8,100.1895,100.4979,402000,9,4.3,3.28
3/21/11,2011-03,2011-03,1292,No,1,0.013201713,1,22.89933643,23.43,81.31,223.467,3.41,1377.165493,24.7353276,85.83992689,96.6955,223.044,4.6,0.2849,14881.3,0.040970429,101.277,101.4474,67.5,8892.3,100.1895,100.4979,404750,9,4.3,3.34
3/24/11,2011-03,2011-03,1295,No,1,0.000768882,0,22.89933643,23.43,81.31,223.467,3.41,1377.165493,24.7353276,85.83992689,96.6955,223.044,4.6,0.3774,14881.3,0.040970429,101.277,101.4474,67.5,8892.3,100.1895,100.4979,404750,9,4.3,3.42
3/25/11,2011-03,2011-03,1296,No,1,0.003209293,0,22.89933643,23.43,81.31,223.467,3.41,1377.165493,24.7353276,85.83992689,96.6955,223.044,4.6,0.3774,14881.3,0.040970429,101.277,101.4474,67.5,8892.3,100.1895,100.4979,404750,9,4.3,3.46
3/28/11,2011-03,2011-03,1297,No,1,0.002615112,0,22.89933643,23.43,81.31,223.467,3.41,1377.165493,24.7353276,85.83992689,96.6955,223.044,4.6,0.3774,14881.3,0.040970429,101.277,101.4474,67.5,8914.1,100.1895,100.4979,407250,9,4.3,3.47
3/29/11,2011-03,2011-03,1298,No,1,0.0021308,0,22.89933643,23.43,81.31,223.467,3.41,1377.165493,24.7353276,85.83992689,96.6955,223.044,4.6,0.3774,14881.3,0.040970429,101.277,101.4474,67.5,8914.1,100.1895,100.4979,407250,9,4.3,3.5
4/21/11,2011-04,2011-04,1315,No,1,0.000847581,0,23.14392945,23.73333333,82.16333333,224.906,3.46,1396.696895,24.89524898,86.18581349,96.2901,224.06,4.6,0.3216,14989.6,0.040970429,101.0278,101.1953,69.8,8946.6,100.2028,100.3747,404250,9.1,4.1,3.42
4/25/11,2011-04,2011-04,1316,No,1,-0.002789547,0,23.14392945,23.73333333,82.16333333,224.906,3.46,1396.696895,24.89524898,86.18581349,96.2901,224.06,4.6,0.3216,14989.6,0.040970429,101.0278,101.1953,69.8,8985.2,100.2028,100.3747,409750,9.1,4.1,3.39
5/24/11,2011-05,2011-05,1337,No,1,0.001221863,0,23.05949151,24.03666667,83.01666667,225.964,3.17,1397.256845,25.09537927,86.6731966,96.5438,224.869,4.6,0.2669,14989.6,0.040970429,100.6272,100.8118,74.3,9003.9,100.254,100.1827,433500,9,4.3,3.12
5/25/11,2011-05,2011-05,1338,No,1,0.001078744,0,23.05949151,24.03666667,83.01666667,225.964,3.17,1397.256845,25.09537927,86.6731966,96.5438,224.869,4.6,0.2669,14989.6,0.040970429,100.6272,100.8118,74.3,9003.9,100.254,100.1827,433500,9,4.3,3.13
6/24/11,2011-06,2011-06,1359,No,1,-0.00863577,-1,22.10083129,24.34,83.87,225.722,3,1345.430543,25.43931781,87.65799445,96.7612,224.841,3.8,0.3746,14989.6,0.040970429,100.3735,100.5247,71.5,9077.9,100.1878,99.91532,417250,9.1,4.4,2.88
6/27/11,2011-06,2011-06,1360,No,1,0.007292469,1,22.10083129,24.34,83.87,225.722,3,1345.430543,25.43931781,87.65799445,96.7612,224.841,3.8,0.3746,14989.6,0.040970429,100.3735,100.5247,71.5,9164.6,100.1878,99.91532,418000,9.1,4.4,2.95
7/19/11,2011-07,2011-07,1375,No,1,0.009226785,1,22.6109817,24.62,84.90666667,225.922,3,1383.816175,25.70918452,88.66292284,97.1711,225.419,3.4,0.3931,15021.1,0.040970429,100.1022,100.2793,63.7,9244.6,99.88982,99.58997,417000,9,4.7,2.91
7/20/11,2011-07,2011-07,1376,No,1,-0.001204246,0,22.6109817,24.62,84.90666667,225.922,3,1383.816175,25.70918452,88.66292284,97.1711,225.419,3.4,0.3931,15021.1,0.040970429,100.1022,100.2793,63.7,9244.6,99.88982,99.58997,417000,9,4.7,2.96
7/21/11,2011-07,2011-07,1377,No,1,0.013419813,1,22.6109817,24.62,84.90666667,225.922,3,1383.816175,25.70918452,88.66292284,97.1711,225.419,3.4,0.3986,15021.1,0.040970429,100.1022,100.2793,63.7,9244.6,99.88982,99.58997,417000,9,4.7,3.03
7/22/11,2011-07,2011-07,1378,No,1,-0.002299486,0,22.6109817,24.62,84.90666667,225.922,3,1383.816175,25.70918452,88.66292284,97.1711,225.419,3.4,0.3986,15021.1,0.040970429,100.1022,100.2793,63.7,9244.6,99.88982,99.58997,417000,9,4.7,2.99
7/25/11,2011-07,2011-07,1379,No,1,-0.004150757,0,22.6109817,24.62,84.90666667,225.922,3,1383.816175,25.70918452,88.66292284,97.1711,225.419,3.4,0.3986,15021.1,0.040970429,100.1022,100.2793,63.7,9290.4,99.88982,99.58997,414250,9,4.7,3.03
7/26/11,2011-07,2011-07,1380,No,1,-0.002362822,0,22.6109817,24.62,84.90666667,225.922,3,1383.816175,25.70918452,88.66292284,97.1711,225.419,3.4,0.3986,15021.1,0.040970429,100.1022,100.2793,63.7,9290.4,99.88982,99.58997,414250,9,4.7,2.99
7/27/11,2011-07,2011-07,1381,No,1,-0.013957425,-1,22.6109817,24.62,84.90666667,225.922,3,1383.816175,25.70918452,88.66292284,97.1711,225.419,3.4,0.3986,15021.1,0.040970429,100.1022,100.2793,63.7,9290.4,99.88982,99.58997,414250,9,4.7,3.01
7/28/11,2011-07,2011-07,1382,No,1,0.004153792,0,22.6109817,24.62,84.90666667,225.922,3,1383.816175,25.70918452,88.66292284,97.1711,225.419,3.4,0.3784,15021.1,0.040970429,100.1022,100.2793,63.7,9290.4,99.88982,99.58997,414250,9,4.7,2.98
8/2/11,2011-08,2011-08,1385,No,1,-0.006358086,-1,20.04985272,24.9,85.94333333,226.545,2.3,1234.344095,25.93006721,89.49865097,97.7699,226.082,3.5,0.3784,15021.1,0.040970429,99.92566,100.1548,55.8,9426.9,99.4024,99.27133,410500,9,4.6,2.66
8/3/11,2011-08,2011-08,1386,No,1,-0.0122942,-1,20.04985272,24.9,85.94333333,226.545,2.3,1234.344095,25.93006721,89.49865097,97.7699,226.082,3.5,0.3784,15021.1,0.040970429,99.92566,100.1548,55.8,9426.9,99.4024,99.27133,410500,9,4.6,2.64
8/26/11,2011-08,2011-08,1403,No,1,0.005168938,1,20.04985272,24.9,85.94333333,226.545,2.3,1234.344095,25.93006721,89.49865097,97.7699,226.082,3.5,0.3644,15021.1,0.040970429,99.92566,100.1548,55.8,9506.9,99.4024,99.27133,408250,9,4.6,2.19
8/29/11,2011-08,2011-08,1404,No,1,0.016435861,2,20.04985272,24.9,85.94333333,226.545,2.3,1234.344095,25.93006721,89.49865097,97.7699,226.082,3.5,0.3644,15021.1,0.040970429,99.92566,100.1548,55.8,9517.4,99.4024,99.27133,409250,9,4.6,2.28
9/20/11,2011-09,2011-09,1419,No,1,0.009605645,1,19.69811457,25.18,86.98,226.889,1.98,1220.58784,26.18189408,90.44087159,97.7762,226.676,3.3,0.305,15021.1,0.040970429,99.80755,100.0693,59.5,9499.2,98.97775,99.06374,418000,9,4.2,1.95
9/21/11,2011-09,2011-09,1420,No,1,-0.00625608,-1,19.69811457,25.18,86.98,226.889,1.98,1220.58784,26.18189408,90.44087159,97.7762,226.676,3.3,0.305,15021.1,0.040970429,99.80755,100.0693,59.5,9499.2,98.97775,99.06374,418000,9,4.2,1.88
10/18/11,2011-10,2011-10,1439,No,1,0.004030814,0,20.15582479,25.59666667,86.97,226.421,2.15,1257.848958,26.67015167,90.61738861,98.4296,226.811,3.3,0.3977,15190.3,0.040970429,99.71893,100.0164,60.8,9559.7,98.71851,99.01356,402750,8.8,4.2,2.19
10/19/11,2011-10,2011-10,1440,No,1,0.003032416,0,20.15582479,25.59666667,86.97,226.421,2.15,1257.848958,26.67015167,90.61738861,98.4296,226.811,3.3,0.3977,15190.3,0.040970429,99.71893,100.0164,60.8,9559.7,98.71851,99.01356,402750,8.8,4.2,2.18
10/26/11,2011-10,2011-10,1445,No,1,-0.004507142,0,20.15582479,25.59666667,86.97,226.421,2.15,1257.848958,26.67015167,90.61738861,98.4296,226.811,3.3,0.3598,15190.3,0.040970429,99.71893,100.0164,60.8,9537.8,98.71851,99.01356,401250,8.8,4.2,2.23
10/27/11,2011-10,2011-10,1446,No,1,0.020048739,2,20.15582479,25.59666667,86.97,226.421,2.15,1257.848958,26.67015167,90.61738861,98.4296,226.811,3.3,0.43,15190.3,0.040970429,99.71893,100.0164,60.8,9537.8,98.71851,99.01356,401250,8.8,4.2,2.42
11/3/11,2011-11,2011-11,1451,No,1,0.007672118,1,20.3452468,26.01333333,86.96,226.23,2.01,1278.933035,27.12717613,90.6834663,98.2829,227.157,3.2,0.4018,15190.3,0.040970429,99.73504,100.0296,63.7,9552.2,98.59518,99.09631,399750,8.6,4.2,2.09
11/4/11,2011-11,2011-11,1452,No,1,-0.014117754,-1,20.3452468,26.01333333,86.96,226.23,2.01,1278.933035,27.12717613,90.6834663,98.2829,227.157,3.2,0.4018,15190.3,0.040970429,99.73504,100.0296,63.7,9552.2,98.59518,99.09631,399750,8.6,4.2,2.06
11/7/11,2011-11,2011-11,1453,No,1,-0.004005682,0,20.3452468,26.01333333,86.96,226.23,2.01,1278.933035,27.12717613,90.6834663,98.2829,227.157,3.2,0.4018,15190.3,0.040970429,99.73504,100.0296,63.7,9582.3,98.59518,99.09631,396000,8.6,4.2,2.04
11/8/11,2011-11,2011-11,1454,No,1,0.002014087,0,20.3452468,26.01333333,86.96,226.23,2.01,1278.933035,27.12717613,90.6834663,98.2829,227.157,3.2,0.4018,15190.3,0.040970429,99.73504,100.0296,63.7,9582.3,98.59518,99.09631,396000,8.6,4.2,2.1
11/21/11,2011-11,2011-11,1463,No,1,-0.022811401,-2,20.3452468,26.01333333,86.96,226.23,2.01,1278.933035,27.12717613,90.6834663,98.2829,227.157,3.2,0.4193,15190.3,0.040970429,99.73504,100.0296,63.7,9584.1,98.59518,99.09631,389500,8.6,4.2,1.97
11/22/11,2011-11,2011-11,1464,No,1,-0.004710875,0,20.3452468,26.01333333,86.96,226.23,2.01,1278.933035,27.12717613,90.6834663,98.2829,227.157,3.2,0.4193,15190.3,0.040970429,99.73504,100.0296,63.7,9584.1,98.59518,99.09631,389500,8.6,4.2,1.94
1/11/12,2012-01,2012-01,1497,No,1,-0.001439622,0,21.21300809,26.73666667,87.48,226.665,1.97,1353.665571,27.82797303,91.05065753,99.5096,227.759,3.1,0.4888,15291,0.041988276,99.98071,100.1434,75,9698.1,98.61538,99.47482,380000,8.3,4.4,1.93
1/12/12,2012-01,2012-01,1498,No,1,-0.004843386,0,21.21300809,26.73666667,87.48,226.665,1.97,1353.665571,27.82797303,91.05065753,99.5096,227.759,3.1,0.4914,15291,0.041988276,99.98071,100.1434,75,9698.1,98.61538,99.47482,380000,8.3,4.4,1.94
2/3/12,2012-02,2012-02,1513,No,1,0.012087105,1,21.79743596,27.04333333,88.01,227.663,1.97,1401.523503,28.02376894,91.20073603,99.7389,228.285,3.3,0.43806,15291,0.041988276,100.0863,100.1432,75.3,9712.1,98.71558,99.61237,378250,8.3,4.3,1.97
2/6/12,2012-02,2012-02,1514,No,1,-0.003763945,0,21.79743596,27.04333333,88.01,227.663,1.97,1401.523503,28.02376894,91.20073603,99.7389,228.285,3.3,0.43806,15291,0.041988276,100.0863,100.1432,75.3,9723.9,98.71558,99.61237,373500,8.3,4.3,1.93
2/17/12,2012-02,2012-02,1523,No,1,0.001553643,0,21.79743596,27.04333333,88.01,227.663,1.97,1401.523503,28.02376894,91.20073603,99.7389,228.285,3.3,0.42713,15291,0.041988276,100.0863,100.1432,75.3,9740.2,98.71558,99.61237,371750,8.3,4.3,2.01
2/21/12,2012-02,2012-02,1524,No,1,0.003496884,0,21.79743596,27.04333333,88.01,227.663,1.97,1401.523503,28.02376894,91.20073603,99.7389,228.285,3.3,0.42713,15291,0.041988276,100.0863,100.1432,75.3,9743.4,98.71558,99.61237,366250,8.3,4.3,2.05
3/5/12,2012-03,2012-03,1533,No,1,-0.004818936,0,22.05394397,27.35,88.54,229.392,2.17,1428.755082,28.12793433,91.05840241,99.0887,228.866,3.9,0.44512,15291,0.041988276,100.1405,100.1266,76.2,9771.7,98.81235,99.67658,367250,8.2,4.1,2
3/6/12,2012-03,2012-03,1534,No,1,-0.013068065,-1,22.05394397,27.35,88.54,229.392,2.17,1428.755082,28.12793433,91.05840241,99.0887,228.866,3.9,0.44512,15291,0.041988276,100.1405,100.1266,76.2,9771.7,98.81235,99.67658,367250,8.2,4.1,1.96
3/7/12,2012-03,2012-03,1535,No,1,0.002419242,0,22.05394397,27.35,88.54,229.392,2.17,1428.755082,28.12793433,91.05840241,99.0887,228.866,3.9,0.44512,15291,0.041988276,100.1405,100.1266,76.2,9771.7,98.81235,99.67658,367250,8.2,4.1,1.98
3/8/12,2012-03,2012-03,1536,No,1,0.006032585,1,22.05394397,27.35,88.54,229.392,2.17,1428.755082,28.12793433,91.05840241,99.0887,228.866,3.9,0.42379,15291,0.041988276,100.1405,100.1266,76.2,9771.7,98.81235,99.67658,367250,8.2,4.1,2.03
3/13/12,2012-03,2012-03,1539,No,1,0.005539649,1,22.05394397,27.35,88.54,229.392,2.17,1428.755082,28.12793433,91.05840241,99.0887,228.866,3.9,0.42379,15291,0.041988276,100.1405,100.1266,76.2,9780.6,98.81235,99.67658,369750,8.2,4.1,2.14
3/14/12,2012-03,2012-03,1540,No,1,0.00141126,0,22.05394397,27.35,88.54,229.392,2.17,1428.755082,28.12793433,91.05840241,99.0887,228.866,3.9,0.42379,15291,0.041988276,100.1405,100.1266,76.2,9780.6,98.81235,99.67658,369750,8.2,4.1,2.29
4/25/12,2012-04,2012-04,1569,No,1,0.01074259,1,21.77924691,27.67333333,88.33333333,230.085,2.05,1421.570549,28.37474352,90.57223599,99.928,229.172,3.9,0.311787,15362.4,0.041988276,100.1113,100.0494,76.4,9835.6,98.84198,99.6807,378000,8.2,3.7,2.01
4/26/12,2012-04,2012-04,1570,No,1,0.001589186,0,21.77924691,27.67333333,88.33333333,230.085,2.05,1421.570549,28.37474352,90.57223599,99.928,229.172,3.9,0.276423,15362.4,0.041988276,100.1113,100.0494,76.4,9835.6,98.84198,99.6807,378000,8.2,3.7,1.98
5/23/12,2012-05,2012-05,1589,No,1,-0.012796173,-1,20.94146742,27.99666667,88.12666667,229.815,1.8,1376.881663,28.73999787,90.46649169,100.0508,228.785,3,0.235821,15362.4,0.041988276,99.9277,99.86906,79.3,9871,98.82296,99.6514,370250,8.2,3.7,1.73
5/24/12,2012-05,2012-05,1590,No,1,0.002024713,0,20.94146742,27.99666667,88.12666667,229.815,1.8,1376.881663,28.73999787,90.46649169,100.0508,228.785,3,0.304688,15362.4,0.041988276,99.9277,99.86906,79.3,9871,98.82296,99.6514,370250,8.2,3.7,1.77
6/5/12,2012-06,2012-06,1597,No,1,0.002269533,0,20.54750409,28.32,87.92,229.478,1.62,1360.614526,29.11460951,90.38688092,99.9691,228.626,3.1,0.280156,15362.4,0.041988276,99.6566,99.69553,73.2,9889.8,98.69593,99.62069,374500,8.2,4.1,1.57
6/6/12,2012-06,2012-06,1598,No,1,0.014794545,1,20.54750409,28.32,87.92,229.478,1.62,1360.614526,29.11460951,90.38688092,99.9691,228.626,3.1,0.280156,15362.4,0.041988276,99.6566,99.69553,73.2,9889.8,98.69593,99.62069,374500,8.2,4.1,1.66
6/7/12,2012-06,2012-06,1599,No,1,0.001998234,0,20.54750409,28.32,87.92,229.478,1.62,1360.614526,29.11460951,90.38688092,99.9691,228.626,3.1,0.27451,15362.4,0.041988276,99.6566,99.69553,73.2,9889.8,98.69593,99.62069,374500,8.2,4.1,1.66
6/8/12,2012-06,2012-06,1600,No,1,0.001247165,0,20.54750409,28.32,87.92,229.478,1.62,1360.614526,29.11460951,90.38688092,99.9691,228.626,3.1,0.27451,15362.4,0.041988276,99.6566,99.69553,73.2,9889.8,98.69593,99.62069,374500,8.2,4.1,1.65
6/19/12,2012-06,2012-06,1607,No,1,0.009161042,1,20.54750409,28.32,87.92,229.478,1.62,1360.614526,29.11460951,90.38688092,99.9691,228.626,3.1,0.340351,15362.4,0.041988276,99.6566,99.69553,73.2,9948.9,98.69593,99.62069,381250,8.2,4.1,1.64
6/20/12,2012-06,2012-06,1608,No,1,-0.001767281,0,20.54750409,28.32,87.92,229.478,1.62,1360.614526,29.11460951,90.38688092,99.9691,228.626,3.1,0.340351,15362.4,0.041988276,99.6566,99.69553,73.2,9948.9,98.69593,99.62069,381250,8.2,4.1,1.65
7/16/12,2012-07,2012-07,1625,No,1,-0.00200516,0,20.99934129,28.74333333,87.44666667,229.104,1.53,1400.215091,29.59805933,90.04702405,100.2736,228.584,3.1,0.302251,15380.8,0.041988276,99.49656,99.60644,72.3,10025.8,98.44046,99.62705,375500,8.2,4.5,1.5
7/17/12,2012-07,2012-07,1626,No,1,-0.005215452,-1,20.99934129,28.74333333,87.44666667,229.104,1.53,1400.215091,29.59805933,90.04702405,100.2736,228.584,3.1,0.302251,15380.8,0.041988276,99.49656,99.60644,72.3,10025.8,98.44046,99.62705,375500,8.2,4.5,1.53
7/30/12,2012-07,2012-07,1635,No,1,0.00152969,0,20.99934129,28.74333333,87.44666667,229.104,1.53,1400.215091,29.59805933,90.04702405,100.2736,228.584,3.1,0.28115,15380.8,0.041988276,99.49656,99.60644,72.3,10036.6,98.44046,99.62705,371250,8.2,4.5,1.53
7/31/12,2012-07,2012-07,1636,No,1,-1.44376E-08,0,20.99934129,28.74333333,87.44666667,229.104,1.53,1400.215091,29.59805933,90.04702405,100.2736,228.584,3.1,0.28115,15380.8,0.041988276,99.49656,99.60644,72.3,10036.6,98.44046,99.62705,371250,8.2,4.5,1.51
8/23/12,2012-08,2012-08,1653,No,1,-0.003933519,0,21.41042845,29.16666667,86.97333333,230.379,1.68,1437.185519,29.86776229,89.06396042,99.833,229.911,3.6,0.41958,15380.8,0.041988276,99.47955,99.57423,74.3,10081.4,98.12067,99.65302,372000,8.1,4.5,1.68
8/24/12,2012-08,2012-08,1654,No,1,0.001333826,0,21.41042845,29.16666667,86.97333333,230.379,1.68,1437.185519,29.86776229,89.06396042,99.833,229.911,3.6,0.41958,15380.8,0.041988276,99.47955,99.57423,74.3,10081.4,98.12067,99.65302,372000,8.1,4.5,1.68
9/7/12,2012-09,2012-09,1663,No,1,0.002611517,0,21.7836903,29.59,86.5,231.407,1.72,1471.549933,30.16666148,88.18574579,99.9189,231.104,3.6,0.330579,15380.8,0.041988276,99.48335,99.57798,78.3,10133.7,97.88006,99.68329,373500,7.8,4,1.67
9/10/12,2012-09,2012-09,1664,No,1,-0.00089716,0,21.7836903,29.59,86.5,231.407,1.72,1471.549933,30.16666148,88.18574579,99.9189,231.104,3.6,0.330579,15380.8,0.041988276,99.48335,99.57798,78.3,10152.5,97.88006,99.68329,379250,7.8,4,1.68
9/19/12,2012-09,2012-09,1671,No,1,0.000938678,0,21.7836903,29.59,86.5,231.407,1.72,1471.549933,30.16666148,88.18574579,99.9189,231.104,3.6,0.364583,15380.8,0.041988276,99.48335,99.57798,78.3,10174.2,97.88006,99.68329,382750,7.8,4,1.79
9/20/12,2012-09,2012-09,1672,No,1,-0.00308001,0,21.7836903,29.59,86.5,231.407,1.72,1471.549933,30.16666148,88.18574579,99.9189,231.104,3.6,0.375,15380.8,0.041988276,99.48335,99.57798,78.3,10174.2,97.88006,99.68329,382750,7.8,4,1.8
10/3/12,2012-10,2012-10,1681,No,1,0.000539367,0,21.57710965,30.14333333,86.50333333,231.317,1.75,1466.411122,30.74273501,88.2234564,100.1878,231.741,3.1,0.361011,15384.3,0.041988276,99.39616,99.56273,82.6,10222.7,97.75631,99.70765,383500,7.8,3.6,1.64
10/4/12,2012-10,2012-10,1682,No,1,0.006271222,1,21.57710965,30.14333333,86.50333333,231.317,1.75,1466.411122,30.74273501,88.2234564,100.1878,231.741,3.1,0.338608,15384.3,0.041988276,99.39616,99.56273,82.6,10222.7,97.75631,99.70765,383500,7.8,3.6,1.7
10/9/12,2012-10,2012-10,1685,No,1,-0.005446819,-1,21.57710965,30.14333333,86.50333333,231.317,1.75,1466.411122,30.74273501,88.2234564,100.1878,231.741,3.1,0.338608,15384.3,0.041988276,99.39616,99.56273,82.6,10217.5,97.75631,99.70765,372000,7.8,3.6,1.74
10/10/12,2012-10,2012-10,1686,No,1,-0.001338888,0,21.57710965,30.14333333,86.50333333,231.317,1.75,1466.411122,30.74273501,88.2234564,100.1878,231.741,3.1,0.338608,15384.3,0.041988276,99.39616,99.56273,82.6,10217.5,97.75631,99.70765,372000,7.8,3.6,1.72
10/11/12,2012-10,2012-10,1687,No,1,0.007216576,1,21.57710965,30.14333333,86.50333333,231.317,1.75,1466.411122,30.74273501,88.2234564,100.1878,231.741,3.1,0.305755,15384.3,0.041988276,99.39616,99.56273,82.6,10217.5,97.75631,99.70765,372000,7.8,3.6,1.7
10/12/12,2012-10,2012-10,1688,No,1,0.000656063,0,21.57710965,30.14333333,86.50333333,231.317,1.75,1466.411122,30.74273501,88.2234564,100.1878,231.741,3.1,0.305755,15384.3,0.041988276,99.39616,99.56273,82.6,10217.5,97.75631,99.70765,372000,7.8,3.6,1.69
10/17/12,2012-10,2012-10,1691,No,1,0.004235968,0,21.57710965,30.14333333,86.50333333,231.317,1.75,1466.411122,30.74273501,88.2234564,100.1878,231.741,3.1,0.305755,15384.3,0.041988276,99.39616,99.56273,82.6,10229.7,97.75631,99.70765,370250,7.8,3.6,1.83
10/18/12,2012-10,2012-10,1692,No,1,-0.001690652,0,21.57710965,30.14333333,86.50333333,231.317,1.75,1466.411122,30.74273501,88.2234564,100.1878,231.741,3.1,0.286604,15384.3,0.041988276,99.39616,99.56273,82.6,10229.7,97.75631,99.70765,370250,7.8,3.6,1.86
11/8/12,2012-11,2012-11,1705,No,1,-0.001348145,0,20.89816206,30.69666667,86.50666667,230.221,1.65,1429.010677,31.45611319,88.64687258,100.6435,231.202,3.1,0.384977,15384.3,0.041988276,99.34483,99.55063,82.7,10313.8,97.71021,99.71491,371250,7.7,3.7,1.62
11/9/12,2012-11,2012-11,1706,No,1,0.004036115,0,20.89816206,30.69666667,86.50666667,230.221,1.65,1429.010677,31.45611319,88.64687258,100.6435,231.202,3.1,0.384977,15384.3,0.041988276,99.34483,99.55063,82.7,10313.8,97.71021,99.71491,371250,7.7,3.7,1.61
12/11/12,2012-12,2012-12,1727,No,1,0.008635544,1,21.23826114,31.25,86.51,229.601,1.72,1461.413645,32.10960944,88.88967401,100.858,231.165,3.1,0.422222,15384.3,0.041988276,99.50783,99.61349,72.9,10368.1,97.78195,99.69919,377000,7.9,3.8,1.66
12/12/12,2012-12,2012-12,1728,No,1,0.001519802,0,21.23826114,31.25,86.51,229.601,1.72,1461.413645,32.10960944,88.88967401,100.858,231.165,3.1,0.422222,15384.3,0.041988276,99.50783,99.61349,72.9,10368.1,97.78195,99.69919,377000,7.9,3.8,1.72
12/21/12,2012-12,2012-12,1735,No,1,-0.008693153,-1,21.23826114,31.25,86.51,229.601,1.72,1461.413645,32.10960944,88.88967401,100.858,231.165,3.1,0.464,15384.3,0.041988276,99.50783,99.61349,72.9,10413.8,97.78195,99.69919,365250,7.9,3.8,1.77
12/24/12,2012-12,2012-12,1736,No,1,-0.002782942,0,21.23826114,31.25,86.51,229.601,1.72,1461.413645,32.10960944,88.88967401,100.858,231.165,3.1,0.464,15384.3,0.041988276,99.50783,99.61349,72.9,10450.5,97.78195,99.69919,359500,7.9,3.8,1.79
1/2/13,2013-01,2013-01,1741,No,1,0.017992035,2,21.90047541,31.53666667,86.90666667,230.28,1.91,1516.636949,32.30861519,89.03395151,100.933,231.444,3.1,0.44403,15457.2,0.046176809,99.80816,99.71665,73.8,10484.5,97.94178,99.65324,356000,7.9,3.9,1.86
1/3/13,2013-01,2013-01,1742,No,1,-0.001374464,0,21.90047541,31.53666667,86.90666667,230.28,1.91,1516.636949,32.30861519,89.03395151,100.933,231.444,3.1,0.387097,15457.2,0.046176809,99.80816,99.71665,73.8,10484.5,97.94178,99.65324,356000,8,3.9,1.92
1/8/13,2013-01,2013-01,1745,No,1,-0.005616028,-1,21.90047541,31.53666667,86.90666667,230.28,1.91,1516.636949,32.30861519,89.03395151,100.933,231.444,3.1,0.387097,15457.2,0.046176809,99.80816,99.71665,73.8,10475,97.94178,99.65324,363250,8,3.9,1.89
1/9/13,2013-01,2013-01,1746,No,1,0.003479378,0,21.90047541,31.53666667,86.90666667,230.28,1.91,1516.636949,32.30861519,89.03395151,100.933,231.444,3.1,0.387097,15457.2,0.046176809,99.80816,99.71665,73.8,10475,97.94178,99.65324,363250,8,3.9,1.88
1/18/13,2013-01,2013-01,1753,No,1,-0.001593539,0,21.90047541,31.53666667,86.90666667,230.28,1.91,1516.636949,32.30861519,89.03395151,100.933,231.444,3.1,0.439437,15457.2,0.046176809,99.80816,99.71665,73.8,10449.6,97.94178,99.65324,359250,8,3.9,1.87
1/22/13,2013-01,2013-01,1754,No,1,-0.001823699,0,21.90047541,31.53666667,86.90666667,230.28,1.91,1516.636949,32.30861519,89.03395151,100.933,231.444,3.1,0.439437,15457.2,0.046176809,99.80816,99.71665,73.8,10423.3,97.94178,99.65324,354250,8,3.9,1.86
2/21/13,2013-02,2013-02,1775,No,1,-0.004371805,0,22.05272434,31.82333333,87.30333333,232.166,1.98,1536.742073,32.33745412,88.7137594,101.3425,232.803,3.3,0.417857,15457.2,0.046176809,99.96114,99.73787,77.6,10413.7,98.0671,99.6562,359250,7.7,3.9,1.99
2/22/13,2013-02,2013-02,1776,No,1,0.003833785,0,22.05272434,31.82333333,87.30333333,232.166,1.98,1536.742073,32.33745412,88.7137594,101.3425,232.803,3.3,0.417857,15457.2,0.046176809,99.96114,99.73787,77.6,10413.7,98.0671,99.6562,359250,7.7,3.9,1.97
3/1/13,2013-03,2013-03,1781,No,1,-0.000673445,0,22.41920711,32.11,87.7,232.773,1.96,1571.774963,32.54366633,88.88444525,101.561,232.245,3.2,0.283912,15457.2,0.046176809,99.8279,99.65792,78.6,10434.4,98.1736,99.71023,354250,7.7,3.7,1.86
3/4/13,2013-03,2013-03,1782,No,1,-0.000717923,0,22.41920711,32.11,87.7,232.773,1.96,1571.774963,32.54366633,88.88444525,101.561,232.245,3.2,0.283912,15457.2,0.046176809,99.8279,99.65792,78.6,10466.7,98.1736,99.71023,349750,7.5,3.7,1.88
3/7/13,2013-03,2013-03,1785,No,1,0.001907308,0,22.41920711,32.11,87.7,232.773,1.96,1571.774963,32.54366633,88.88444525,101.561,232.245,3.2,0.310559,15457.2,0.046176809,99.8279,99.65792,78.6,10466.7,98.1736,99.71023,349750,7.5,3.7,2
3/8/13,2013-03,2013-03,1786,No,1,0.000964857,0,22.41920711,32.11,87.7,232.773,1.96,1571.774963,32.54366633,88.88444525,101.561,232.245,3.2,0.310559,15457.2,0.046176809,99.8279,99.65792,78.6,10466.7,98.1736,99.71023,349750,7.5,3.7,2.06
3/25/13,2013-03,2013-03,1797,No,1,0.000186259,0,22.41920711,32.11,87.7,232.773,1.96,1571.774963,32.54366633,88.88444525,101.561,232.245,3.2,0.389439,15457.2,0.046176809,99.8279,99.65792,78.6,10528.4,98.1736,99.71023,348250,7.5,3.7,1.93
3/26/13,2013-03,2013-03,1798,No,1,0.003911902,0,22.41920711,32.11,87.7,232.773,1.96,1571.774963,32.54366633,88.88444525,101.561,232.245,3.2,0.389439,15457.2,0.046176809,99.8279,99.65792,78.6,10528.4,98.1736,99.71023,348250,7.5,3.7,1.92
4/1/13,2013-04,2013-04,1801,No,1,-0.004887937,0,22.5956554,32.49666667,88.78333333,232.531,1.76,1593.570058,32.96983192,90.07605633,101.5385,231.672,3.1,0.383954,15500.2,0.046176809,99.62086,99.58836,76.4,10568.4,98.32247,97.89265,355250,7.5,3.6,1.86
4/2/13,2013-04,2013-04,1802,No,1,0.00671499,1,22.5956554,32.49666667,88.78333333,232.531,1.76,1593.570058,32.96983192,90.07605633,101.5385,231.672,3.1,0.383954,15500.2,0.046176809,99.62086,99.58836,76.4,10568.4,98.32247,97.89265,355250,7.6,3.6,1.88
4/17/13,2013-04,2013-04,1813,No,1,-0.014511865,-1,22.5956554,32.49666667,88.78333333,232.531,1.76,1593.570058,32.96983192,90.07605633,101.5385,231.672,3.1,0.193103,15500.2,0.046176809,99.62086,99.58836,76.4,10544.3,98.32247,97.89265,361750,7.6,3.6,1.73
4/18/13,2013-04,2013-04,1814,No,1,-0.001997403,0,22.5956554,32.49666667,88.78333333,232.531,1.76,1593.570058,32.96983192,90.07605633,101.5385,231.672,3.1,0.268493,15500.2,0.046176809,99.62086,99.58836,76.4,10544.3,98.32247,97.89265,361750,7.6,3.6,1.72
5/28/13,2013-05,2013-05,1841,No,1,0.011466568,1,23.41184178,32.88333333,89.86666667,232.945,1.93,1660.759936,33.30283599,91.01312298,101.4689,231.99,3.1,0.489726,15500.2,0.046176809,99.59418,99.65293,84.5,10601,98.53024,97.61668,346500,7.5,3.6,2.15
5/29/13,2013-05,2013-05,1842,No,1,-0.00856586,-1,23.41184178,32.88333333,89.86666667,232.945,1.93,1660.759936,33.30283599,91.01312298,101.4689,231.99,3.1,0.489726,15500.2,0.046176809,99.59418,99.65293,84.5,10601,98.53024,97.61668,346500,7.5,3.6,2.13
5/30/13,2013-05,2013-05,1843,No,1,0.004990471,0,23.41184178,32.88333333,89.86666667,232.945,1.93,1660.759936,33.30283599,91.01312298,101.4689,231.99,3.1,0.359684,15500.2,0.046176809,99.59418,99.65293,84.5,10601,98.53024,97.61668,346500,7.5,3.6,2.13
5/31/13,2013-05,2013-05,1844,No,1,5.44721E-05,0,23.41184178,32.88333333,89.86666667,232.945,1.93,1660.759936,33.30283599,91.01312298,101.4689,231.99,3.1,0.359684,15500.2,0.046176809,99.59418,99.65293,84.5,10601,98.53024,97.61668,346500,7.5,3.6,2.16
6/13/13,2013-06,2013-06,1853,No,1,0.003330941,0,22.92533317,33.27,90.95,233.504,2.3,1635.496426,33.61377224,91.88976811,101.6621,232.583,3.1,0.32973,15500.2,0.046176809,99.80782,99.88076,84.1,10626.3,98.8316,97.48949,345750,7.5,3.9,2.19
6/14/13,2013-06,2013-06,1854,No,1,-0.001510235,0,22.92533317,33.27,90.95,233.504,2.3,1635.496426,33.61377224,91.88976811,101.6621,232.583,3.1,0.32973,15500.2,0.046176809,99.80782,99.88076,84.1,10626.3,98.8316,97.48949,345750,7.5,3.9,2.14
6/27/13,2013-06,2013-06,1863,No,1,0.006666953,1,22.92533317,33.27,90.95,233.504,2.3,1635.496426,33.61377224,91.88976811,101.6621,232.583,3.1,0.302752,15500.2,0.046176809,99.80782,99.88076,84.1,10631.2,98.8316,97.48949,345500,7.5,3.9,2.49
6/28/13,2013-06,2013-06,1864,No,1,-0.001824814,0,22.92533317,33.27,90.95,233.504,2.3,1635.496426,33.61377224,91.88976811,101.6621,232.583,3.1,0.302752,15500.2,0.046176809,99.80782,99.88076,84.1,10631.2,98.8316,97.48949,345500,7.5,3.9,2.52
7/12/13,2013-07,2013-07,1873,No,1,0.000358147,0,23.49246018,33.64666667,92.09,233.596,2.58,1685.258148,33.98094252,93.0049038,101.2685,232.98,3.1,0.489362,15614.4,0.046176809,100.1122,100.1776,85.1,10655.6,99.12054,97.72352,349250,7.3,4.2,2.61
7/15/13,2013-07,2013-07,1874,No,1,0.00015482,0,23.49246018,33.64666667,92.09,233.596,2.58,1685.258148,33.98094252,93.0049038,101.2685,232.98,3.1,0.489362,15614.4,0.046176809,100.1122,100.1776,85.1,10685.4,99.12054,97.72352,346250,7.3,4.2,2.57
7/30/13,2013-07,2013-07,1885,No,1,0.001729914,0,23.49246018,33.64666667,92.09,233.596,2.58,1685.258148,33.98094252,93.0049038,101.2685,232.98,3.1,0.451178,15614.4,0.046176809,100.1122,100.1776,85.1,10723.5,99.12054,97.72352,345250,7.3,4.2,2.63
7/31/13,2013-07,2013-07,1886,No,1,0.00512513,1,23.49246018,33.64666667,92.09,233.596,2.58,1685.258148,33.98094252,93.0049038,101.2685,232.98,3.1,0.451178,15614.4,0.046176809,100.1122,100.1776,85.1,10723.5,99.12054,97.72352,345250,7.3,4.2,2.6
8/19/13,2013-08,2013-08,1899,No,1,0.001600967,0,23.35664909,34.02333333,93.23,233.877,2.74,1684.655631,34.32006663,94.04310215,102.0442,233.413,3,0.34507,15614.4,0.046176809,100.3771,100.442,82.1,10738.8,99.35397,98.25722,335000,7.3,3.8,2.88
8/20/13,2013-08,2013-08,1900,No,1,0.004165593,0,23.35664909,34.02333333,93.23,233.877,2.74,1684.655631,34.32006663,94.04310215,102.0442,233.413,3,0.34507,15614.4,0.046176809,100.3771,100.442,82.1,10738.8,99.35397,98.25722,335000,7.3,3.8,2.82
9/9/13,2013-09,2013-09,1913,No,1,0.004037797,0,23.44228717,34.4,94.37,234.149,2.81,1699.907593,34.65970899,95.08246329,102.6361,233.773,3,0.3553,15614.4,0.046176809,100.5043,100.6211,77.5,10783.4,99.49071,98.84009,326500,7.3,3.7,2.9
9/10/13,2013-09,2013-09,1914,No,1,0.004811633,0,23.44228717,34.4,94.37,234.149,2.81,1699.907593,34.65970899,95.08246329,102.6361,233.773,3,0.3553,15614.4,0.046176809,100.5043,100.6211,77.5,10783.4,99.49071,98.84009,326500,7.3,3.7,2.96
9/23/13,2013-09,2013-09,1923,No,1,-0.005381399,-1,23.44228717,34.4,94.37,234.149,2.81,1699.907593,34.65970899,95.08246329,102.6361,233.773,3,0.451128,15614.4,0.046176809,100.5043,100.6211,77.5,10821.9,99.49071,98.84009,317250,7.3,3.7,2.72
9/24/13,2013-09,2013-09,1924,No,1,-0.000798764,0,23.44228717,34.4,94.37,234.149,2.81,1699.907593,34.65970899,95.08246329,102.6361,233.773,3,0.451128,15614.4,0.046176809,100.5043,100.6211,77.5,10821.9,99.49071,98.84009,317250,7.3,3.7,2.67
10/1/13,2013-10,2013-10,1929,No,1,0.005890339,1,23.83473789,34.59666667,96.31333333,233.546,2.62,1737.490205,34.94786107,97.29102011,102.6534,233.903,3,0.360544,15761.5,0.046176809,100.5414,100.7285,73.2,10862.6,99.55138,99.28867,315500,7.3,3.7,2.66
10/2/13,2013-10,2013-10,1930,No,1,-0.005496793,-1,23.83473789,34.59666667,96.31333333,233.546,2.62,1737.490205,34.94786107,97.29102011,102.6534,233.903,3,0.360544,15761.5,0.046176809,100.5414,100.7285,73.2,10862.6,99.55138,99.28867,315500,7.2,3.7,2.63
10/17/13,2013-10,2013-10,1941,No,1,5.22948E-05,0,23.83473789,34.59666667,96.31333333,233.546,2.62,1737.490205,34.94786107,97.29102011,102.6534,233.903,3,0.462783,15761.5,0.046176809,100.5414,100.7285,73.2,10906.3,99.55138,99.28867,341000,7.2,3.7,2.61
10/18/13,2013-10,2013-10,1942,No,1,0.00073128,0,23.83473789,34.59666667,96.31333333,233.546,2.62,1737.490205,34.94786107,97.29102011,102.6534,233.903,3,0.462783,15761.5,0.046176809,100.5414,100.7285,73.2,10906.3,99.55138,99.28867,341000,7.2,3.7,2.6
10/21/13,2013-10,2013-10,1943,No,1,-0.001300682,0,23.83473789,34.59666667,96.31333333,233.546,2.62,1737.490205,34.94786107,97.29102011,102.6534,233.903,3,0.462783,15761.5,0.046176809,100.5414,100.7285,73.2,10957.2,99.55138,99.28867,349250,7.2,3.7,2.63
10/22/13,2013-10,2013-10,1944,No,1,0.003618719,0,23.83473789,34.59666667,96.31333333,233.546,2.62,1737.490205,34.94786107,97.29102011,102.6534,233.903,3,0.462783,15761.5,0.046176809,100.5414,100.7285,73.2,10957.2,99.55138,99.28867,349250,7.2,3.7,2.54
10/29/13,2013-10,2013-10,1949,No,1,0.002036352,0,23.83473789,34.59666667,96.31333333,233.546,2.62,1737.490205,34.94786107,97.29102011,102.6534,233.903,3,0.492013,15761.5,0.046176809,100.5414,100.7285,73.2,10948.5,99.55138,99.28867,355500,7.2,3.7,2.53
10/30/13,2013-10,2013-10,1950,No,1,0.000265185,0,23.83473789,34.59666667,96.31333333,233.546,2.62,1737.490205,34.94786107,97.29102011,102.6534,233.903,3,0.492013,15761.5,0.046176809,100.5414,100.7285,73.2,10948.5,99.55138,99.28867,355500,7.2,3.7,2.55
11/26/13,2013-11,2013-11,1969,No,1,0.000604594,0,24.64207709,34.79333333,98.25666667,233.069,2.72,1805.332156,35.21845514,99.45721424,102.9163,234.038,2.9,0.343931,15761.5,0.046176809,100.5131,100.7605,75.1,10947.8,99.59559,99.54186,332000,6.9,3.2,2.71
11/27/13,2013-11,2013-11,1970,No,1,0.002156952,0,24.64207709,34.79333333,98.25666667,233.069,2.72,1805.332156,35.21845514,99.45721424,102.9163,234.038,2.9,0.343931,15761.5,0.046176809,100.5131,100.7605,75.1,10947.8,99.59559,99.54186,332000,6.9,3.2,2.74
12/13/13,2013-12,2013-12,1981,No,1,-0.001698546,0,24.8618693,34.99,100.2,233.049,2.9,1830.025369,35.42056427,101.4329963,103.1889,234.697,2.9,0.412651,15761.5,0.046176809,100.3836,100.673,82.5,10974.2,99.72648,99.59299,328500,6.7,3.1,2.88
12/16/13,2013-12,2013-12,1982,No,1,0.005710343,1,24.8618693,34.99,100.2,233.049,2.9,1830.025369,35.42056427,101.4329963,103.1889,234.697,2.9,0.412651,15761.5,0.046176809,100.3836,100.673,82.5,10976.5,99.72648,99.59299,337750,6.7,3.1,2.89
12/26/13,2013-12,2013-12,1989,No,1,0.001634934,0,24.8618693,34.99,100.2,233.049,2.9,1830.025369,35.42056427,101.4329963,103.1889,234.697,2.9,0.550562,15761.5,0.046176809,100.3836,100.673,82.5,11002.9,99.72648,99.59299,343750,6.7,3.1,3
12/27/13,2013-12,2013-12,1990,No,1,-0.001562679,0,24.8618693,34.99,100.2,233.049,2.9,1830.025369,35.42056427,101.4329963,103.1889,234.697,2.9,0.550562,15761.5,0.046176809,100.3836,100.673,82.5,11002.9,99.72648,99.59299,343750,6.7,3.1,3.02
1/10/14,2014-01,2014-01,1999,No,1,-0.00209779,0,24.85960909,35.40333333,100.4166667,233.916,2.86,1837.947163,35.7061481,101.2755589,103.0047,235.128,2.9,0.43617,15724.9,0.045975029,100.2119,100.5249,81.2,11007.1,99.89989,99.53434,342250,6.6,3.3,2.88
1/13/14,2014-01,2014-01,2000,No,1,0.000809223,0,24.85960909,35.40333333,100.4166667,233.916,2.86,1837.947163,35.7061481,101.2755589,103.0047,235.128,2.9,0.43617,15724.9,0.045975029,100.2119,100.5249,81.2,11005.4,99.89989,99.53434,329250,6.6,3.3,2.84
1/14/14,2014-01,2014-01,2001,No,1,0.003662107,0,24.85960909,35.40333333,100.4166667,233.916,2.86,1837.947163,35.7061481,101.2755589,103.0047,235.128,2.9,0.43617,15724.9,0.045975029,100.2119,100.5249,81.2,11005.4,99.89989,99.53434,329250,6.6,3.3,2.88
1/15/14,2014-01,2014-01,2002,No,1,0.003249071,0,24.85960909,35.40333333,100.4166667,233.916,2.86,1837.947163,35.7061481,101.2755589,103.0047,235.128,2.9,0.43617,15724.9,0.045975029,100.2119,100.5249,81.2,11005.4,99.89989,99.53434,329250,6.6,3.3,2.9
2/12/14,2014-02,2014-02,2021,No,1,-0.000318658,0,24.59093088,35.81666667,100.6333333,234.781,2.71,1825.829907,35.98992932,101.1201458,103.8079,235.356,2.9,0.27896,15724.9,0.045975029,100.2599,100.5224,81.6,11081.2,100.0703,99.37413,335750,6.7,3.4,2.8
2/13/14,2014-02,2014-02,2022,No,1,0.001609005,0,24.59093088,35.81666667,100.6333333,234.781,2.71,1825.829907,35.98992932,101.1201458,103.8079,235.356,2.9,0.401478,15724.9,0.045975029,100.2599,100.5224,81.6,11081.2,100.0703,99.37413,335750,6.7,3.4,2.73
4/2/14,2014-04,2014-04,2055,No,1,0.001298634,0,24.7863154,36.61333333,101.6066667,237.072,2.71,1855.175476,36.43491685,101.1115382,104.8595,236.24,3.2,0.311615,15901.5,0.045975029,100.4513,100.6602,84.1,11181.6,100.545,99.16315,323250,6.2,3,2.82
4/3/14,2014-04,2014-04,2056,No,1,-0.001406372,0,24.7863154,36.61333333,101.6066667,237.072,2.71,1855.175476,36.43491685,101.1115382,104.8595,236.24,3.2,0.353571,15901.5,0.045975029,100.4513,100.6602,84.1,11181.6,100.545,99.16315,323250,6.2,3,2.8
4/8/14,2014-04,2014-04,2059,No,1,-0.00083446,0,24.7863154,36.61333333,101.6066667,237.072,2.71,1855.175476,36.43491685,101.1115382,104.8595,236.24,3.2,0.353571,15901.5,0.045975029,100.4513,100.6602,84.1,11182.5,100.545,99.16315,320000,6.2,3,2.69
4/9/14,2014-04,2014-04,2060,No,1,0.00174345,0,24.7863154,36.61333333,101.6066667,237.072,2.71,1855.175476,36.43491685,101.1115382,104.8595,236.24,3.2,0.353571,15901.5,0.045975029,100.4513,100.6602,84.1,11182.5,100.545,99.16315,320000,6.2,3,2.71
5/13/14,2014-05,2014-05,2083,No,1,0.002298669,0,24.94327411,36.99666667,102.3633333,237.9,2.56,1874.015959,36.68824448,101.5099828,105.2461,236.95,3.3,0.283439,15901.5,0.045975029,100.5096,100.7112,81.9,11256.2,100.6802,99.2051,321500,6.2,3,2.61
5/14/14,2014-05,2014-05,2084,No,1,-0.001328325,0,24.94327411,36.99666667,102.3633333,237.9,2.56,1874.015959,36.68824448,101.5099828,105.2461,236.95,3.3,0.283439,15901.5,0.045975029,100.5096,100.7112,81.9,11256.2,100.6802,99.2051,321500,6.2,3,2.54
5/19/14,2014-05,2014-05,2087,No,1,0.001641195,0,24.94327411,36.99666667,102.3633333,237.9,2.56,1874.015959,36.68824448,101.5099828,105.2461,236.95,3.3,0.33121,15901.5,0.045975029,100.5096,100.7112,81.9,11264.5,100.6802,99.2051,320250,6.2,3,2.54
5/20/14,2014-05,2014-05,2088,No,1,-0.002445782,0,24.94327411,36.99666667,102.3633333,237.9,2.56,1874.015959,36.68824448,101.5099828,105.2461,236.95,3.3,0.33121,15901.5,0.045975029,100.5096,100.7112,81.9,11264.5,100.6802,99.2051,320250,6.2,3,2.52
5/30/14,2014-05,2014-05,2095,No,1,-0.000291594,0,24.94327411,36.99666667,102.3633333,237.9,2.56,1874.015959,36.68824448,101.5099828,105.2461,236.95,3.3,0.364641,15901.5,0.045975029,100.5096,100.7112,81.9,11311.8,100.6802,99.2051,312750,6.2,3,2.48
6/2/14,2014-06,2014-06,2096,No,1,-0.002988765,0,25.55800762,37.38,103.12,238.343,2.6,1927.269292,36.99948442,102.0702738,105.716,237.348,3.3,0.364641,15901.5,0.045975029,100.5526,100.741,82.5,11326.1,100.6679,99.47057,310500,6.2,3.4,2.54
7/3/14,2014-07,2014-07,2119,No,1,0.002520393,0,25.81754598,37.75,104.0666667,238.25,2.54,1953.776871,37.38030352,103.0475122,106.0803,237.596,3.3,0.385075,16068.8,0.045975029,100.6508,100.7737,81.8,11362.1,100.5306,99.91594,314000,6.2,3.5,2.65
7/7/14,2014-07,2014-07,2120,No,1,-0.002071328,0,25.81754598,37.75,104.0666667,238.25,2.54,1953.776871,37.38030352,103.0475122,106.0803,237.596,3.3,0.385075,16068.8,0.045975029,100.6508,100.7737,81.8,11351.9,100.5306,99.91594,311500,6.2,3.5,2.63
7/10/14,2014-07,2014-07,2123,No,1,-0.002577984,0,25.81754598,37.75,104.0666667,238.25,2.54,1953.776871,37.38030352,103.0475122,106.0803,237.596,3.3,0.376404,16068.8,0.045975029,100.6508,100.7737,81.8,11351.9,100.5306,99.91594,311500,6.2,3.5,2.55
7/11/14,2014-07,2014-07,2124,No,1,-0.001190384,0,25.81754598,37.75,104.0666667,238.25,2.54,1953.776871,37.38030352,103.0475122,106.0803,237.596,3.3,0.376404,16068.8,0.045975029,100.6508,100.7737,81.8,11351.9,100.5306,99.91594,311500,6.2,3.5,2.53
7/16/14,2014-07,2014-07,2127,No,1,0.000323841,0,25.81754598,37.75,104.0666667,238.25,2.54,1953.776871,37.38030352,103.0475122,106.0803,237.596,3.3,0.376404,16068.8,0.045975029,100.6508,100.7737,81.8,11387.5,100.5306,99.91594,309000,6.2,3.5,2.55
7/17/14,2014-07,2014-07,2128,No,1,-0.000232353,0,25.81754598,37.75,104.0666667,238.25,2.54,1953.776871,37.38030352,103.0475122,106.0803,237.596,3.3,0.323625,16068.8,0.045975029,100.6508,100.7737,81.8,11387.5,100.5306,99.91594,309000,6.2,3.5,2.47
8/1/14,2014-08,2014-08,2139,No,1,0.00031607,0,25.61760642,38.12,105.0133333,237.852,2.42,1945.570282,37.80984188,104.1589068,106.1138,237.409,3.2,0.311224,16068.8,0.045975029,100.7824,100.7988,82.5,11437.6,100.3252,100.3858,300250,6.2,3.6,2.52
8/4/14,2014-08,2014-08,2140,No,1,-0.000757801,0,25.61760642,38.12,105.0133333,237.852,2.42,1945.570282,37.80984188,104.1589068,106.1138,237.409,3.2,0.311224,16068.8,0.045975029,100.7824,100.7988,82.5,11438.3,100.3252,100.3858,297750,6.2,3.6,2.51
8/5/14,2014-08,2014-08,2141,No,1,-0.000784969,0,25.61760642,38.12,105.0133333,237.852,2.42,1945.570282,37.80984188,104.1589068,106.1138,237.409,3.2,0.311224,16068.8,0.045975029,100.7824,100.7988,82.5,11438.3,100.3252,100.3858,297750,6.2,3.6,2.49
8/6/14,2014-08,2014-08,2142,No,1,0.00214363,0,25.61760642,38.12,105.0133333,237.852,2.42,1945.570282,37.80984188,104.1589068,106.1138,237.409,3.2,0.311224,16068.8,0.045975029,100.7824,100.7988,82.5,11438.3,100.3252,100.3858,297750,6.2,3.6,2.49
8/7/14,2014-08,2014-08,2143,No,1,-0.000972439,0,25.61760642,38.12,105.0133333,237.852,2.42,1945.570282,37.80984188,104.1589068,106.1138,237.409,3.2,0.308869,16068.8,0.045975029,100.7824,100.7988,82.5,11438.3,100.3252,100.3858,297750,6.2,3.6,2.43
8/8/14,2014-08,2014-08,2144,No,1,0.002931413,0,25.61760642,38.12,105.0133333,237.852,2.42,1945.570282,37.80984188,104.1589068,106.1138,237.409,3.2,0.308869,16068.8,0.045975029,100.7824,100.7988,82.5,11438.3,100.3252,100.3858,297750,6.2,3.6,2.44
8/13/14,2014-08,2014-08,2147,No,1,0.003048163,0,25.61760642,38.12,105.0133333,237.852,2.42,1945.570282,37.80984188,104.1589068,106.1138,237.409,3.2,0.308869,16068.8,0.045975029,100.7824,100.7988,82.5,11407.9,100.3252,100.3858,299000,6.2,3.6,2.43
8/14/14,2014-08,2014-08,2148,No,1,0.002392904,0,25.61760642,38.12,105.0133333,237.852,2.42,1945.570282,37.80984188,104.1589068,106.1138,237.409,3.2,0.398119,16068.8,0.045975029,100.7824,100.7988,82.5,11407.9,100.3252,100.3858,299000,6.2,3.6,2.4
9/3/14,2014-09,2014-09,2161,No,1,0.001552256,0,25.91843689,38.49,105.96,238.031,2.53,1975.52564,38.14812233,105.0188372,106.6776,237.626,3.2,0.519231,16068.8,0.045975029,100.7978,100.7869,84.6,11463.5,100.1505,100.7567,303250,6,2.9,2.41
9/4/14,2014-09,2014-09,2162,No,1,0.004401303,0,25.91843689,38.49,105.96,238.031,2.53,1975.52564,38.14812233,105.0188372,106.6776,237.626,3.2,0.446746,16068.8,0.045975029,100.7978,100.7869,84.6,11463.5,100.1505,100.7567,303250,6,2.9,2.45
10/3/14,2014-10,2014-10,2183,No,1,0.006883562,1,25.16274828,38.80666667,104.7433333,237.433,2.3,1924.89857,38.55884683,104.0744411,106.8463,237.753,2.9,0.354167,16151.4,0.045975029,100.8158,100.7998,86.9,11499.4,100.0752,101.0209,296250,5.7,2.9,2.45
10/6/14,2014-10,2014-10,2184,No,1,5.58322E-05,0,25.16274828,38.80666667,104.7433333,237.433,2.3,1924.89857,38.55884683,104.0744411,106.8463,237.753,2.9,0.354167,16151.4,0.045975029,100.8158,100.7998,86.9,11512.2,100.0752,101.0209,291250,5.7,2.9,2.43
10/7/14,2014-10,2014-10,2185,No,1,-0.002843507,0,25.16274828,38.80666667,104.7433333,237.433,2.3,1924.89857,38.55884683,104.0744411,106.8463,237.753,2.9,0.354167,16151.4,0.045975029,100.8158,100.7998,86.9,11512.2,100.0752,101.0209,291250,5.7,2.9,2.36
10/8/14,2014-10,2014-10,2186,No,1,-0.003296246,0,25.16274828,38.80666667,104.7433333,237.433,2.3,1924.89857,38.55884683,104.0744411,106.8463,237.753,2.9,0.354167,16151.4,0.045975029,100.8158,100.7998,86.9,11512.2,100.0752,101.0209,291250,5.7,2.9,2.35
10/9/14,2014-10,2014-10,2187,No,1,-0.006677942,-1,25.16274828,38.80666667,104.7433333,237.433,2.3,1924.89857,38.55884683,104.0744411,106.8463,237.753,2.9,0.398773,16151.4,0.045975029,100.8158,100.7998,86.9,11512.2,100.0752,101.0209,291250,5.7,2.9,2.34
10/10/14,2014-10,2014-10,2188,No,1,-0.0024875,0,25.16274828,38.80666667,104.7433333,237.433,2.3,1924.89857,38.55884683,104.0744411,106.8463,237.753,2.9,0.398773,16151.4,0.045975029,100.8158,100.7998,86.9,11512.2,100.0752,101.0209,291250,5.7,2.9,2.31
11/4/14,2014-11,2014-11,2205,No,1,-0.004539147,0,26.60681715,39.12333333,103.5266667,236.151,2.33,2042.541889,39.08452494,103.4239734,107.7996,237.067,2.9,0.493711,16151.4,0.045975029,100.7226,100.7492,88.8,11525.5,100.101,101.1117,282750,5.8,3,2.35
11/5/14,2014-11,2014-11,2206,No,1,0.000853456,0,26.60681715,39.12333333,103.5266667,236.151,2.33,2042.541889,39.08452494,103.4239734,107.7996,237.067,2.9,0.493711,16151.4,0.045975029,100.7226,100.7492,88.8,11525.5,100.101,101.1117,282750,5.8,3,2.36
11/14/14,2014-11,2014-11,2213,No,1,-1.96054E-05,0,26.60681715,39.12333333,103.5266667,236.151,2.33,2042.541889,39.08452494,103.4239734,107.7996,237.067,2.9,0.57931,16151.4,0.045975029,100.7226,100.7492,88.8,11549.2,100.101,101.1117,286500,5.8,3,2.32
11/17/14,2014-11,2014-11,2214,No,1,2.94173E-05,0,26.60681715,39.12333333,103.5266667,236.151,2.33,2042.541889,39.08452494,103.4239734,107.7996,237.067,2.9,0.57931,16151.4,0.045975029,100.7226,100.7492,88.8,11563.3,100.101,101.1117,287750,5.8,3,2.34
11/18/14,2014-11,2014-11,2215,No,1,0.003242755,0,26.60681715,39.12333333,103.5266667,236.151,2.33,2042.541889,39.08452494,103.4239734,107.7996,237.067,2.9,0.57931,16151.4,0.045975029,100.7226,100.7492,88.8,11563.3,100.101,101.1117,287750,5.8,3,2.32
11/19/14,2014-11,2014-11,2216,No,1,-0.004548603,0,26.60681715,39.12333333,103.5266667,236.151,2.33,2042.541889,39.08452494,103.4239734,107.7996,237.067,2.9,0.57931,16151.4,0.045975029,100.7226,100.7492,88.8,11563.3,100.101,101.1117,287750,5.8,3,2.36
12/1/14,2014-12,2014-12,2223,No,1,-0.006162335,-1,26.79408548,39.44,102.31,234.812,2.21,2063.934986,39.6255584,102.7913509,107.9108,236.284,2.8,0.491176,16151.4,0.045975029,100.4707,100.6037,93.6,11601.8,100.2709,100.9869,295000,5.8,2.7,2.22
12/2/14,2014-12,2014-12,2224,No,1,0.003578775,0,26.79408548,39.44,102.31,234.812,2.21,2063.934986,39.6255584,102.7913509,107.9108,236.284,2.8,0.491176,16151.4,0.045975029,100.4707,100.6037,93.6,11601.8,100.2709,100.9869,295000,5.6,2.7,2.28
12/11/14,2014-12,2014-12,2231,No,1,0.011864351,1,26.79408548,39.44,102.31,234.812,2.21,2063.934986,39.6255584,102.7913509,107.9108,236.284,2.8,0.450172,16151.4,0.045975029,100.4707,100.6037,93.6,11611,100.2709,100.9869,295000,5.6,2.7,2.19
12/12/14,2014-12,2014-12,2232,No,1,-0.004048536,0,26.79408548,39.44,102.31,234.812,2.21,2063.934986,39.6255584,102.7913509,107.9108,236.284,2.8,0.450172,16151.4,0.045975029,100.4707,100.6037,93.6,11611,100.2709,100.9869,295000,5.6,2.7,2.1
12/30/14,2014-12,2014-12,2243,No,1,-0.002140298,0,26.79408548,39.44,102.31,234.812,2.21,2063.934986,39.6255584,102.7913509,107.9108,236.284,2.8,0.387352,16151.4,0.045975029,100.4707,100.6037,93.6,11657.1,100.2709,100.9869,287750,5.6,2.7,2.2
12/31/14,2014-12,2014-12,2244,No,1,0.001037358,0,26.79408548,39.44,102.31,234.812,2.21,2063.934986,39.6255584,102.7913509,107.9108,236.284,2.8,0.387352,16151.4,0.045975029,100.4707,100.6037,93.6,11657.1,100.2709,100.9869,287750,5.6,2.7,2.17
1/29/15,2015-01,2015-01,2263,No,1,-0.005013834,-1,26.49229542,39.89666667,101.29,233.707,1.88,2047.356879,40.27389824,102.2477188,107.6003,234.677,2.8,0.441718,16177.3,0.045432132,100.2137,100.4446,98.1,11735.8,100.5774,100.8754,291750,5.7,2.9,1.77
1/30/15,2015-01,2015-01,2264,No,1,-0.004768849,0,26.49229542,39.89666667,101.29,233.707,1.88,2047.356879,40.27389824,102.2477188,107.6003,234.677,2.8,0.441718,16177.3,0.045432132,100.2137,100.4446,98.1,11735.8,100.5774,100.8754,291750,5.7,2.9,1.68
2/12/15,2015-02,2015-02,2273,No,1,0.005246437,1,26.9955137,40.35333333,100.27,234.722,1.98,2092.798531,40.55873438,100.7803807,107.4368,235.186,2.8,0.4,16177.3,0.045432132,100.0107,100.3208,95.4,11767.6,100.9073,100.7493,288500,5.5,2.7,1.99
2/13/15,2015-02,2015-02,2274,No,1,0.001311757,0,26.9955137,40.35333333,100.27,234.722,1.98,2092.798531,40.55873438,100.7803807,107.4368,235.186,2.8,0.4,16177.3,0.045432132,100.0107,100.3208,95.4,11767.6,100.9073,100.7493,288500,5.5,2.7,2.02
2/19/15,2015-02,2015-02,2277,No,1,-0.000600214,0,26.9955137,40.35333333,100.27,234.722,1.98,2092.798531,40.55873438,100.7803807,107.4368,235.186,2.8,0.470199,16177.3,0.045432132,100.0107,100.3208,95.4,11788.4,100.9073,100.7493,284500,5.5,2.7,2.11
2/20/15,2015-02,2015-02,2278,No,1,-0.001701858,0,26.9955137,40.35333333,100.27,234.722,1.98,2092.798531,40.55873438,100.7803807,107.4368,235.186,2.8,0.470199,16177.3,0.045432132,100.0107,100.3208,95.4,11788.4,100.9073,100.7493,284500,5.5,2.7,2.13
2/25/15,2015-02,2015-02,2281,No,1,-0.000567319,0,26.9955137,40.35333333,100.27,234.722,1.98,2092.798531,40.55873438,100.7803807,107.4368,235.186,2.8,0.470199,16177.3,0.045432132,100.0107,100.3208,95.4,11824.8,100.9073,100.7493,294750,5.5,2.7,1.96
2/26/15,2015-02,2015-02,2282,No,1,-0.001561047,0,26.9955137,40.35333333,100.27,234.722,1.98,2092.798531,40.55873438,100.7803807,107.4368,235.186,2.8,0.453731,16177.3,0.045432132,100.0107,100.3208,95.4,11824.8,100.9073,100.7493,294750,5.5,2.7,2.03
3/17/15,2015-03,2015-03,2295,No,1,-0.004248837,0,26.72860545,40.81,99.25,236.119,2.04,2078.208365,40.7750438,99.16498646,107.2374,235.74,2.8,0.315961,16177.3,0.045432132,99.87137,100.2362,93,11827,101.1586,100.7533,305250,5.5,2.4,2.06
3/18/15,2015-03,2015-03,2296,No,1,-0.001596885,0,26.72860545,40.81,99.25,236.119,2.04,2078.208365,40.7750438,99.16498646,107.2374,235.74,2.8,0.315961,16177.3,0.045432132,99.87137,100.2362,93,11827,101.1586,100.7533,305250,5.5,2.4,1.93
3/23/15,2015-03,2015-03,2299,No,1,0.002101533,0,26.72860545,40.81,99.25,236.119,2.04,2078.208365,40.7750438,99.16498646,107.2374,235.74,2.8,0.271605,16177.3,0.045432132,99.87137,100.2362,93,11837.4,101.1586,100.7533,300250,5.5,2.4,1.92
3/24/15,2015-03,2015-03,2300,No,1,-0.000608354,0,26.72860545,40.81,99.25,236.119,2.04,2078.208365,40.7750438,99.16498646,107.2374,235.74,2.8,0.271605,16177.3,0.045432132,99.87137,100.2362,93,11837.4,101.1586,100.7533,300250,5.5,2.4,1.88
4/2/15,2015-04,2015-04,2307,No,1,0.003339743,0,26.79137168,41.12,97.80333333,236.599,1.94,2088.819323,41.00142756,97.52131048,107.0599,235.982,2.6,0.353952,16333.6,0.045432132,99.83338,100.2264,95.9,11860.5,101.2032,100.7527,285250,5.4,2.5,1.92
4/6/15,2015-04,2015-04,2308,No,1,0.005980949,1,26.79137168,41.12,97.80333333,236.599,1.94,2088.819323,41.00142756,97.52131048,107.0599,235.982,2.6,0.353952,16333.6,0.045432132,99.83338,100.2264,95.9,11880.5,101.2032,100.7527,282500,5.4,2.5,1.92
4/13/15,2015-04,2015-04,2313,No,1,0.001465236,0,26.79137168,41.12,97.80333333,236.599,1.94,2088.819323,41.00142756,97.52131048,107.0599,235.982,2.6,0.287016,16333.6,0.045432132,99.83338,100.2264,95.9,11886.7,101.2032,100.7527,283000,5.4,2.5,1.94
4/14/15,2015-04,2015-04,2314,No,1,-0.001739743,0,26.79137168,41.12,97.80333333,236.599,1.94,2088.819323,41.00142756,97.52131048,107.0599,235.982,2.6,0.287016,16333.6,0.045432132,99.83338,100.2264,95.9,11886.7,101.2032,100.7527,283000,5.4,2.5,1.9
4/17/15,2015-04,2015-04,2317,No,1,-0.008641801,-1,26.79137168,41.12,97.80333333,236.599,1.94,2088.819323,41.00142756,97.52131048,107.0599,235.982,2.6,0.320675,16333.6,0.045432132,99.83338,100.2264,95.9,11886.7,101.2032,100.7527,283000,5.4,2.5,1.87
4/20/15,2015-04,2015-04,2318,No,1,0.007202063,1,26.79137168,41.12,97.80333333,236.599,1.94,2088.819323,41.00142756,97.52131048,107.0599,235.982,2.6,0.320675,16333.6,0.045432132,99.83338,100.2264,95.9,11887.9,101.2032,100.7527,285000,5.4,2.5,1.9
4/21/15,2015-04,2015-04,2319,No,1,-0.00148851,0,26.79137168,41.12,97.80333333,236.599,1.94,2088.819323,41.00142756,97.52131048,107.0599,235.982,2.6,0.320675,16333.6,0.045432132,99.83338,100.2264,95.9,11887.9,101.2032,100.7527,285000,5.4,2.5,1.92
4/22/15,2015-04,2015-04,2320,No,1,0.001892025,0,26.79137168,41.12,97.80333333,236.599,1.94,2088.819323,41.00142756,97.52131048,107.0599,235.982,2.6,0.320675,16333.6,0.045432132,99.83338,100.2264,95.9,11887.9,101.2032,100.7527,285000,5.4,2.5,1.99
5/5/15,2015-05,2015-05,2329,No,1,-0.002286195,0,26.80611138,41.43,96.35666667,237.805,2.2,2095.170501,41.10103216,95.59156301,106.6799,237.031,2.8,0.308362,16333.6,0.045432132,99.89032,100.2741,90.7,11895.8,101.1253,100.7121,279500,5.5,2.6,2.19
5/6/15,2015-05,2015-05,2330,No,1,-0.001114166,0,26.80611138,41.43,96.35666667,237.805,2.2,2095.170501,41.10103216,95.59156301,106.6799,237.031,2.8,0.308362,16333.6,0.045432132,99.89032,100.2741,90.7,11895.8,101.1253,100.7121,279500,5.5,2.6,2.25
5/15/15,2015-05,2015-05,2337,No,1,-0.000410009,0,26.80611138,41.43,96.35666667,237.805,2.2,2095.170501,41.10103216,95.59156301,106.6799,237.031,2.8,0.267442,16333.6,0.045432132,99.89032,100.2741,90.7,11894.7,101.1253,100.7121,271750,5.5,2.6,2.14
5/18/15,2015-05,2015-05,2338,No,1,0.000527955,0,26.80611138,41.43,96.35666667,237.805,2.2,2095.170501,41.10103216,95.59156301,106.6799,237.031,2.8,0.267442,16333.6,0.045432132,99.89032,100.2741,90.7,11918.7,101.1253,100.7121,266500,5.5,2.6,2.23
5/19/15,2015-05,2015-05,2339,No,1,0.000126816,0,26.80611138,41.43,96.35666667,237.805,2.2,2095.170501,41.10103216,95.59156301,106.6799,237.031,2.8,0.267442,16333.6,0.045432132,99.89032,100.2741,90.7,11918.7,101.1253,100.7121,266500,5.5,2.6,2.27
5/20/15,2015-05,2015-05,2340,No,1,0.000159772,0,26.80611138,41.43,96.35666667,237.805,2.2,2095.170501,41.10103216,95.59156301,106.6799,237.031,2.8,0.267442,16333.6,0.045432132,99.89032,100.2741,90.7,11918.7,101.1253,100.7121,266500,5.5,2.6,2.26
5/26/15,2015-05,2015-05,2343,No,1,-0.008050518,-1,26.80611138,41.43,96.35666667,237.805,2.2,2095.170501,41.10103216,95.59156301,106.6799,237.031,2.8,0.252119,16333.6,0.045432132,99.89032,100.2741,90.7,11952.5,101.1253,100.7121,272000,5.5,2.6,2.14
5/27/15,2015-05,2015-05,2344,No,1,0.004351331,0,26.80611138,41.43,96.35666667,237.805,2.2,2095.170501,41.10103216,95.59156301,106.6799,237.031,2.8,0.252119,16333.6,0.045432132,99.89032,100.2741,90.7,11952.5,101.1253,100.7121,272000,5.5,2.6,2.14
5/28/15,2015-05,2015-05,2345,No,1,-0.003157006,0,26.80611138,41.43,96.35666667,237.805,2.2,2095.170501,41.10103216,95.59156301,106.6799,237.031,2.8,0.270019,16333.6,0.045432132,99.89032,100.2741,90.7,11952.5,101.1253,100.7121,272000,5.5,2.6,2.13
5/29/15,2015-05,2015-05,2346,No,1,-0.006309315,-1,26.80611138,41.43,96.35666667,237.805,2.2,2095.170501,41.10103216,95.59156301,106.6799,237.031,2.8,0.270019,16333.6,0.045432132,99.89032,100.2741,90.7,11952.5,101.1253,100.7121,272000,5.5,2.6,2.12
6/1/15,2015-06,2015-06,2347,No,1,-0.001607621,0,26.49589529,41.74,94.91,238.638,2.36,2075.351261,41.26402813,93.82771705,106.6628,237.786,2.7,0.270019,16333.6,0.045432132,99.88216,100.2955,96.1,11949.5,101.013,100.7563,275000,5.5,2.6,2.19
6/2/15,2015-06,2015-06,2348,No,1,-2.83888E-05,0,26.49589529,41.74,94.91,238.638,2.36,2075.351261,41.26402813,93.82771705,106.6628,237.786,2.7,0.270019,16333.6,0.045432132,99.88216,100.2955,96.1,11949.5,101.013,100.7563,275000,5.3,2.6,2.27
6/11/15,2015-06,2015-06,2355,No,1,0.001804168,0,26.49589529,41.74,94.91,238.638,2.36,2075.351261,41.26402813,93.82771705,106.6628,237.786,2.7,0.200375,16333.6,0.045432132,99.88216,100.2955,96.1,11932.6,101.013,100.7563,278750,5.3,2.6,2.39
6/12/15,2015-06,2015-06,2356,No,1,-0.006799719,-1,26.49589529,41.74,94.91,238.638,2.36,2075.351261,41.26402813,93.82771705,106.6628,237.786,2.7,0.200375,16333.6,0.045432132,99.88216,100.2955,96.1,11932.6,101.013,100.7563,278750,5.3,2.6,2.39
7/22/15,2015-07,2015-07,2383,No,1,-0.002143301,0,26.38113634,41.99666667,93.49333333,238.654,2.32,2070.121192,41.5149845,92.42100843,107.4746,238.099,2.8,0.308108,16414,0.045432132,99.75471,100.2483,93.1,12027.4,100.89,100.9741,278500,5.3,2.8,2.33
7/23/15,2015-07,2015-07,2384,No,1,0.000283842,0,26.38113634,41.99666667,93.49333333,238.654,2.32,2070.121192,41.5149845,92.42100843,107.4746,238.099,2.8,0.3254,16414,0.045432132,99.75471,100.2483,93.1,12027.4,100.89,100.9741,278500,5.3,2.8,2.28
8/3/15,2015-08,2015-08,2391,No,1,-0.002143032,0,25.69365842,42.25333333,92.07666667,238.316,2.17,2019.333577,41.82794725,91.14968341,107.573,237.931,2.8,0.211055,16414,0.045432132,99.56771,100.1402,91.9,12041.6,100.8279,101.2942,268000,5.3,2.7,2.16
8/4/15,2015-08,2015-08,2392,No,1,0.000529188,0,25.69365842,42.25333333,92.07666667,238.316,2.17,2019.333577,41.82794725,91.14968341,107.573,237.931,2.8,0.211055,16414,0.045432132,99.56771,100.1402,91.9,12041.6,100.8279,101.2942,268000,5.1,2.7,2.23
8/21/15,2015-08,2015-08,2405,No,1,-0.013298374,-1,25.69365842,42.25333333,92.07666667,238.316,2.17,2019.333577,41.82794725,91.14968341,107.573,237.931,2.8,0.268199,16414,0.045432132,99.56771,100.1402,91.9,12100.3,100.8279,101.2942,271500,5.1,2.7,2.05
8/24/15,2015-08,2015-08,2406,No,1,-0.020924623,-2,25.69365842,42.25333333,92.07666667,238.316,2.17,2019.333577,41.82794725,91.14968341,107.573,237.931,2.8,0.268199,16414,0.045432132,99.56771,100.1402,91.9,12122.3,100.8279,101.2942,272250,5.1,2.7,2.01
11/12/15,2015-11,2015-11,2463,No,1,-0.005240598,-1,26.25299296,43.09666667,90.66,237.336,2.26,2068.178061,42.8389521,89.88721156,106.408,238.111,2.7,0.342723,16442.3,0.045432132,99.04567,99.7938,91.3,12237.6,100.9191,102.7849,267750,5,2.4,2.32
11/13/15,2015-11,2015-11,2464,No,1,-0.006475475,-1,26.25299296,43.09666667,90.66,237.336,2.26,2068.178061,42.8389521,89.88721156,106.408,238.111,2.7,0.342723,16442.3,0.045432132,99.04567,99.7938,91.3,12237.6,100.9191,102.7849,267750,5,2.4,2.28
11/24/15,2015-11,2015-11,2471,No,1,-0.006702067,-1,26.25299296,43.09666667,90.66,237.336,2.26,2068.178061,42.8389521,89.88721156,106.408,238.111,2.7,0.307692,16442.3,0.045432132,99.04567,99.7938,91.3,12271.1,100.9191,102.7849,271000,5,2.4,2.24
11/25/15,2015-11,2015-11,2472,No,1,0.001421505,0,26.25299296,43.09666667,90.66,237.336,2.26,2068.178061,42.8389521,89.88721156,106.408,238.111,2.7,0.307692,16442.3,0.045432132,99.04567,99.7938,91.3,12271.1,100.9191,102.7849,271000,5,2.4,2.23
12/30/15,2015-12,2015-12,2495,No,1,-0.002840213,0,26.01609229,43.39,90.66,236.525,2.24,2048.797708,43.27841785,89.88721156,106.0222,237.847,2.6,0.263804,16442.3,0.045432132,98.95684,99.67918,92.6,12322.5,100.9701,103.315,277000,5,2.3,2.31
12/31/15,2015-12,2015-12,2496,No,1,-0.005901265,-1,26.01609229,43.39,90.66,236.525,2.24,2048.797708,43.27841785,89.88721156,106.0222,237.847,2.6,0.250729,16442.3,0.045432132,98.95684,99.67918,92.6,12322.5,100.9701,103.315,277000,5,2.3,2.27