Date,Bullish,Neutral,Bearish,Total,Bullish 8-Week Mov Avg,Bull-Bear Spread,Bullish Average,Bullish Average + St. Dev,Bullish Average - St. Dev,S&P 500 Weekly High,S&P 500 Weekly Low,S&P 500 Weekly Close
2016-02-04,0.275472,0.377358,0.34717,1.0,0.2427675,-0.071698,0.38631234879,0.48942054286,0.283204154721,1947.2,1872.23,1912.53
2016-01-28,0.297535,0.302817,0.399648,1.0,0.243965625,-0.102113,0.38631234879,0.48942054286,0.283204154721,1916.99,1812.29,1882.95
2016-01-21,0.21521,0.297735,0.487055,1.0,0.243640125,-0.271845,0.38631234879,0.48942054286,0.283204154721,1950.33,1812.29,1859.33
2016-01-14,0.178988,0.365759,0.455253,1.0,0.257189,-0.276265,0.38631234879,0.48942054286,0.283204154721,2021.94,1886.41,1890.28
2016-01-07,0.221739,0.395652,0.382609,1.0,0.273277,-0.16087,0.38631234879,0.48942054286,0.283204154721,2081.56,1979.05,1990.26
2015-12-31,0.250729,0.51312,0.236152,1.000001,0.2884,0.014577,0.38631234879,0.48942054286,0.283204154721,2081.56,2005.93,2063.36
2015-12-24,0.263804,0.421268,0.314928,1.0,0.305808875,-0.051124,0.38631234879,0.48942054286,0.283204154721,2076.72,1993.26,2064.29
2015-12-17,0.238663,0.367542,0.393795,1.0,0.323323625,-0.155132,0.38631234879,0.48942054286,0.283204154721,2080.33,1993.26,2073.07
2015-12-10,0.285057,0.416092,0.298851,1.0,0.33694775,-0.013794,0.38631234879,0.48942054286,0.283204154721,2104.27,2036.53,2047.62
2015-12-03,0.294931,0.493088,0.211982,1.000001,0.343917625,0.082949,0.38631234879,0.48942054286,0.283204154721,2104.27,2070.29,2079.51
2015-11-26,0.323601,0.416058,0.260341,1.0,0.353956,0.06326,0.38631234879,0.48942054286,0.283204154721,2097.06,2051.99,2090.11
2015-11-19,0.307692,0.386813,0.305495,1.0,0.34863825,0.002197,0.38631234879,0.48942054286,0.283204154721,2086.94,2019.39,2083.58
2015-11-12,0.342723,0.42723,0.230047,1.0,0.350326625,0.112676,0.38631234879,0.48942054286,0.283204154721,2116.48,2068.24,2075.0
2015-11-05,0.39,0.424,0.186,1.0,0.349066875,0.204,0.38631234879,0.48942054286,0.283204154721,2116.48,2058.84,2102.31
2015-10-29,0.403922,0.390196,0.205882,1.0,0.34362925,0.19804,0.38631234879,0.48942054286,0.283204154721,2090.35,2017.22,2090.35
2015-10-22,0.347656,0.412109,0.240234,0.999999,0.333619375,0.107422,0.38631234879,0.48942054286,0.283204154721,2039.12,1990.73,2018.94
2015-10-15,0.340816,0.387755,0.271429,1.0,0.330787375,0.069387,0.38631234879,0.48942054286,0.283204154721,2022.34,1971.99,1994.24
2015-10-08,0.375238,0.342857,0.281905,1.0,0.32171025,0.093333,0.38631234879,0.48942054286,0.283204154721,1999.31,1871.91,1995.83
2015-10-01,0.281059,0.319756,0.399185,1.0,0.312870375,-0.118126,0.38631234879,0.48942054286,0.283204154721,1979.64,1871.91,1884.09
2015-09-24,0.321199,0.391863,0.286938,1.0,0.308136375,0.034261,0.38631234879,0.48942054286,0.283204154721,2020.86,1939.19,1966.97
2015-09-17,0.332645,0.376033,0.291322,1.0,0.294368375,0.041323,0.38631234879,0.48942054286,0.283204154721,1997.26,1927.3,1995.31
2015-09-10,0.346499,0.303411,0.35009,1.0,0.29346275,-0.003591,0.38631234879,0.48942054286,0.283204154721,1988.63,1903.07,1942.04
2015-09-03,0.323843,0.359431,0.316726,1.0,0.288663875,0.007117,0.38631234879,0.48942054286,0.283204154721,1993.48,1867.08,1948.86
2015-08-27,0.325,0.292308,0.382692,1.0,0.28306725,-0.057692,0.38631234879,0.48942054286,0.283204154721,2103.47,1867.01,1940.51
2015-08-20,0.268199,0.398467,0.333333,0.999999,0.270707375,-0.065134,0.38631234879,0.48942054286,0.283204154721,2103.47,2052.09,2079.61
2015-08-13,0.304519,0.333988,0.361493,1.0,0.281627,-0.056974,0.38631234879,0.48942054286,0.283204154721,2112.66,2052.09,2086.05
2015-08-06,0.243187,0.440252,0.316562,1.000001,0.2753225,-0.073375,0.38631234879,0.48942054286,0.283204154721,2114.24,2063.52,2099.84
2015-07-30,0.211055,0.38191,0.407035,1.0,0.269971,-0.19598,0.38631234879,0.48942054286,0.283204154721,2132.82,2063.52,2108.57
2015-07-23,0.3254,0.4187,0.256,1.0001,0.277764,0.0694,0.38631234879,0.48942054286,0.283204154721,2132.82,2102.49,2114.15
2015-07-16,0.308108,0.459459,0.232432,0.999999,0.270841375,0.075676,0.38631234879,0.48942054286,0.283204154721,2114.14,2044.02,2107.4
2015-07-09,0.27907,0.429175,0.291755,1.0,0.26384275,-0.012685,0.38631234879,0.48942054286,0.283204154721,2098.63,2044.02,2046.68
2015-07-02,0.226121,0.423002,0.350877,1.0,0.26238925,-0.124756,0.38631234879,0.48942054286,0.283204154721,2128.03,2056.32,2077.42
2015-06-25,0.355556,0.427778,0.216667,1.000001,0.2679445,0.138889,0.38631234879,0.48942054286,0.283204154721,2129.87,2082.1,2108.58
2015-06-18,0.254083,0.402904,0.343013,1.0,0.26204525,-0.08893,0.38631234879,0.48942054286,0.283204154721,2115.02,2072.14,2100.44
2015-06-11,0.200375,0.473783,0.325843,1.000001,0.269622375,-0.125468,0.38631234879,0.48942054286,0.283204154721,2121.92,2072.14,2105.2
2015-06-04,0.273399,0.480296,0.246305,1.0,0.284659875,0.027094,0.38631234879,0.48942054286,0.283204154721,2126.22,2099.14,2114.07
2015-05-28,0.270019,0.478585,0.251397,1.000001,0.286362,0.018622,0.38631234879,0.48942054286,0.283204154721,2134.72,2099.18,2123.48
2015-05-21,0.252119,0.497881,0.25,1.0,0.296853625,0.002119,0.38631234879,0.48942054286,0.283204154721,2134.72,2085.57,2125.85
2015-05-14,0.267442,0.468992,0.263566,1.0,0.313376,0.003876,0.38631234879,0.48942054286,0.283204154721,2117.69,2067.93,2098.48
2015-05-07,0.270563,0.461039,0.268398,1.0,0.313896375,0.002165,0.38631234879,0.48942054286,0.283204154721,2120.95,2067.93,2080.15
2015-04-30,0.308362,0.472125,0.219512,0.999999,0.319571125,0.08885,0.38631234879,0.48942054286,0.283204154721,2125.92,2091.05,2106.85
2015-04-23,0.3147,0.453416,0.231884,1.0,0.330779125,0.082816,0.38631234879,0.48942054286,0.283204154721,2111.91,2072.37,2107.96
2015-04-16,0.320675,0.451477,0.227848,1.0,0.348158,0.092827,0.38631234879,0.48942054286,0.283204154721,2111.91,2073.3,2106.63
2015-04-09,0.287016,0.471526,0.241458,1.0,0.3668485,0.045558,0.38631234879,0.48942054286,0.283204154721,2089.81,2048.38,2081.9
2015-04-02,0.353952,0.32646,0.319588,1.0,0.3809715,0.034364,0.38631234879,0.48942054286,0.283204154721,2107.63,2045.5,2059.69
2015-03-26,0.384298,0.371901,0.243802,1.000001,0.381096125,0.140496,0.38631234879,0.48942054286,0.283204154721,2114.86,2061.05,2061.05
2015-03-19,0.271605,0.41358,0.314815,1.0,0.388273625,-0.04321,0.38631234879,0.48942054286,0.283204154721,2106.85,2039.69,2099.5
2015-03-12,0.315961,0.429967,0.254072,1.0,0.400751625,0.061889,0.38631234879,0.48942054286,0.283204154721,2115.76,2039.69,2040.24
2015-03-05,0.398026,0.368421,0.233553,1.0,0.418888875,0.164473,0.38631234879,0.48942054286,0.283204154721,2119.59,2087.62,2098.53
2015-02-26,0.453731,0.343284,0.202985,1.0,0.420394625,0.250746,0.38631234879,0.48942054286,0.283204154721,2119.59,2085.44,2113.86
2015-02-19,0.470199,0.350993,0.178808,1.0,0.428350125,0.291391,0.38631234879,0.48942054286,0.283204154721,2101.3,2041.88,2099.68
2015-02-12,0.4,0.396721,0.203279,1.0,0.4332545,0.196721,0.38631234879,0.48942054286,0.283204154721,2073.48,2022.71,2068.53
2015-02-05,0.354949,0.320819,0.324232,1.0,0.4316735,0.030717,0.38631234879,0.48942054286,0.283204154721,2057.62,1980.9,2050.03
2015-01-29,0.441718,0.334356,0.223926,1.0,0.443576375,0.217792,0.38631234879,0.48942054286,0.283204154721,2064.62,2001.49,2002.16
2015-01-22,0.371429,0.320635,0.307937,1.000001,0.441708875,0.063492,0.38631234879,0.48942054286,0.283204154721,2056.93,1988.12,2032.12
2015-01-15,0.461059,0.323988,0.214953,1.0,0.46046175,0.246106,0.38631234879,0.48942054286,0.283204154721,2064.43,1988.44,2011.27
2015-01-08,0.410072,0.31295,0.276978,1.0,0.464226375,0.133094,0.38631234879,0.48942054286,0.283204154721,2093.55,1992.44,2025.9
2015-01-01,0.517375,0.289575,0.19305,1.0,0.485381125,0.324325,0.38631234879,0.48942054286,0.283204154721,2093.55,2017.34,2020.58
2014-12-25,0.509434,0.301887,0.188679,1.0,0.4865695,0.320755,0.38631234879,0.48942054286,0.283204154721,2093.55,2018.98,2090.57
2014-12-18,0.387352,0.343874,0.268775,1.000001,0.484604125,0.118577,0.38631234879,0.48942054286,0.283204154721,2060.6,2002.33,2012.89
2014-12-11,0.450172,0.32646,0.223368,1.0,0.4982945,0.226804,0.38631234879,0.48942054286,0.283204154721,2079.47,2024.26,2026.14
2014-12-04,0.426778,0.313808,0.259414,1.0,0.49535175,0.167364,0.38631234879,0.48942054286,0.283204154721,2076.28,2049.57,2074.33
2014-11-27,0.521452,0.270627,0.207921,1.0,0.491851125,0.313531,0.38631234879,0.48942054286,0.283204154721,2075.76,2040.37,2067.56
2014-11-20,0.491176,0.270588,0.238235,0.999999,0.4709405,0.252941,0.38631234879,0.48942054286,0.283204154721,2056.08,2030.44,2048.72
2014-11-13,0.57931,0.227586,0.193103,0.999999,0.461839375,0.386207,0.38631234879,0.48942054286,0.283204154721,2041.28,2001.01,2038.25
2014-11-06,0.526882,0.322581,0.150538,1.000001,0.442220625,0.376344,0.38631234879,0.48942054286,0.283204154721,2024.46,1964.14,2023.57
2014-10-30,0.493711,0.295597,0.210692,1.0,0.426841125,0.283019,0.38631234879,0.48942054286,0.283204154721,1991.4,1909.38,1982.3
2014-10-23,0.496875,0.278125,0.225,1.0,0.4209705,0.271875,0.38631234879,0.48942054286,0.283204154721,1949.31,1820.66,1927.11
2014-10-16,0.42663,0.236413,0.336957,1.0,0.423765,0.089673,0.38631234879,0.48942054286,0.283204154721,1970.36,1820.66,1862.49
2014-10-09,0.398773,0.291411,0.309816,1.0,0.428071,0.088957,0.38631234879,0.48942054286,0.283204154721,1985.17,1925.25,1968.89
2014-10-02,0.354167,0.336806,0.309028,1.000001,0.42798925,0.045139,0.38631234879,0.48942054286,0.283204154721,1999.79,1941.72,1946.16
2014-09-25,0.418367,0.29932,0.282313,1.0,0.422327,0.136054,0.38631234879,0.48942054286,0.283204154721,2019.26,1978.63,1998.3
2014-09-18,0.42236,0.347826,0.229814,1.0,0.408934125,0.192546,0.38631234879,0.48942054286,0.283204154721,2010.74,1978.48,2001.57
2014-09-11,0.403846,0.330128,0.266026,1.0,0.393176125,0.13782,0.38631234879,0.48942054286,0.283204154721,2011.17,1982.99,1995.69
2014-09-04,0.446746,0.313609,0.239645,1.0,0.3831485,0.207101,0.38631234879,0.48942054286,0.283204154721,2009.28,1990.52,2000.72
2014-08-28,0.519231,0.288462,0.192308,1.000001,0.37435575,0.326923,0.38631234879,0.48942054286,0.283204154721,2005.04,1972.73,2000.12
2014-08-21,0.461078,0.302395,0.236527,1.0,0.35758625,0.224551,0.38631234879,0.48942054286,0.283204154721,1988.57,1928.29,1986.51
2014-08-14,0.398119,0.332288,0.269592,0.999999,0.3464775,0.128527,0.38631234879,0.48942054286,0.283204154721,1936.34,1904.78,1946.72
2014-08-07,0.308869,0.308869,0.382263,1.000001,0.340680625,-0.073394,0.38631234879,0.48942054286,0.283204154721,1984.85,1911.45,1920.24
2014-07-31,0.311224,0.377551,0.311224,0.999999,0.357931375,0.0,0.38631234879,0.48942054286,0.283204154721,1991.39,1962.42,1970.07
2014-07-24,0.296296,0.404321,0.299383,1.0,0.368411125,-0.003087,0.38631234879,0.48942054286,0.283204154721,1989.23,1955.59,1987.01
2014-07-17,0.323625,0.391586,0.28479,1.000001,0.37695425,0.038835,0.38631234879,0.48942054286,0.283204154721,1983.94,1952.86,1981.57
2014-07-10,0.376404,0.337079,0.286517,1.0,0.374544625,0.089887,0.38631234879,0.48942054286,0.283204154721,1985.59,1958.22,1972.83
2014-07-03,0.385075,0.391045,0.223881,1.000001,0.368895375,0.161194,0.38631234879,0.48942054286,0.283204154721,1978.58,1944.69,1974.62
2014-06-26,0.372208,0.416873,0.210918,0.999999,0.356190875,0.16129,0.38631234879,0.48942054286,0.283204154721,1968.17,1933.55,1959.53
2014-06-19,0.351744,0.406977,0.241279,1.0,0.34688175,0.110465,0.38631234879,0.48942054286,0.283204154721,1957.74,1925.78,1956.98
2014-06-12,0.446875,0.340625,0.2125,1.0,0.346042375,0.234375,0.38631234879,0.48942054286,0.283204154721,1955.55,1918.6,1943.89
2014-06-05,0.395062,0.382716,0.222222,1.0,0.324204375,0.17284,0.38631234879,0.48942054286,0.283204154721,1928.63,1902.01,1927.88
2014-05-29,0.364641,0.403315,0.232044,1.0,0.310417625,0.132597,0.38631234879,0.48942054286,0.283204154721,1914.46,1868.14,1909.78
2014-05-22,0.304348,0.431677,0.263975,1.0,0.309033875,0.040373,0.38631234879,0.48942054286,0.283204154721,1902.17,1862.36,1888.03
2014-05-15,0.33121,0.442675,0.226115,1.0,0.30994225,0.105095,0.38631234879,0.48942054286,0.283204154721,1902.17,1859.79,1888.53
2014-05-08,0.283439,0.429936,0.286624,0.999999,0.314518,-0.003185,0.38631234879,0.48942054286,0.283204154721,1891.33,1859.79,1878.21
2014-05-01,0.297735,0.407767,0.294498,1.0,0.330764125,0.003237,0.38631234879,0.48942054286,0.283204154721,1885.2,1850.61,1883.95
2014-04-24,0.345029,0.394737,0.260234,1.0,0.344184625,0.084795,0.38631234879,0.48942054286,0.283204154721,1884.89,1815.8,1875.39
2014-04-17,0.272171,0.385321,0.342508,1.0,0.350669375,-0.070337,0.38631234879,0.48942054286,0.283204154721,1872.53,1814.36,1862.31
2014-04-10,0.284768,0.374172,0.34106,1.0,0.369398,-0.056292,0.38631234879,0.48942054286,0.283204154721,1897.28,1837.49,1872.18
2014-04-03,0.353571,0.378571,0.267857,0.999999,0.38398675,0.085714,0.38631234879,0.48942054286,0.283204154721,1893.17,1842.11,1890.9
2014-03-27,0.311615,0.402266,0.286119,1.0,0.374660375,0.025496,0.38631234879,0.48942054286,0.283204154721,1883.97,1849.69,1852.56
2014-03-20,0.367816,0.37069,0.261494,1.0,0.375938375,0.106322,0.38631234879,0.48942054286,0.283204154721,1882.35,1839.57,1860.77
2014-03-13,0.413408,0.318436,0.268156,1.0,0.3776115,0.145252,0.38631234879,0.48942054286,0.283204154721,1883.57,1849.23,1868.2
2014-03-06,0.405099,0.328612,0.266289,1.0,0.3746755,0.13881,0.38631234879,0.48942054286,0.283204154721,1876.53,1834.44,1873.81
2014-02-27,0.396907,0.391753,0.21134,1.0,0.378559375,0.185567,0.38631234879,0.48942054286,0.283204154721,1858.71,1824.58,1845.16
2014-02-20,0.422,0.35,0.228,1.0,0.38280775,0.194,0.38631234879,0.48942054286,0.283204154721,1847.5,1826.99,1828.75
2014-02-13,0.401478,0.325123,0.273399,1.0,0.398878,0.128079,0.38631234879,0.48942054286,0.283204154721,1826.55,1737.92,1819.26
2014-02-06,0.27896,0.356974,0.364066,1.0,0.40801525,-0.085106,0.38631234879,0.48942054286,0.283204154721,1798.77,1737.92,1751.64
2014-01-30,0.321839,0.350575,0.327586,1.0,0.424726625,-0.005747,0.38631234879,0.48942054286,0.283204154721,1850.84,1815.52,1844.86
2014-01-23,0.381201,0.381201,0.237598,1.0,0.437798625,0.143603,0.38631234879,0.48942054286,0.283204154721,1850.84,1815.52,1844.86
2014-01-16,0.38992,0.395225,0.214854,0.999999,0.4492755,0.175066,0.38631234879,0.48942054286,0.283204154721,1850.84,1815.52,1848.38
2014-01-09,0.43617,0.31383,0.25,1.0,0.443526875,0.18617,0.38631234879,0.48942054286,0.283204154721,1849.44,1823.73,1837.49
2014-01-02,0.430894,0.276423,0.292683,1.0,0.4380025,0.138211,0.38631234879,0.48942054286,0.283204154721,1849.44,1810.25,1848.36
2013-12-26,0.550562,0.264045,0.185393,1.0,0.440994375,0.365169,0.38631234879,0.48942054286,0.283204154721,1833.32,1767.99,1833.32
2013-12-19,0.474576,0.274576,0.250847,0.999999,0.428382125,0.223729,0.38631234879,0.48942054286,0.283204154721,1811.08,1767.99,1810.65
2013-12-12,0.412651,0.337349,0.25,1.0,0.43056175,0.162651,0.38631234879,0.48942054286,0.283204154721,1811.52,1779.09,1782.22
2013-12-05,0.426415,0.298113,0.275472,1.0,0.43682825,0.150943,0.38631234879,0.48942054286,0.283204154721,1813.55,1779.09,1792.81
2013-11-28,0.473016,0.244444,0.28254,1.0,0.435186875,0.190476,0.38631234879,0.48942054286,0.283204154721,1808.42,1777.23,1807.23
2013-11-21,0.343931,0.361272,0.294798,1.000001,0.423357125,0.049133,0.38631234879,0.48942054286,0.283204154721,1802.33,1760.64,1781.37
2013-11-14,0.391975,0.333333,0.274691,0.999999,0.42543375,0.117284,0.38631234879,0.48942054286,0.283204154721,1782.0,1746.2,1782.0
2013-11-07,0.454829,0.327103,0.218069,1.000001,0.432827875,0.23676,0.38631234879,0.48942054286,0.283204154721,1775.22,1752.7,1770.49
2013-10-31,0.449664,0.33557,0.214765,0.999999,0.432868,0.234899,0.38631234879,0.48942054286,0.283204154721,1775.22,1740.5,1763.31
2013-10-24,0.492013,0.332268,0.175719,1.0,0.4210725,0.316294,0.38631234879,0.48942054286,0.283204154721,1759.33,1695.93,1746.38
2013-10-17,0.462783,0.288026,0.249191,1.0,0.401496375,0.213592,0.38631234879,0.48942054286,0.283204154721,1721.76,1646.47,1721.54
2013-10-10,0.413284,0.250923,0.335793,1.0,0.379845375,0.077491,0.38631234879,0.48942054286,0.283204154721,1696.55,1646.47,1656.4
2013-10-03,0.378378,0.320946,0.300676,1.0,0.371318625,0.077702,0.38631234879,0.48942054286,0.283204154721,1725.23,1674.99,1693.87
2013-09-26,0.360544,0.333333,0.306122,0.999999,0.373394375,0.054422,0.38631234879,0.48942054286,0.283204154721,1729.86,1691.7,1692.77
2013-09-19,0.451128,0.25188,0.296992,1.0,0.372846875,0.154136,0.38631234879,0.48942054286,0.283204154721,1729.44,1674.32,1725.52
2013-09-12,0.45515,0.299003,0.245847,1.0,0.372853125,0.209303,0.38631234879,0.48942054286,0.283204154721,1689.13,1633.41,1689.13
2013-09-05,0.3553,0.3322,0.3125,1.0,0.375628375,0.0428,0.38631234879,0.48942054286,0.283204154721,1655.72,1628.05,1653.08
2013-08-29,0.335404,0.357143,0.307453,1.0,0.392386125,0.027951,0.38631234879,0.48942054286,0.283204154721,1669.51,1627.47,1634.96
2013-08-22,0.289575,0.281853,0.428571,0.999999,0.40295175,-0.138996,0.38631234879,0.48942054286,0.283204154721,1696.81,1639.43,1642.8
2013-08-15,0.34507,0.373239,0.28169,0.999999,0.404598875,0.06338,0.38631234879,0.48942054286,0.283204154721,1705.79,1682.62,1685.39
2013-08-08,0.394984,0.338558,0.266458,1.0,0.408281625,0.128526,0.38631234879,0.48942054286,0.283204154721,1709.67,1682.42,1690.91
2013-08-01,0.356164,0.393836,0.25,1.0,0.400124875,0.106164,0.38631234879,0.48942054286,0.283204154721,1698.78,1676.03,1685.73
2013-07-25,0.451178,0.323232,0.225589,0.999999,0.3924465,0.225589,0.38631234879,0.48942054286,0.283204154721,1698.78,1671.84,1685.94
2013-07-18,0.477352,0.310105,0.212544,1.000001,0.38100975,0.264808,0.38631234879,0.48942054286,0.283204154721,1684.75,1642.89,1680.91
2013-07-11,0.489362,0.32766,0.182979,1.000001,0.3825565,0.306383,0.38631234879,0.48942054286,0.283204154721,1657.92,1604.57,1652.62
2013-07-04,0.419929,0.341637,0.238434,1.0,0.3694935,0.181495,0.38631234879,0.48942054286,0.283204154721,1632.07,1592.27,1631.89
2013-06-27,0.302752,0.345566,0.351682,1.0,0.367995125,-0.04893,0.38631234879,0.48942054286,0.283204154721,1654.19,1560.33,1603.26
2013-06-20,0.374532,0.325843,0.299625,1.0,0.3688835,0.074907,0.38631234879,0.48942054286,0.283204154721,1654.19,1608.07,1628.93
2013-06-13,0.32973,0.324324,0.345946,1.0,0.357428875,-0.016216,0.38631234879,0.48942054286,0.283204154721,1648.69,1598.23,1612.52
2013-06-06,0.294737,0.315789,0.389474,1.0,0.34977425,-0.094737,0.38631234879,0.48942054286,0.283204154721,1674.21,1607.09,1608.9
2013-05-30,0.359684,0.343874,0.296443,1.000001,0.33707,0.063241,0.38631234879,0.48942054286,0.283204154721,1663.52,1636.42,1648.36
2013-05-23,0.489726,0.294521,0.215753,1.0,0.33647575,0.273973,0.38631234879,0.48942054286,0.283204154721,1687.18,1633.75,1655.35
2013-05-16,0.384858,0.321767,0.293375,1.0,0.32325425,0.091483,0.38631234879,0.48942054286,0.283204154721,1661.49,1616.64,1658.78
2013-05-09,0.407942,0.31769,0.274368,1.0,0.323826875,0.133574,0.38631234879,0.48942054286,0.283204154721,1632.78,1581.28,1632.69
2013-05-02,0.309859,0.330986,0.359155,1.0,0.329609125,-0.049296,0.38631234879,0.48942054286,0.283204154721,1597.57,1562.5,1582.7
2013-04-25,0.282895,0.328947,0.388158,1.0,0.329696625,-0.105263,0.38631234879,0.48942054286,0.283204154721,1583.0,1536.03,1578.79
2013-04-18,0.268493,0.249315,0.482192,1.0,0.32982375,-0.213699,0.38631234879,0.48942054286,0.283204154721,1597.35,1543.69,1552.01
2013-04-11,0.193103,0.262069,0.544828,1.0,0.34849425,-0.351725,0.38631234879,0.48942054286,0.283204154721,1589.07,1539.5,1587.73
2013-04-04,0.35493,0.36338,0.28169,1.0,0.37717325,0.07324,0.38631234879,0.48942054286,0.283204154721,1573.66,1546.22,1553.69
2013-03-28,0.383954,0.329513,0.286533,1.0,0.386266125,0.097421,0.38631234879,0.48942054286,0.283204154721,1564.91,1538.57,1562.85
2013-03-21,0.389439,0.277228,0.333333,1.0,0.39832775,0.056106,0.38631234879,0.48942054286,0.283204154721,1563.62,1538.57,1558.71
2013-03-14,0.4542,0.2255,0.3203,1.0,0.415071875,0.1339,0.38631234879,0.48942054286,0.283204154721,1556.77,1541.46,1554.52
2013-03-07,0.310559,0.304348,0.385093,1.0,0.4132265,-0.074534,0.38631234879,0.48942054286,0.283204154721,1545.25,1485.01,1541.46
2013-02-28,0.283912,0.350158,0.365931,1.000001,0.43246875,-0.082019,0.38631234879,0.48942054286,0.283204154721,1530.94,1485.01,1515.99
2013-02-21,0.417857,0.257143,0.325,1.0,0.445366875,0.092857,0.38631234879,0.48942054286,0.283204154721,1530.94,1511.41,1511.95
2013-02-14,0.422535,0.290141,0.287324,1.0,0.4486385,0.135211,0.38631234879,0.48942054286,0.283204154721,1524.69,1495.71,1520.33
2013-02-07,0.427673,0.27673,0.295597,1.0,0.453821625,0.132076,0.38631234879,0.48942054286,0.283204154721,1514.96,1495.02,1512.12
2013-01-31,0.480447,0.276536,0.243017,1.0,0.454403875,0.23743,0.38631234879,0.48942054286,0.283204154721,1509.94,1481.16,1501.96
2013-01-24,0.523392,0.233918,0.24269,1.0,0.44712575,0.280702,0.38631234879,0.48942054286,0.283204154721,1496.13,1463.76,1494.81
2013-01-17,0.439437,0.287324,0.273239,1.0,0.43286,0.166198,0.38631234879,0.48942054286,0.283204154721,1473.96,1451.64,1472.63
2013-01-10,0.464497,0.266272,0.269231,1.0,0.422699875,0.195266,0.38631234879,0.48942054286,0.283204154721,1467.94,1398.11,1461.02
2013-01-03,0.387097,0.250896,0.362007,1.0,0.400667125,0.02509,0.38631234879,0.48942054286,0.283204154721,1462.43,1398.11,1462.42
2012-12-27,0.44403,0.253731,0.302239,1.0,0.400402125,0.141791,0.38631234879,0.48942054286,0.283204154721,1443.7,1416.43,1419.83
2012-12-20,0.464,0.288,0.248,1.0,0.3895705,0.216,0.38631234879,0.48942054286,0.283204154721,1448.0,1411.88,1435.81
2012-12-13,0.432331,0.266917,0.300752,1.0,0.368127125,0.131579,0.38631234879,0.48942054286,0.283204154721,1438.59,1398.23,1428.48
2012-12-06,0.422222,0.231746,0.346032,1.0,0.34991125,0.07619,0.38631234879,0.48942054286,0.283204154721,1416.34,1385.43,1409.28
2012-11-28,0.409266,0.247104,0.343629,0.999999,0.335352875,0.065637,0.38631234879,0.48942054286,0.283204154721,1409.15,1359.88,1409.93
2012-11-22,0.358156,0.234043,0.407801,1.0,0.326520625,-0.049645,0.38631234879,0.48942054286,0.283204154721,1391.25,1343.35,1391.03
2012-11-15,0.288235,0.223529,0.488235,0.999999,0.3268775,-0.2,0.38631234879,0.48942054286,0.283204154721,1433.38,1352.5,1355.49
2012-11-08,0.384977,0.215962,0.399061,1.0,0.337723125,-0.014084,0.38631234879,0.48942054286,0.283204154721,1433.38,1388.14,1394.53
2012-11-01,0.357377,0.232787,0.409836,1.0,0.335173875,-0.052459,0.38631234879,0.48942054286,0.283204154721,1457.34,1403.28,1412.16
2012-10-25,0.292453,0.27673,0.430818,1.000001,0.331824125,-0.138365,0.38631234879,0.48942054286,0.283204154721,1464.02,1407.1,1408.75
2012-10-18,0.286604,0.267913,0.445483,1.0,0.33867025,-0.158879,0.38631234879,0.48942054286,0.283204154721,1462.2,1425.53,1460.91
2012-10-11,0.305755,0.305755,0.388489,0.999999,0.35529225,-0.082734,0.38631234879,0.48942054286,0.283204154721,1470.96,1430.64,1432.56
2012-10-04,0.338608,0.329114,0.332278,1.0,0.3631255,0.00633,0.38631234879,0.48942054286,0.283204154721,1463.24,1430.53,1450.99
2012-09-27,0.361011,0.274368,0.364621,1.0,0.36638775,-0.00361,0.38631234879,0.48942054286,0.283204154721,1467.07,1430.53,1433.32
2012-09-20,0.375,0.287162,0.337838,1.0,0.359321125,0.037162,0.38631234879,0.48942054286,0.283204154721,1474.51,1429.13,1461.05
2012-09-13,0.364583,0.305556,0.329861,1.0,0.347589875,0.034722,0.38631234879,0.48942054286,0.283204154721,1439.15,1396.56,1436.56
2012-09-06,0.330579,0.338843,0.330579,1.000001,0.3297545,0.0,0.38631234879,0.48942054286,0.283204154721,1416.17,1396.56,1403.44
2012-08-30,0.347222,0.326389,0.326389,1.0,0.3262135,0.020833,0.38631234879,0.48942054286,0.283204154721,1426.68,1398.04,1410.49
2012-08-23,0.41958,0.321678,0.258741,0.999999,0.32361075,0.160839,0.38631234879,0.48942054286,0.283204154721,1426.68,1400.6,1413.49
2012-08-16,0.368421,0.350877,0.280702,1.0,0.306999375,0.087719,0.38631234879,0.48942054286,0.283204154721,1410.03,1394.46,1405.53
2012-08-09,0.364706,0.361765,0.273529,1.0,0.30205975,0.091177,0.38631234879,0.48942054286,0.283204154721,1407.14,1354.65,1402.22
2012-08-02,0.304478,0.346269,0.349254,1.000001,0.299015375,-0.044776,0.38631234879,0.48942054286,0.283204154721,1391.74,1329.24,1375.14
2012-07-26,0.28115,0.28754,0.43131,1.0,0.295269375,-0.15016,0.38631234879,0.48942054286,0.283204154721,1380.39,1329.24,1337.89
2012-07-19,0.2219,0.360231,0.417867,0.999998,0.295145125,-0.195967,0.38631234879,0.48942054286,0.283204154721,1375.26,1325.41,1372.78
2012-07-12,0.302251,0.350482,0.347267,1.0,0.305493625,-0.045016,0.38631234879,0.48942054286,0.283204154721,1374.81,1333.25,1341.45
2012-07-05,0.3264,0.3403,0.3333,1.0,0.297189875,-0.0069,0.38631234879,0.48942054286,0.283204154721,1374.81,1313.29,1374.02
2012-06-28,0.286689,0.269625,0.443686,1.0,0.288135875,-0.156997,0.38631234879,0.48942054286,0.283204154721,1363.46,1309.27,1331.85
2012-06-21,0.328904,0.312292,0.358804,1.0,0.296551625,-0.0299,0.38631234879,0.48942054286,0.283204154721,1363.46,1306.62,1355.69
2012-06-14,0.340351,0.301754,0.357895,1.0,0.2899915,-0.017544,0.38631234879,0.48942054286,0.283204154721,1335.52,1274.16,1314.88
2012-06-07,0.27451,0.267974,0.457516,1.0,0.286421,-0.183006,0.38631234879,0.48942054286,0.283204154721,1334.93,1266.74,1315.13
2012-05-31,0.280156,0.299611,0.420233,1.0,0.287280375,-0.140077,0.38631234879,0.48942054286,0.283204154721,1334.93,1295.73,1313.32
2012-05-24,0.304688,0.308594,0.386719,1.000001,0.29997875,-0.082031,0.38631234879,0.48942054286,0.283204154721,1344.94,1291.98,1318.86
2012-05-17,0.235821,0.304478,0.459701,1.0,0.31498025,-0.22388,0.38631234879,0.48942054286,0.283204154721,1369.16,1324.79,1324.8
2012-05-10,0.253968,0.325397,0.420635,1.0,0.33848275,-0.166667,0.38631234879,0.48942054286,0.283204154721,1415.32,1343.13,1354.58
2012-05-03,0.354015,0.361314,0.284672,1.000001,0.363745125,0.069343,0.38631234879,0.48942054286,0.283204154721,1415.32,1366.82,1402.31
2012-04-26,0.276423,0.349593,0.373984,1.0,0.372467,-0.097561,0.38631234879,0.48942054286,0.283204154721,1392.76,1358.79,1390.69
2012-04-19,0.311787,0.34981,0.338403,1.0,0.393554125,-0.026616,0.38631234879,0.48942054286,0.283204154721,1392.76,1357.38,1385.14
2012-04-12,0.281385,0.30303,0.415584,0.999999,0.409192,-0.134199,0.38631234879,0.48942054286,0.283204154721,1422.38,1357.38,1368.71
2012-04-05,0.381743,0.340249,0.278008,1.0,0.427410125,0.103735,0.38631234879,0.48942054286,0.283204154721,1422.38,1391.56,1398.96
2012-03-29,0.4247,0.3205,0.2548,1.0,0.444246,0.1699,0.38631234879,0.48942054286,0.283204154721,1419.15,1386.87,1405.54
2012-03-22,0.423841,0.298013,0.278146,1.0,0.445916,0.145695,0.38631234879,0.48942054286,0.283204154721,1414.0,1371.92,1402.89
2012-03-15,0.456067,0.271967,0.271967,1.000001,0.453432625,0.1841,0.38631234879,0.48942054286,0.283204154721,1399.42,1340.03,1394.28
2012-03-08,0.42379,0.28624,0.28996,0.99999,0.45546175,0.13383,0.38631234879,0.48942054286,0.283204154721,1378.04,1340.03,1352.63
2012-03-01,0.44512,0.28658,0.26829,0.99999,0.463913,0.17683,0.38631234879,0.48942054286,0.283204154721,1378.04,1352.28,1365.68
2012-02-23,0.43689,0.28802,0.27508,0.99999,0.469373,0.16181,0.38631234879,0.48942054286,0.283204154721,1367.76,1340.8,1357.66
2012-02-16,0.42713,0.30653,0.26633,0.99999,0.46551175,0.1608,0.38631234879,0.48942054286,0.283204154721,1355.87,1335.92,1343.23
2012-02-09,0.51643,0.28169,0.20187,0.99999,0.45427675,0.31456,0.38631234879,0.48942054286,0.283204154721,1351.0,1306.69,1349.96
2012-02-02,0.43806,0.31117,0.25075,0.99998,0.439948,0.18731,0.38631234879,0.48942054286,0.283204154721,1333.47,1300.49,1324.09
2012-01-26,0.483974,0.32692,0.1891,0.999994,0.433403,0.294874,0.38631234879,0.48942054286,0.283204154721,1328.3,1290.22,1326.06
2012-01-19,0.4723,0.2915,0.2361,0.9999,0.41420625,0.2362,0.38631234879,0.48942054286,0.283204154721,1308.11,1274.55,1308.04
2012-01-12,0.4914,0.3368,0.1718,1.0,0.39605625,0.3196,0.38631234879,0.48942054286,0.283204154721,1296.82,1265.26,1295.5
2012-01-05,0.4888,0.3395,0.1716,0.9999,0.38704375,0.3172,0.38631234879,0.48942054286,0.283204154721,1284.62,1248.64,1277.3
2011-12-29,0.406,0.2857,0.30827,0.99997,0.38185625,0.09773,0.38631234879,0.48942054286,0.283204154721,1269.37,1202.37,1249.64
2011-12-22,0.33725,0.38039,0.28235,0.99999,0.38133125,0.0549,0.38631234879,0.48942054286,0.283204154721,1249.86,1202.37,1243.72
2011-12-15,0.4018,0.2616,0.3364,0.9998,0.392925,0.0654,0.38631234879,0.48942054286,0.283204154721,1267.06,1209.47,1211.82
2011-12-08,0.3857,0.2666,0.3476,0.9999,0.387675,0.0381,0.38631234879,0.48942054286,0.283204154721,1267.06,1191.8,1261.01
2011-12-01,0.3304,0.2753,0.3942,0.9999,0.389175,-0.0638,0.38631234879,0.48942054286,0.283204154721,1247.11,1158.66,1246.96
2011-11-24,0.3271,0.2901,0.3827,0.9999,0.3919125,-0.0556,0.38631234879,0.48942054286,0.283204154721,1259.61,1158.66,1158.67
2011-11-17,0.4193,0.2701,0.3104,0.9998,0.3916625,0.1089,0.38631234879,0.48942054286,0.283204154721,1277.55,1226.64,1236.91
2011-11-10,0.4473,0.307,0.2456,0.9999,0.3709125,0.2017,0.38631234879,0.48942054286,0.283204154721,1277.55,1215.42,1229.1
2011-11-03,0.4018,0.302,0.2962,1.0,0.353125,0.1056,0.38631234879,0.48942054286,0.283204154721,1292.66,1215.42,1237.9
2011-10-27,0.43,0.32,0.25,1.0,0.340675,0.18,0.38631234879,0.48942054286,0.283204154721,1256.55,1191.48,1242.0
2011-10-20,0.3598,0.2941,0.346,0.9999,0.3352,0.0138,0.38631234879,0.48942054286,0.283204154721,1233.1,1187.3,1209.88
2011-10-13,0.3977,0.2386,0.3636,0.9999,0.335775,0.0341,0.38631234879,0.48942054286,0.283204154721,1220.25,1074.77,1207.25
2011-10-06,0.3523,0.1904,0.4571,0.9998,0.3305125,-0.1048,0.38631234879,0.48942054286,0.283204154721,1195.86,1074.77,1144.04
2011-09-29,0.3251,0.2068,0.4679,0.9998,0.3282625,-0.1428,0.38631234879,0.48942054286,0.283204154721,1220.39,1114.22,1151.06
2011-09-22,0.2533,0.2667,0.48,1.0,0.321575,-0.2267,0.38631234879,0.48942054286,0.283204154721,1220.39,1157.44,1166.76
2011-09-15,0.305,0.2815,0.4135,1.0,0.3372125,-0.1085,0.38631234879,0.48942054286,0.283204154721,1204.4,1136.07,1188.68
2011-09-08,0.3022,0.295,0.4029,1.0001,0.3489125,-0.1007,0.38631234879,0.48942054286,0.283204154721,1229.29,1140.13,1198.62
2011-09-01,0.3862,0.2904,0.3234,1.0,0.360275,0.0628,0.38631234879,0.48942054286,0.283204154721,1230.71,1135.91,1218.89
2011-08-25,0.3644,0.226,0.4096,1.0,0.3642125,-0.0452,0.38631234879,0.48942054286,0.283204154721,1190.68,1121.09,1159.27
2011-08-18,0.3556,0.2462,0.3982,1.0,0.36655,-0.0426,0.38631234879,0.48942054286,0.283204154721,1208.47,1121.3,1193.88
2011-08-11,0.3343,0.2179,0.4478,1.0,0.368925,-0.1135,0.38631234879,0.48942054286,0.283204154721,1260.23,1101.54,1120.76
2011-08-04,0.2716,0.2299,0.4985,1.0,0.3633875,-0.2269,0.38631234879,0.48942054286,0.283204154721,1316.32,1234.56,1260.34
2011-07-28,0.3784,0.3074,0.3142,1.0,0.3599625,0.0642,0.38631234879,0.48942054286,0.283204154721,1347.0,1303.49,1304.89
2011-07-21,0.3986,0.2954,0.3061,1.0001,0.3503875,0.0925,0.38631234879,0.48942054286,0.283204154721,1330.43,1295.92,1325.84
2011-07-14,0.3931,0.3145,0.2925,1.0001,0.332575,0.1006,0.38631234879,0.48942054286,0.283204154721,1356.48,1313.33,1317.72
2011-07-07,0.4177,0.3354,0.2468,0.9999,0.3168,0.1709,0.38631234879,0.48942054286,0.283204154721,1341.01,1334.3,1339.67
2011-06-30,0.3831,0.3149,0.3019,0.9999,0.30305,0.0812,0.38631234879,0.48942054286,0.283204154721,1309.21,1296.85,1307.41
2011-06-23,0.3746,0.268,0.3574,1.0,0.2994875,0.0172,0.38631234879,0.48942054286,0.283204154721,1298.61,1286.79,1295.52
2011-06-16,0.29,0.2825,0.4275,1.0,0.3000375,-0.1375,0.38631234879,0.48942054286,0.283204154721,1294.54,1279.63,1289.0
2011-06-09,0.2442,0.2791,0.4767,1.0,0.3039875,-0.2325,0.38631234879,0.48942054286,0.283204154721,1312.94,1297.9,1300.16
2011-06-02,0.3018,0.3639,0.3343,1.0,0.326275,-0.0325,0.38631234879,0.48942054286,0.283204154721,1345.2,1314.41,1314.55
2011-05-26,0.2561,0.3297,0.4142,1.0,0.3430375,-0.1581,0.38631234879,0.48942054286,0.283204154721,1346.82,1336.36,1343.6
2011-05-19,0.2669,0.3202,0.4129,1.0,0.3632875,-0.146,0.38631234879,0.48942054286,0.283204154721,1351.05,1333.36,1348.65
2011-05-12,0.3077,0.3373,0.355,1.0,0.3771,-0.0473,0.38631234879,0.48942054286,0.283204154721,1359.44,1348.34,1357.16
2011-05-05,0.3546,0.3267,0.3187,1.0,0.37425,0.0359,0.38631234879,0.48942054286,0.283204154721,1370.58,1358.69,1363.61
2011-04-28,0.379,0.3145,0.3065,1.0,0.3748875,0.0725,0.38631234879,0.48942054286,0.283204154721,1349.55,1336.75,1347.24
2011-04-21,0.3216,0.3684,0.3099,0.9999,0.3735,0.0117,0.38631234879,0.48942054286,0.283204154721,1332.66,1319.12,1330.36
2011-04-14,0.4225,0.2676,0.3099,1.0,0.3790875,0.1126,0.38631234879,0.48942054286,0.283204154721,1339.46,1309.19,1314.41
2011-04-07,0.4359,0.2756,0.2885,1.0,0.3845,0.1474,0.38631234879,0.48942054286,0.283204154721,1339.38,1328.89,1335.54
2011-03-31,0.4181,0.2712,0.3107,1.0,0.3917625,0.1074,0.38631234879,0.48942054286,0.283204154721,1331.74,1321.89,1328.26
2011-03-24,0.3774,0.2727,0.3497,0.9998,0.403925,0.0277,0.38631234879,0.48942054286,0.283204154721,1300.58,1292.7,1298.38
2011-03-17,0.2849,0.3139,0.4012,1.0,0.4093,-0.1163,0.38631234879,0.48942054286,0.283204154721,1315.72,1294.21,1304.28
2011-03-10,0.3597,0.3171,0.3232,1.0,0.437125,0.0365,0.38631234879,0.48942054286,0.283204154721,1332.28,1312.59,1321.82
2011-03-03,0.3679,0.3005,0.3316,1.0,0.4575875,0.0363,0.38631234879,0.48942054286,0.283204154721,1332.09,1320.55,1327.22
2011-02-24,0.3663,0.2723,0.3614,1.0,0.48145,0.0049,0.38631234879,0.48942054286,0.283204154721,1344.07,1338.12,1343.01
2011-02-17,0.4658,0.2785,0.2557,1.0,0.500175,0.2101,0.38631234879,0.48942054286,0.283204154721,1337.61,1329.51,1336.32
2011-02-10,0.494,0.2369,0.2691,1.0,0.52105,0.2249,0.38631234879,0.48942054286,0.283204154721,1324.87,1316.03,1324.57
2011-02-03,0.5154,0.2159,0.2687,1.0,0.5220875,0.2467,0.38631234879,0.48942054286,0.283204154721,1308.86,1275.1,1304.03
2011-01-27,0.4204,0.2367,0.3429,1.0,0.523975,0.0775,0.38631234879,0.48942054286,0.283204154721,1299.74,1291.97,1296.63
2011-01-20,0.5075,0.2015,0.291,1.0,0.5335,0.2165,0.38631234879,0.48942054286,0.283204154721,1296.06,1290.16,1295.02
2011-01-13,0.5234,0.2422,0.2344,1.0,0.5293125,0.289,0.38631234879,0.48942054286,0.283204154721,1286.87,1275.65,1285.96
2011-01-06,0.5588,0.2586,0.1825,0.9999,0.5138875,0.3763,0.38631234879,0.48942054286,0.283204154721,1277.63,1254.19,1276.56
2010-12-30,0.5161,0.2834,0.2005,1.0,0.5159875,0.3156,0.38631234879,0.48942054286,0.283204154721,1262.6,1258.78,1259.78
2010-12-23,0.6328,0.2031,0.164,0.9999,0.5117625,0.4688,0.38631234879,0.48942054286,0.283204154721,1259.39,1254.94,1258.84
2010-12-16,0.5023,0.2262,0.2715,1.0,0.4967,0.2308,0.38631234879,0.48942054286,0.283204154721,1246.72,1240.34,1241.59
2010-12-09,0.5305,0.2439,0.2256,1.0,0.4959375,0.3049,0.38631234879,0.48942054286,0.283204154721,1235.05,1186.6,1228.28
2010-12-02,0.4966,0.2414,0.2621,1.0001,0.4885,0.2345,0.38631234879,0.48942054286,0.283204154721,1207.61,1186.93,1206.07
2010-11-25,0.474,0.2792,0.2468,1.0,0.4877125,0.2272,0.38631234879,0.48942054286,0.283204154721,1200.29,1198.35,1199.73
2010-11-18,0.4,0.275,0.325,1.0,0.481625,0.075,0.38631234879,0.48942054286,0.283204154721,1226.84,1173.0,1223.25
2010-11-11,0.5756,0.1395,0.2849,1.0,0.4878375,0.2907,0.38631234879,0.48942054286,0.283204154721,1227.08,1220.29,1225.85
2010-11-04,0.4823,0.2199,0.2979,1.0001,0.4795,0.1844,0.38631234879,0.48942054286,0.283204154721,1213.05,1198.34,1197.96
2010-10-28,0.5123,0.2716,0.216,0.9999,0.47405,0.2963,0.38631234879,0.48942054286,0.283204154721,1189.53,1184.47,1182.45
2010-10-21,0.4962,0.2519,0.2519,1.0,0.4485125,0.2443,0.38631234879,0.48942054286,0.283204154721,1188.52,1179.82,1178.17
2010-10-14,0.471,0.2609,0.2681,1.0,0.4124125,0.2029,0.38631234879,0.48942054286,0.283204154721,1177.95,1174.04,1178.1
2010-10-07,0.4903,0.2323,0.2774,1.0,0.391175,0.2129,0.38631234879,0.48942054286,0.283204154721,1163.87,1156.5,1159.97
2010-09-30,0.4253,0.2586,0.3161,1.0,0.3795875,0.1092,0.38631234879,0.48942054286,0.283204154721,1157.16,1145.97,1144.73
2010-09-23,0.4497,0.2963,0.254,1.0,0.3644125,0.1957,0.38631234879,0.48942054286,0.283204154721,1132.97,1123.46,1134.24
2010-09-16,0.5089,0.2485,0.2426,1.0,0.3582,0.2663,0.38631234879,0.48942054286,0.283204154721,1123.89,1118.9,1125.07
2010-09-09,0.4387,0.2451,0.3161,0.9999,0.3347875,0.1226,0.38631234879,0.48942054286,0.283204154721,1103.26,1092.36,1091.84
2010-09-02,0.308,0.27,0.4221,1.0001,0.3291625,-0.1141,0.38631234879,0.48942054286,0.283204154721,1086.55,1080.39,1080.29
2010-08-26,0.2074,0.2979,0.4947,1.0,0.3168375,-0.2873,0.38631234879,0.48942054286,0.283204154721,1060.25,1055.38,1055.33
2010-08-19,0.3011,0.2742,0.4247,1.0,0.3217625,-0.1236,0.38631234879,0.48942054286,0.283204154721,1092.44,1077.35,1094.16
2010-08-12,0.3976,0.3012,0.3012,1.0,0.3272,0.0964,0.38631234879,0.48942054286,0.283204154721,1083.88,1076.69,1089.47
2010-08-05,0.3039,0.3137,0.3824,1.0,0.3305625,-0.0785,0.38631234879,0.48942054286,0.283204154721,1124.75,1118.81,1127.24
2010-07-29,0.4,0.2667,0.3333,1.0,0.335675,0.0667,0.38631234879,0.48942054286,0.283204154721,1115.9,1109.63,1106.13
2010-07-22,0.3216,0.2281,0.4503,1.0,0.3320375,-0.1287,0.38631234879,0.48942054286,0.283204154721,1094.59,1072.14,1069.59
2010-07-15,0.3937,0.2284,0.378,1.0001,0.329125,0.0157,0.38631234879,0.48942054286,0.283204154721,1095.17,1080.53,1095.17
2010-07-08,0.2094,0.2199,0.5707,1.0,0.3315375,-0.3613,0.38631234879,0.48942054286,0.283204154721,1071.25,1062.92,1060.27
2010-07-01,0.2468,0.3333,0.4199,1.0,0.3511125,-0.1731,0.38631234879,0.48942054286,0.283204154721,1033.58,1021.65,1030.71
2010-06-24,0.3446,0.3311,0.3243,1.0,0.369175,0.0203,0.38631234879,0.48942054286,0.283204154721,1090.93,1079.17,1092.04
2010-06-17,0.4245,0.2689,0.3066,1.0,0.3778,0.1179,0.38631234879,0.48942054286,0.283204154721,1117.72,1106.38,1114.61
2010-06-10,0.3448,0.2241,0.431,0.9999,0.3723875,-0.0862,0.38631234879,0.48942054286,0.283204154721,1083.05,1058.77,1055.69
2010-06-03,0.3709,0.2207,0.4085,1.0001,0.3898875,-0.0376,0.38631234879,0.48942054286,0.283204154721,1105.67,1098.82,1098.38
2010-05-27,0.2983,0.193,0.5088,1.0001,0.3971,-0.2105,0.38631234879,0.48942054286,0.283204154721,1089.6,1074.27,1067.95
2010-05-20,0.413,0.25,0.337,1.0,0.4114375,0.076,0.38631234879,0.48942054286,0.283204154721,1107.34,1088.33,1115.05
2010-05-13,0.366,0.268,0.366,1.0,0.4003,0.0,0.38631234879,0.48942054286,0.283204154721,1170.61,1164.48,1171.67
2010-05-06,0.3913,0.323,0.2857,1.0,0.3987625,0.1056,0.38631234879,0.48942054286,0.283204154721,1166.65,1161.74,1165.87
2010-04-29,0.4136,0.3,0.2864,1.0,0.4064625,0.1272,0.38631234879,0.48942054286,0.283204154721,1202.59,1193.3,1191.36
2010-04-22,0.3812,0.2762,0.3425,0.9999,0.3995875,0.0387,0.38631234879,0.48942054286,0.283204154721,1202.52,1190.19,1205.94
2010-04-15,0.4848,0.2182,0.297,1.0,0.39555,0.1878,0.38631234879,0.48942054286,0.283204154721,1210.77,1208.64,1210.65
2010-04-08,0.4286,0.2679,0.3036,1.0001,0.3797625,0.125,0.38631234879,0.48942054286,0.283204154721,1181.75,1175.12,1182.45
2010-04-01,0.413,0.2754,0.3116,1.0,0.372125,0.1014,0.38631234879,0.48942054286,0.283204154721,1181.43,1171.23,1169.43
2010-03-25,0.3239,0.3295,0.3466,1.0,0.3570375,-0.0227,0.38631234879,0.48942054286,0.283204154721,1176.71,1170.03,1167.72
2010-03-18,0.3537,0.3476,0.2988,1.0001,0.3603,0.0549,0.38631234879,0.48942054286,0.283204154721,1167.77,1165.07,1166.21
2010-03-11,0.4529,0.2941,0.2529,0.9999,0.3660875,0.2,0.38631234879,0.48942054286,0.283204154721,1143.96,1139.99,1145.61
2010-03-04,0.3586,0.3793,0.2621,1.0,0.368775,0.0965,0.38631234879,0.48942054286,0.283204154721,1121.67,1119.12,1118.79
2010-02-25,0.3489,0.3557,0.2953,0.9999,0.3752,0.0536,0.38631234879,0.48942054286,0.283204154721,1106.42,1106.42,1094.6
2010-02-18,0.3585,0.2893,0.3522,1.0,0.3930625,0.0063,0.38631234879,0.48942054286,0.283204154721,1102.4,1097.48,1099.51
2010-02-11,0.3675,0.2137,0.4188,1.0,0.39535,-0.0513,0.38631234879,0.48942054286,0.283204154721,1069.05,1060.59,1068.13
2010-02-04,0.2923,0.2769,0.4308,1.0,0.40205,-0.1385,0.38631234879,0.48942054286,0.283204154721,1097.25,1074.86,1097.28
2010-01-28,0.35,0.2833,0.3667,1.0,0.4188625,-0.0167,0.38631234879,0.48942054286,0.283204154721,1100.22,1092.63,1097.5
2010-01-21,0.4,0.2526,0.3474,1.0,0.4270875,0.0526,0.38631234879,0.48942054286,0.283204154721,1141.58,1136.52,1138.04
2010-01-14,0.4744,0.2564,0.2692,1.0,0.4291625,0.2052,0.38631234879,0.48942054286,0.283204154721,1147.93,1143.8,1145.68
2010-01-07,0.41,0.33,0.26,1.0,0.423275,0.15,0.38631234879,0.48942054286,0.283204154721,1136.27,1131.32,1137.14
2009-12-31,0.4918,0.2787,0.2295,1.0,0.420275,0.2623,0.38631234879,0.48942054286,0.283204154721,1129.43,1116.56,1115.1
2009-12-24,0.3768,0.2464,0.3768,1.0,0.386575,0.0,0.38631234879,0.48942054286,0.283204154721,1130.38,1126.17,1127.78
2009-12-17,0.4211,0.2947,0.2842,1.0,0.3815375,0.1369,0.38631234879,0.48942054286,0.283204154721,1106.36,1098.16,1109.18
2009-12-10,0.4268,0.2195,0.3537,1.0,0.3795,0.0731,0.38631234879,0.48942054286,0.283204154721,1106.25,1098.69,1095.95
2009-12-03,0.4158,0.2475,0.3366,0.9999,0.385275,0.0792,0.38631234879,0.48942054286,0.283204154721,1117.28,1109.24,1109.24
2009-11-26,0.4166,0.1666,0.4166,0.9998,0.3771625,0.0,0.38631234879,0.48942054286,0.283204154721,1105.47,1083.74,1110.63
2009-11-19,0.4273,0.2545,0.3182,1.0,0.379525,0.1091,0.38631234879,0.48942054286,0.283204154721,1106.44,1089.84,1109.8
2009-11-12,0.386,0.228,0.386,1.0,0.374975,0.0,0.38631234879,0.48942054286,0.283204154721,1105.37,1063.21,1098.51
2009-11-05,0.2222,0.2222,0.5556,1.0,0.3794,-0.3334,0.38631234879,0.48942054286,0.283204154721,1060.98,1047.3,1046.5
2009-10-29,0.3365,0.2404,0.4231,1.0,0.3982875,-0.0866,0.38631234879,0.48942054286,0.283204154721,1056.01,1043.69,1042.63
2009-10-22,0.4048,0.2381,0.3571,1.0,0.4036875,0.0477,0.38631234879,0.48942054286,0.283204154721,1101.36,1080.77,1081.4
2009-10-15,0.473,0.1892,0.3378,1.0,0.3955625,0.1352,0.38631234879,0.48942054286,0.283204154721,1090.89,1086.88,1092.02
2009-10-08,0.3509,0.2368,0.4123,1.0,0.379025,-0.0614,0.38631234879,0.48942054286,0.283204154721,1066.86,1060.03,1057.58
2009-10-01,0.4355,0.2097,0.3548,1.0,0.3989125,0.0807,0.38631234879,0.48942054286,0.283204154721,1054.91,1043.65,1057.08
2009-09-24,0.3909,0.1636,0.4455,1.0,0.406975,-0.0546,0.38631234879,0.48942054286,0.283204154721,1066.29,1051.04,1060.87
2009-09-17,0.4214,0.1786,0.4,1.0,0.4177,0.0214,0.38631234879,0.48942054286,0.283204154721,1074.77,1066.93,1068.76
2009-09-10,0.3733,0.1867,0.44,1.0,0.412025,-0.0667,0.38631234879,0.48942054286,0.283204154721,1033.94,1028.04,1033.37
2009-09-03,0.3797,0.2405,0.3797,0.9999,0.4012125,0.0,0.38631234879,0.48942054286,0.283204154721,1001.46,996.12,994.75
2009-08-27,0.3398,0.1748,0.4854,1.0,0.3886375,-0.1456,0.38631234879,0.48942054286,0.283204154721,1027.81,1016.83,1028.12
2009-08-20,0.3407,0.2593,0.4,1.0,0.3934625,-0.0593,0.38631234879,0.48942054286,0.283204154721,1004.08,996.39,996.46
2009-08-13,0.51,0.16,0.33,1.0,0.385875,0.18,0.38631234879,0.48942054286,0.283204154721,1009.54,1000.82,1005.81
2009-08-06,0.5,0.1484,0.3516,1.0,0.3637875,0.1484,0.38631234879,0.48942054286,0.283204154721,1008.0,997.59,1002.72
2009-07-30,0.4767,0.2093,0.314,1.0,0.35035,0.1627,0.38631234879,0.48942054286,0.283204154721,994.95,976.01,975.15
2009-07-23,0.376,0.2,0.424,1.0,0.3502125,-0.048,0.38631234879,0.48942054286,0.283204154721,962.37,953.27,954.07
2009-07-16,0.2868,0.2426,0.4706,1.0,0.353675,-0.1838,0.38631234879,0.48942054286,0.283204154721,934.31,928.04,932.68
2009-07-09,0.2791,0.1744,0.5465,1.0,0.359975,-0.2674,0.38631234879,0.48942054286,0.283204154721,886.01,879.35,879.56
2009-07-02,0.3784,0.1757,0.4459,1.0,0.37985,-0.0675,0.38631234879,0.48942054286,0.283204154721,921.24,903.22,923.33
2009-06-25,0.28,0.232,0.488,1.0,0.3876625,-0.208,0.38631234879,0.48942054286,0.283204154721,908.84,896.27,900.94
2009-06-18,0.3333,0.2024,0.4643,1.0,0.397775,-0.131,0.38631234879,0.48942054286,0.283204154721,914.05,907.94,910.71
2009-06-11,0.3925,0.215,0.3925,1.0,0.3958875,0.0,0.38631234879,0.48942054286,0.283204154721,950.13,939.04,939.15
2009-06-04,0.4756,0.1585,0.3659,1.0,0.402,0.1097,0.38631234879,0.48942054286,0.283204154721,936.22,931.29,931.76
2009-05-28,0.4037,0.1101,0.4862,1.0,0.3871875,-0.0825,0.38631234879,0.48942054286,0.283204154721,903.06,887.6,893.06
2009-05-21,0.3372,0.2093,0.4535,1.0,0.39005,-0.1163,0.38631234879,0.48942054286,0.283204154721,900.42,884.06,903.47
2009-05-14,0.4381,0.2095,0.3524,1.0,0.3968125,0.0857,0.38631234879,0.48942054286,0.283204154721,890.1,882.52,883.92
2009-05-07,0.4409,0.2258,0.3333,1.0,0.398375,0.1076,0.38631234879,0.48942054286,0.283204154721,929.58,919.58,919.53
2009-04-30,0.3609,0.203,0.4361,1.0,0.3778125,-0.0752,0.38631234879,0.48942054286,0.283204154721,887.47,876.59,873.64
2009-04-23,0.3182,0.2955,0.3864,1.0001,0.35635,-0.0682,0.38631234879,0.48942054286,0.283204154721,848.22,835.45,843.55
2009-04-16,0.4414,0.2,0.3586,1.0,0.34695,0.0828,0.38631234879,0.48942054286,0.283204154721,852.93,835.58,841.5
2009-04-09,0.3571,0.2,0.4429,1.0,0.318825,-0.0858,0.38631234879,0.48942054286,0.283204154721,850.8,829.29,825.16
2009-04-02,0.4266,0.2028,0.3706,1.0,0.315325,0.056,0.38631234879,0.48942054286,0.283204154721,835.91,814.53,811.08
2009-03-26,0.3913,0.1848,0.4239,1.0,0.2927875,-0.0326,0.38631234879,0.48942054286,0.283204154721,826.76,814.06,813.88
2009-03-19,0.4506,0.1667,0.3827,1.0,0.2754625,0.0679,0.38631234879,0.48942054286,0.283204154721,803.24,788.87,794.35
2009-03-12,0.2764,0.1789,0.5447,1.0,0.25315,-0.2683,0.38631234879,0.48942054286,0.283204154721,727.47,714.76,721.36
2009-03-05,0.1892,0.1081,0.7027,1.0,0.2531375,-0.5135,0.38631234879,0.48942054286,0.283204154721,708.27,696.27,712.87
2009-02-26,0.243,0.2056,0.5514,1.0,0.2903625,-0.3084,0.38631234879,0.48942054286,0.283204154721,779.42,765.76,764.9
2009-02-19,0.2164,0.2164,0.5672,1.0,0.2899875,-0.3508,0.38631234879,0.48942054286,0.283204154721,797.58,787.91,788.42
2009-02-12,0.3291,0.2785,0.3924,1.0,0.299125,-0.0633,0.38631234879,0.48942054286,0.283204154721,829.91,811.35,833.74
2009-02-05,0.2463,0.3134,0.4403,1.0,0.30765,-0.194,0.38631234879,0.48942054286,0.283204154721,832.63,819.91,832.23
2009-01-29,0.2527,0.2747,0.4725,0.9999,0.3237375,-0.2198,0.38631234879,0.48942054286,0.283204154721,868.89,854.37,874.09
2009-01-22,0.2721,0.2647,0.4632,1.0,0.3254875,-0.1911,0.38631234879,0.48942054286,0.283204154721,839.74,816.69,840.24
2009-01-15,0.2763,0.25,0.4737,1.0,0.3305375,-0.1974,0.38631234879,0.48942054286,0.283204154721,842.05,825.53,842.62
2009-01-08,0.487,0.1623,0.3506,0.9999,0.3264625,0.1364,0.38631234879,0.48942054286,0.283204154721,907.64,896.81,906.65
2009-01-01,0.24,0.2133,0.5467,1.0,0.3135,-0.3067,0.38631234879,0.48942054286,0.283204154721,934.73,899.35,903.25
2008-12-25,0.2895,0.2719,0.4386,1.0,0.3395375,-0.1491,0.38631234879,0.48942054286,0.283204154721,873.7,868.5,872.8
2008-12-18,0.3973,0.2466,0.3562,1.0001,0.349775,0.0411,0.38631234879,0.48942054286,0.283204154721,910.01,900.1,904.42
2008-12-11,0.375,0.2266,0.3984,1.0,0.3485375,-0.0234,0.38631234879,0.48942054286,0.283204154721,899.95,885.94,899.24
2008-12-04,0.2667,0.2556,0.4778,1.0001,0.3528375,-0.2111,0.38631234879,0.48942054286,0.283204154721,872.89,858.55,870.74
2008-11-27,0.3125,0.2386,0.4489,1.0,0.3588375,-0.1364,0.38631234879,0.48942054286,0.283204154721,896.25,881.21,887.68
2008-11-20,0.2437,0.1849,0.5714,1.0,0.3614375,-0.3277,0.38631234879,0.48942054286,0.283204154721,805.87,776.79,806.58
2008-11-13,0.3833,0.1917,0.425,1.0,0.373525,-0.0417,0.38631234879,0.48942054286,0.283204154721,865.07,847.4,852.3
2008-11-06,0.4483,0.2184,0.3333,1.0,0.359625,0.115,0.38631234879,0.48942054286,0.283204154721,952.4,934.13,952.77
2008-10-30,0.3714,0.2229,0.4057,1.0,0.340175,-0.0343,0.38631234879,0.48942054286,0.283204154721,963.23,939.38,930.09
2008-10-23,0.3874,0.2252,0.3874,1.0,0.34005,0.0,0.38631234879,0.48942054286,0.283204154721,909.8,883.8,896.78
2008-10-16,0.4094,0.193,0.3977,1.0001,0.329975,0.0117,0.38631234879,0.48942054286,0.283204154721,924.87,888.17,907.84
2008-10-09,0.3147,0.0769,0.6084,1.0,0.326425,-0.2937,0.38631234879,0.48942054286,0.283204154721,1005.25,986.53,984.94
2008-10-02,0.3333,0.1167,0.55,1.0,0.3406625,-0.2167,0.38631234879,0.48942054286,0.283204154721,1160.64,1132.46,1161.06
2008-09-25,0.3404,0.2021,0.4574,0.9999,0.3435125,-0.117,0.38631234879,0.48942054286,0.283204154721,1212.77,1187.87,1185.87
2008-09-18,0.2721,0.1837,0.5442,1.0,0.3509625,-0.2721,0.38631234879,0.48942054286,0.283204154721,1184.22,1157.08,1156.39
2008-09-11,0.2927,0.1585,0.5488,1.0,0.361725,-0.2561,0.38631234879,0.48942054286,0.283204154721,1274.66,1221.73,1232.04
2008-09-04,0.3704,0.1975,0.4321,1.0,0.3563875,-0.0617,0.38631234879,0.48942054286,0.283204154721,1271.8,1253.12,1274.98
2008-08-28,0.3068,0.2386,0.4545,0.9999,0.3378,-0.1477,0.38631234879,0.48942054286,0.283204154721,1291.7,1283.79,1281.66
2008-08-21,0.381,0.246,0.373,1.0,0.3293625,0.008,0.38631234879,0.48942054286,0.283204154721,1300.15,1261.31,1274.54
2008-08-14,0.4286,0.1818,0.3896,1.0,0.3208,0.039,0.38631234879,0.48942054286,0.283204154721,1285.58,1276.84,1285.83
2008-08-07,0.3561,0.2197,0.4242,1.0,0.30845,-0.0681,0.38631234879,0.48942054286,0.283204154721,1278.81,1273.06,1289.19
2008-07-31,0.4,0.1882,0.4118,1.0,0.303,-0.0118,0.38631234879,0.48942054286,0.283204154721,1281.59,1273.5,1284.26
2008-07-24,0.3582,0.2014,0.4403,0.9999,0.30735,-0.0821,0.38631234879,0.48942054286,0.283204154721,1283.22,1276.01,1282.19
2008-07-17,0.25,0.1686,0.5814,1.0,0.301775,-0.3314,0.38631234879,0.48942054286,0.283204154721,1258.72,1246.31,1245.36
2008-07-10,0.2217,0.2266,0.5517,1.0,0.3284,-0.33,0.38631234879,0.48942054286,0.283204154721,1252.39,1243.32,1244.69
2008-07-03,0.2393,0.2393,0.5214,1.0,0.3571375,-0.2821,0.38631234879,0.48942054286,0.283204154721,1269.81,1255.69,1261.52
2008-06-26,0.3125,0.1648,0.5227,1.0,0.3932375,-0.2102,0.38631234879,0.48942054286,0.283204154721,1316.29,1306.14,1321.97
2008-06-19,0.3298,0.2128,0.4574,1.0,0.4207875,-0.1276,0.38631234879,0.48942054286,0.283204154721,1341.27,1334.04,1337.81
2008-06-12,0.3125,0.1518,0.5357,1.0,0.4379,-0.2232,0.38631234879,0.48942054286,0.283204154721,1353.03,1335.78,1335.49
2008-06-05,0.4348,0.1848,0.3804,1.0,0.4368,0.0544,0.38631234879,0.48942054286,0.283204154721,1393.32,1377.48,1377.2
2008-05-29,0.3136,0.2288,0.4576,1.0,0.43965,-0.144,0.38631234879,0.48942054286,0.283204154721,1393.49,1388.59,1390.84
2008-05-22,0.463,0.1944,0.3426,1.0,0.446325,0.1204,0.38631234879,0.48942054286,0.283204154721,1396.2,1390.7,1390.71
2008-05-15,0.4516,0.2516,0.2968,1.0,0.44045,0.1548,0.38631234879,0.48942054286,0.283204154721,1412.29,1406.87,1408.66
2008-05-08,0.5281,0.2247,0.2472,1.0,0.4155125,0.2809,0.38631234879,0.48942054286,0.283204154721,1394.29,1399.18,1389.39
2008-05-01,0.5329,0.2039,0.2632,1.0,0.375025,0.2697,0.38631234879,0.48942054286,0.283204154721,1404.57,1384.25,1385.59
2008-04-24,0.4667,0.2583,0.275,1.0,0.3358875,0.1917,0.38631234879,0.48942054286,0.283204154721,1387.87,1372.24,1379.93
2008-04-17,0.3037,0.2094,0.4869,1.0,0.3204375,-0.1832,0.38631234879,0.48942054286,0.283204154721,1365.49,1337.02,1364.71
2008-04-10,0.4576,0.1695,0.3729,1.0,0.32395,0.0847,0.38631234879,0.48942054286,0.283204154721,1368.08,1350.25,1354.49
2008-04-03,0.367,0.2394,0.3936,1.0,0.3084125,-0.0266,0.38631234879,0.48942054286,0.283204154721,1377.95,1361.55,1367.53
2008-03-27,0.416,0.248,0.336,1.0,0.305175,0.08,0.38631234879,0.48942054286,0.283204154721,1352.45,1336.41,1341.13
2008-03-20,0.2521,0.2051,0.5427,0.9999,0.290775,-0.2906,0.38631234879,0.48942054286,0.283204154721,1341.51,1298.42,1298.42
2008-03-13,0.2042,0.2042,0.5915,0.9999,0.2906875,-0.3873,0.38631234879,0.48942054286,0.283204154721,1333.26,1307.86,1308.77
2008-03-06,0.2198,0.2637,0.5165,1.0,0.2955375,-0.2967,0.38631234879,0.48942054286,0.283204154721,1344.19,1320.22,1333.7
2008-02-28,0.3431,0.2044,0.4526,1.0001,0.2926,-0.1095,0.38631234879,0.48942054286,0.283204154721,1388.34,1372.0,1380.02
2008-02-21,0.3318,0.2212,0.447,1.0,0.28185,-0.1152,0.38631234879,0.48942054286,0.283204154721,1367.28,1345.05,1348.78
2008-02-14,0.3333,0.2481,0.4186,1.0,0.277875,-0.0853,0.38631234879,0.48942054286,0.283204154721,1369.23,1350.78,1367.21
2008-02-07,0.3411,0.1869,0.472,1.0,0.281025,-0.1309,0.38631234879,0.48942054286,0.283204154721,1351.96,1324.34,1326.45
2008-01-31,0.3008,0.2105,0.4887,1.0,0.2979125,-0.1879,0.38631234879,0.48942054286,0.283204154721,1385.86,1352.95,1355.81
2008-01-24,0.2514,0.1585,0.5902,1.0001,0.311125,-0.3388,0.38631234879,0.48942054286,0.283204154721,1338.82,1269.87,1338.6
2008-01-17,0.243,0.213,0.5444,1.0004,0.3154125,-0.3014,0.38631234879,0.48942054286,0.283204154721,1391.99,1364.27,1373.2
2008-01-10,0.1963,0.215,0.5888,1.0001,0.3170125,-0.3925,0.38631234879,0.48942054286,0.283204154721,1409.2,1379.23,1409.13
2008-01-03,0.2571,0.1905,0.5524,1.0,0.3337375,-0.2953,0.38631234879,0.48942054286,0.283204154721,1455.74,1447.37,1450.38
2007-12-27,0.3,0.2,0.5,1.0,0.3468375,-0.2,0.38631234879,0.48942054286,0.283204154721,1497.63,1484.55,1496.45
2007-12-20,0.3585,0.1698,0.4717,1.0,0.365225,-0.1132,0.38631234879,0.48942054286,0.283204154721,1464.4,1445.49,1453.0
2007-12-13,0.4762,0.1667,0.3571,1.0,0.359475,0.1191,0.38631234879,0.48942054286,0.283204154721,1485.4,1472.4,1479.66
2007-12-06,0.4065,0.1951,0.3984,1.0,0.3524,0.0081,0.38631234879,0.48942054286,0.283204154721,1485.85,1462.06,1485.01
2007-11-29,0.2857,0.1531,0.5612,1.0,0.3698875,-0.2755,0.38631234879,0.48942054286,0.283204154721,1471.44,1427.78,1469.02
2007-11-22,0.2558,0.2171,0.5271,1.0,0.3989375,-0.2713,0.38631234879,0.48942054286,0.283204154721,1439.62,1415.73,1416.77
2007-11-15,0.3301,0.1748,0.4951,1.0,0.428675,-0.165,0.38631234879,0.48942054286,0.283204154721,1491.51,1466.99,1470.58
2007-11-08,0.3619,0.1238,0.5143,1.0,0.4364625,-0.1524,0.38631234879,0.48942054286,0.283204154721,1519.49,1475.08,1475.62
2007-11-01,0.4471,0.1882,0.3647,1.0,0.441225,0.0824,0.38631234879,0.48942054286,0.283204154721,1551.91,1529.42,1549.38
2007-10-25,0.3125,0.2054,0.4821,1.0,0.4333125,-0.1696,0.38631234879,0.48942054286,0.283204154721,1519.57,1489.74,1515.88
2007-10-18,0.4196,0.2232,0.3571,0.9999,0.444625,0.0625,0.38631234879,0.48942054286,0.283204154721,1550.38,1526.46,1541.24
2007-10-11,0.5464,0.1959,0.2577,1.0,0.443775,0.2887,0.38631234879,0.48942054286,0.283204154721,1565.22,1555.62,1562.47
2007-10-04,0.5181,0.2289,0.253,1.0,0.42825,0.2651,0.38631234879,0.48942054286,0.283204154721,1546.33,1536.43,1539.59
2007-09-27,0.4937,0.1646,0.3418,1.0001,0.4206875,0.1519,0.38631234879,0.48942054286,0.283204154721,1529.17,1516.96,1525.42
2007-09-20,0.3924,0.2911,0.3165,1.0,0.416325,0.0759,0.38631234879,0.48942054286,0.283204154721,1538.69,1519.75,1529.03
2007-09-13,0.4,0.2471,0.3529,1.0,0.4225375,0.0471,0.38631234879,0.48942054286,0.283204154721,1479.19,1465.69,1471.56
2007-09-06,0.3838,0.1919,0.4242,0.9999,0.42475,-0.0404,0.38631234879,0.48942054286,0.283204154721,1488.76,1466.37,1472.29
2007-08-30,0.403,0.1343,0.4627,1.0,0.431325,-0.0597,0.38631234879,0.48942054286,0.283204154721,1463.76,1432.01,1463.76
2007-08-23,0.4128,0.156,0.4312,1.0,0.43575,-0.0184,0.38631234879,0.48942054286,0.283204154721,1464.48,1447.03,1464.07
2007-08-16,0.4222,0.1222,0.4556,1.0,0.432925,-0.0334,0.38631234879,0.48942054286,0.283204154721,1440.78,1404.36,1406.7
2007-08-09,0.4576,0.1525,0.3898,0.9999,0.4341,0.0678,0.38631234879,0.48942054286,0.283204154721,1503.89,1476.22,1497.49
2007-08-02,0.4588,0.1412,0.4,1.0,0.423525,0.0588,0.38631234879,0.48942054286,0.283204154721,1463.3,1443.68,1451.59
2007-07-26,0.4421,0.1895,0.3684,1.0,0.4169125,0.0737,0.38631234879,0.48942054286,0.283204154721,1524.31,1504.87,1517.91
2007-07-19,0.4177,0.2152,0.3671,1.0,0.4033125,0.0506,0.38631234879,0.48942054286,0.283204154721,1549.2,1533.67,1546.17
2007-07-12,0.4364,0.2636,0.3,1.0,0.3977875,0.1364,0.38631234879,0.48942054286,0.283204154721,1519.34,1506.1,1518.76
2007-07-05,0.4384,0.2329,0.3288,1.0001,0.391225,0.1096,0.38631234879,0.48942054286,0.283204154721,1526.01,1519.12,1524.87
2007-06-28,0.3902,0.252,0.3577,0.9999,0.39,0.0325,0.38631234879,0.48942054286,0.283204154721,1515.7,1492.65,1515.67
2007-06-21,0.4316,0.2316,0.3368,1.0,0.3769375,0.0948,0.38631234879,0.48942054286,0.283204154721,1537.32,1512.36,1512.84
2007-06-14,0.373,0.1905,0.4365,1.0,0.3720375,-0.0635,0.38631234879,0.48942054286,0.283204154721,1515.7,1492.65,1515.67
2007-06-07,0.4059,0.1683,0.4257,0.9999,0.3840875,-0.0198,0.38631234879,0.48942054286,0.283204154721,1530.57,1514.13,1517.38
2007-05-31,0.3333,0.2188,0.4479,1.0,0.3844125,-0.1146,0.38631234879,0.48942054286,0.283204154721,1530.23,1510.06,1530.23
2007-05-24,0.3735,0.241,0.3855,1.0,0.383075,-0.012,0.38631234879,0.48942054286,0.283204154721,1532.43,1521.9,1522.28
2007-05-17,0.3839,0.25,0.3661,1.0,0.3897375,0.0178,0.38631234879,0.48942054286,0.283204154721,1514.15,1500.75,1514.14
2007-05-10,0.4286,0.1429,0.4286,1.0001,0.3966,0.0,0.38631234879,0.48942054286,0.283204154721,1513.8,1503.77,1512.58
2007-05-03,0.2857,0.1714,0.5429,1.0,0.3842625,-0.2572,0.38631234879,0.48942054286,0.283204154721,1499.1,1486.13,1495.92
2007-04-26,0.3924,0.2278,0.3797,0.9999,0.3933,0.0127,0.38631234879,0.48942054286,0.283204154721,1496.59,1480.28,1495.42
2007-04-19,0.4694,0.2347,0.2959,1.0,0.3900375,0.1735,0.38631234879,0.48942054286,0.283204154721,1476.57,1466.41,1472.5
2007-04-12,0.4085,0.2113,0.3803,1.0001,0.398675,0.0282,0.38631234879,0.48942054286,0.283204154721,1448.39,1436.15,1438.87
2007-04-05,0.3226,0.2796,0.3978,1.0,0.407075,-0.0752,0.38631234879,0.48942054286,0.283204154721,1440.16,1435.08,1439.37
2007-03-29,0.4268,0.3171,0.2561,1.0,0.4244375,0.1707,0.38631234879,0.48942054286,0.283204154721,1426.24,1413.27,1422.53
2007-03-22,0.4388,0.2302,0.3309,0.9999,0.4289875,0.1079,0.38631234879,0.48942054286,0.283204154721,1436.8,1429.88,1431.64
2007-03-15,0.3299,0.2165,0.4536,1.0,0.423525,-0.1237,0.38631234879,0.48942054286,0.283204154721,1395.73,1385.16,1392.28
2007-03-08,0.358,0.1932,0.4489,1.0001,0.4545125,-0.0909,0.38631234879,0.48942054286,0.283204154721,1407.72,1391.88,1406.18
2007-03-01,0.3663,0.2376,0.396,0.9999,0.4653125,-0.0297,0.38631234879,0.48942054286,0.283204154721,1408.17,1380.87,1406.01
2007-02-22,0.5385,0.2385,0.2231,1.0001,0.48095,0.3154,0.38631234879,0.48942054286,0.283204154721,1461.57,1457.29,1459.85
2007-02-15,0.4757,0.2136,0.3107,1.0,0.4711375,0.165,0.38631234879,0.48942054286,0.283204154721,1457.97,1453.19,1456.81
2007-02-08,0.4615,0.2385,0.3,1.0,0.460525,0.1615,0.38631234879,0.48942054286,0.283204154721,1452.99,1446.44,1450.02
2007-02-01,0.4632,0.2316,0.3053,1.0001,0.4545,0.1579,0.38631234879,0.48942054286,0.283204154721,1446.64,1437.9,1445.94
2007-01-25,0.3951,0.2716,0.3333,1.0,0.445275,0.0618,0.38631234879,0.48942054286,0.283204154721,1440.69,1434.56,1436.31
2007-01-18,0.5778,0.1515,0.2727,1.002,0.4461625,0.3051,0.38631234879,0.48942054286,0.283204154721,1432.96,1424.21,1426.37
2007-01-11,0.4444,0.213,0.3426,1.0,0.4263625,0.1018,0.38631234879,0.48942054286,0.283204154721,1418.84,1414.84,1418.78
2007-01-04,0.4914,0.2155,0.2931,1.0,0.4290125,0.1983,0.38631234879,0.48942054286,0.283204154721,1421.84,1408.22,1418.34
2006-12-28,0.46,0.18,0.36,1.0,0.4308375,0.1,0.38631234879,0.48942054286,0.283204154721,1427.26,1422.05,1424.73
2006-12-21,0.3908,0.1839,0.4253,1.0,0.428025,-0.0345,0.38631234879,0.48942054286,0.283204154721,1426.4,1423.2,1425.84
2006-12-14,0.4133,0.2067,0.38,1.0,0.4443875,0.0333,0.38631234879,0.48942054286,0.283204154721,1424.64,1413.16,1422.34
2006-12-07,0.3894,0.1947,0.4159,1.0,0.460475,-0.0265,0.38631234879,0.48942054286,0.283204154721,1415.93,1396.67,1412.9
2006-11-30,0.4022,0.1229,0.4749,1.0,0.473025,-0.0727,0.38631234879,0.48942054286,0.283204154721,1402.67,1394.85,1395.97
2006-11-23,0.4194,0.1613,0.4194,1.0001,0.469975,0.0,0.38631234879,0.48942054286,0.283204154721,1407.89,1402.26,1406.09
2006-11-16,0.4656,0.229,0.3053,0.9999,0.4817,0.1603,0.38631234879,0.48942054286,0.283204154721,1401.79,1396.53,1400.08
2006-11-09,0.506,0.2289,0.2651,1.0,0.4831875,0.2409,0.38631234879,0.48942054286,0.283204154721,1388.92,1377.37,1378.33
2006-11-02,0.4375,0.1938,0.3688,1.0001,0.479875,0.0687,0.38631234879,0.48942054286,0.283204154721,1367.44,1362.21,1366.31
2006-10-26,0.5217,0.1739,0.3043,0.9999,0.478925,0.2174,0.38631234879,0.48942054286,0.283204154721,1386.53,1379.47,1385.15
2006-10-19,0.542,0.1603,0.2977,1.0,0.465675,0.2443,0.38631234879,0.48942054286,0.283204154721,1368.09,1362.06,1366.96
2006-10-12,0.4898,0.1327,0.3776,1.0001,0.4471125,0.1122,0.38631234879,0.48942054286,0.283204154721,1359.05,1349.94,1357.88
2006-10-05,0.3778,0.1556,0.4667,1.0001,0.42405,-0.0889,0.38631234879,0.48942054286,0.283204154721,1351.57,1347.75,1348.56
2006-09-28,0.5132,0.1579,0.3289,1.0,0.4225625,0.1843,0.38631234879,0.48942054286,0.283204154721,1339.73,1334.75,1336.87
2006-09-21,0.4775,0.1802,0.3423,1.0,0.3977375,0.1352,0.38631234879,0.48942054286,0.283204154721,1328.19,1322.59,1326.9
2006-09-14,0.4795,0.137,0.3836,1.0001,0.38165,0.0959,0.38631234879,0.48942054286,0.283204154721,1318.0,1313.25,1316.28
2006-09-07,0.4299,0.271,0.2991,1.0,0.351525,0.1308,0.38631234879,0.48942054286,0.283204154721,1301.25,1292.13,1297.79
2006-08-31,0.4157,0.3258,0.2584,0.9999,0.3434125,0.1573,0.38631234879,0.48942054286,0.283204154721,1305.5,1302.45,1302.93
2006-08-24,0.3935,0.2323,0.3742,1.0,0.338575,0.0193,0.38631234879,0.48942054286,0.283204154721,1297.23,1291.49,1291.94
2006-08-17,0.3053,0.3368,0.3579,1.0,0.3376375,-0.0526,0.38631234879,0.48942054286,0.283204154721,1296.31,1292.71,1294.21
2006-08-10,0.3659,0.2195,0.4146,1.0,0.342475,-0.0487,0.38631234879,0.48942054286,0.283204154721,1272.55,1261.3,1271.81
2006-08-03,0.3146,0.2135,0.4719,1.0,0.32975,-0.1573,0.38631234879,0.48942054286,0.283204154721,1283.96,1271.25,1280.27
2006-07-27,0.3488,0.2209,0.4302,0.9999,0.3232125,-0.0814,0.38631234879,0.48942054286,0.283204154721,1273.89,1240.25,1268.4
2006-07-20,0.2385,0.1835,0.578,1.0,0.318075,-0.3395,0.38631234879,0.48942054286,0.283204154721,1262.56,1253.13,1255.69
2006-07-13,0.365,0.2409,0.3942,1.0001,0.3295625,-0.0292,0.38631234879,0.48942054286,0.283204154721,1258.58,1241.43,1242.28
2006-07-06,0.377,0.1967,0.4262,0.9999,0.333175,-0.0492,0.38631234879,0.48942054286,0.283204154721,1278.32,1270.58,1274.08
2006-06-29,0.386,0.2164,0.3977,1.0001,0.354675,-0.0117,0.38631234879,0.48942054286,0.283204154721,1257.29,1245.94,1255.88
2006-06-22,0.344,0.24,0.416,1.0,0.3637875,-0.072,0.38631234879,0.48942054286,0.283204154721,1251.92,1241.53,1244.7
2006-06-15,0.2641,0.1861,0.5498,1.0,0.373425,-0.2857,0.38631234879,0.48942054286,0.283204154721,1243.59,1230.01,1243.04
2006-06-08,0.2623,0.2869,0.4508,1.0,0.382575,-0.1885,0.38631234879,0.48942054286,0.283204154721,1257.07,1249.43,1249.72
2006-06-01,0.3077,0.1923,0.5,1.0,0.4064875,-0.1923,0.38631234879,0.48942054286,0.283204154721,1285.71,1269.19,1285.71
2006-05-25,0.3304,0.2143,0.4554,1.0001,0.4276125,-0.125,0.38631234879,0.48942054286,0.283204154721,1264.53,1245.34,1258.57
2006-05-18,0.3939,0.1697,0.4364,1.0,0.432825,-0.0425,0.38631234879,0.48942054286,0.283204154721,1291.73,1267.31,1270.32
2006-05-11,0.549,0.1765,0.2745,1.0,0.438275,0.2745,0.38631234879,0.48942054286,0.283204154721,1326.7,1317.44,1322.85
2006-05-04,0.4589,0.2055,0.3356,1.0,0.4278375,0.1233,0.38631234879,0.48942054286,0.283204154721,1317.21,1303.46,1308.12
2006-04-27,0.4211,0.2193,0.3596,1.0,0.4219875,0.0615,0.38631234879,0.48942054286,0.283204154721,1316.04,1295.57,1310.61
2006-04-20,0.3373,0.2544,0.4083,1.0,0.420525,-0.071,0.38631234879,0.48942054286,0.283204154721,1310.39,1280.74,1309.93
2006-04-13,0.4536,0.268,0.2784,1.0,0.432375,0.1752,0.38631234879,0.48942054286,0.283204154721,1300.74,1282.96,1288.12
2006-04-06,0.4767,0.2907,0.2326,1.0,0.4259,0.2441,0.38631234879,0.48942054286,0.283204154721,1312.81,1294.71,1311.56
2006-03-30,0.3721,0.3023,0.3256,1.0,0.41655,0.0465,0.38631234879,0.48942054286,0.283204154721,1306.24,1291.84,1302.89
2006-03-23,0.4375,0.2875,0.275,1.0,0.4259125,0.1625,0.38631234879,0.48942054286,0.283204154721,1310.88,1295.81,1305.04
2006-03-16,0.4655,0.2069,0.3276,1.0,0.4096875,0.1379,0.38631234879,0.48942054286,0.283204154721,1304.4,1281.58,1303.02
2006-03-09,0.4121,0.2802,0.3077,1.0,0.414,0.1044,0.38631234879,0.48942054286,0.283204154721,1288.23,1268.42,1278.47
2006-03-02,0.4094,0.2992,0.2913,0.9999,0.4361875,0.1181,0.38631234879,0.48942054286,0.283204154721,1297.57,1278.66,1291.24
2006-02-23,0.4321,0.284,0.284,1.0001,0.4217,0.1481,0.38631234879,0.48942054286,0.283204154721,1294.17,1281.33,1292.67
2006-02-16,0.4018,0.2411,0.3571,1.0,0.4143125,0.0447,0.38631234879,0.48942054286,0.283204154721,1281.0,1258.34,1280.0
2006-02-09,0.4019,0.2523,0.3458,1.0,0.415375,0.0561,0.38631234879,0.48942054286,0.283204154721,1267.04,1253.61,1265.65
