DATE,GDPC1
2006-04-01,14589.6
2006-07-01,14602.6
2006-10-01,14716.9
2007-01-01,14726.0
2007-04-01,14838.7
2007-07-01,14938.5
2007-10-01,14991.8
2008-01-01,14889.5
2008-04-01,14963.4
2008-07-01,14891.6
2008-10-01,14577.0
2009-01-01,14375.0
2009-04-01,14355.6
2009-07-01,14402.5
2009-10-01,14541.9
2010-01-01,14604.8
2010-04-01,14745.9
2010-07-01,14845.5
2010-10-01,14939.0
2011-01-01,14881.3
2011-04-01,14989.6
2011-07-01,15021.1
2011-10-01,15190.3
2012-01-01,15291.0
2012-04-01,15362.4
2012-07-01,15380.8
2012-10-01,15384.3
2013-01-01,15457.2
2013-04-01,15500.2
2013-07-01,15614.4
2013-10-01,15761.5
2014-01-01,15724.9
2014-04-01,15901.5
2014-07-01,16068.8
2014-10-01,16151.4
2015-01-01,16177.3
2015-04-01,16333.6
2015-07-01,16414.0
2015-10-01,16442.3
