Date,S&P COMP Price,Dividend D,Earnings E,CPI,Date Fraction,Long Interest Rate GS10,Real Price,Real Dividend,Real Earnings,P/E 10 CAPE
2005-01-01,1181.41,19.70333333,59.10666667,190.7,2005.041667,4.22,1461.533338,24.37517758,73.12140904,26.5872507
2005-02-01,1199.63,19.96666667,59.66333333,191.8,2005.125,4.17,1475.5621,24.55928628,73.38675544,26.74486313
2005-03-01,1194.9,20.23,60.22,193.3,2005.208333,4.5,1458.338979,24.69009753,73.49667193,26.33914213
2005-04-01,1164.43,20.46333333,61.23333333,194.6,2005.291667,4.34,1411.657457,24.80803234,74.23416748,25.40892257
2005-05-01,1178.28,20.69666667,62.24666667,194.4,2005.375,4.14,1429.917635,25.11671983,75.54028446,25.65023019
2005-06-01,1202.25,20.93,63.26,194.5,2005.458333,4,1458.256621,25.38682559,76.73055838,26.06839487
2005-07-01,1222.24,21.11,64.33,195.4,2005.541667,4.18,1475.674967,25.487219,77.66900986,26.28787109
2005-08-01,1224.27,21.29,65.4,196.4,2005.625,4.26,1470.599794,25.57366399,78.5588363,26.10438141
2005-09-01,1225.92,21.47,66.47,198.8,2005.708333,4.2,1454.804136,25.47853432,78.88021314,25.73012299
2005-10-01,1191.96,21.72,67.59,199.2,2005.791667,4.46,1411.6633,25.72345286,80.0482587,24.87653872
2005-11-01,1237.37,21.97,68.71,197.6,2005.875,4.54,1477.309256,26.2302176,82.03360269,25.93178331
2005-12-01,1262.07,22.22,69.83,196.8,2005.958333,4.47,1512.924048,26.63653549,83.70968827,26.44380311
2006-01-01,1278.73,22.40666667,70.77666667,198.3,2006.041667,4.42,1521.30018,26.65712546,84.20272908,26.46870263
2006-02-01,1276.65,22.59333333,71.72333333,198.7,2006.125,4.57,1515.768087,26.82509196,85.1572003,26.24962476
2006-03-01,1293.74,22.78,72.67,199.8,2006.208333,4.72,1527.602283,26.89781564,85.80615727,26.32783778
2006-04-01,1302.17,23,73.27666667,201.5,2006.291667,4.99,1524.58419,26.92846278,85.79252134,26.14728094
2006-05-01,1290.01,23.22,73.88333333,202.5,2006.375,5.11,1502.888724,27.05178733,86.07563397,25.65064071
2006-06-01,1253.17,23.44,74.49,202.9,2006.458333,5.11,1457.091146,27.25425638,86.61132926,24.74958224
2006-07-01,1260.24,23.66,75.85,203.5,2006.541667,5.09,1460.991278,27.42894499,87.93260682,24.69678677
2006-08-01,1287.15,23.88,77.21,203.9,2006.625,4.88,1489.260641,27.62968117,89.33365506,25.05139356
2006-09-01,1317.74,24.1,78.57,202.9,2006.708333,4.72,1532.168251,28.02165439,91.3552442,25.64415644
2006-10-01,1363.38,24.36,79.55,201.8,2006.791667,4.73,1593.876009,28.47835496,92.99889724,26.53804028
2006-11-01,1388.64,24.62,80.53,201.5,2006.875,4.6,1625.823502,28.8251632,94.28474381,26.92802027
2006-12-01,1416.42,24.88,81.51,201.8,2006.958333,4.56,1655.883068,29.08626729,95.29025913,27.28268979
2007-01-01,1424.16,25.08333333,82.05666667,202.416,2007.041667,4.76,1659.864826,29.23473678,95.63741066,27.20753666
2007-02-01,1444.8,25.28666667,82.60333333,203.499,2007.125,4.72,1674.959191,29.31487731,95.76219018,27.31518141
2007-03-01,1406.95,25.49,83.15,205.352,2007.208333,4.56,1616.361523,29.28395125,95.52611011,26.22760555
2007-04-01,1463.64,25.71666667,83.74,206.686,2007.291667,4.69,1670.636579,29.35366895,95.58300342,26.97626831
2007-05-01,1511.14,25.94333333,84.33,207.949,2007.375,4.75,1714.378225,29.43253819,95.67182111,27.54849045
2007-06-01,1514.19,26.17,84.92,208.352,2007.458333,5.1,1714.515741,29.63226342,96.1548265,27.41826274
2007-07-01,1520.71,26.44,82.81333333,208.299,2007.541667,5,1722.336453,29.94560161,93.79330893,27.41008817
2007-08-01,1454.62,26.71,80.70666667,207.917,2007.625,4.67,1650.51065,30.30698015,91.57526563,26.14860719
2007-09-01,1497.12,26.98,78.6,208.49,2007.708333,4.52,1694.06535,30.52920483,88.93978872,26.72574305
2007-10-01,1539.66,27.23,74.46,208.936,2007.791667,4.53,1738.482518,30.74631994,84.0753207,27.32064813
2007-11-01,1463.39,27.48,70.32,210.177,2007.875,4.15,1642.607006,30.8453936,78.93188056,25.72905358
2007-12-01,1479.22,27.73,66.18,210.036,2007.958333,4.1,1661.490292,31.14690566,74.33473555,25.95551011
2008-01-01,1378.76,27.92,64.25,211.08,2008.041667,3.74,1540.991938,31.20520968,71.80998289,24.02231776
2008-02-01,1354.87,28.11,62.32,211.693,2008.125,3.74,1509.905982,31.32659012,69.45119517,23.4952634
2008-03-01,1316.94,28.3,60.39,213.528,2008.208333,3.51,1455.023251,31.26729996,66.72198743,22.60681084
2008-04-01,1370.47,28.43666667,57.38333333,214.823,2008.291667,3.68,1505.038233,31.22889998,63.01787753,23.35604064
2008-05-01,1403.22,28.57333333,54.37666667,216.632,2008.375,3.88,1528.135741,31.1169538,59.21732004,23.69643212
2008-06-01,1341.25,28.71,51.37,218.815,2008.458333,4.1,1446.07701,30.95386465,55.38488425,22.4168128
2008-07-01,1257.33,28.75666667,49.56333333,219.964,2008.541667,4.01,1348.517063,30.84222573,53.15788274,20.90720646
2008-08-01,1281.47,28.80333333,47.75666667,219.086,2008.625,3.89,1379.915821,31.01607948,51.42545663,21.40161736
2008-09-01,1216.95,28.85,45.95,218.783,2008.708333,3.69,1312.254101,31.10935602,49.54852371,20.36273395
2008-10-01,968.8,28.69666667,35.59333333,216.573,2008.791667,3.81,1055.330754,31.25978001,38.77243942,16.38735655
2008-11-01,883.04,28.54333333,25.23666667,212.425,2008.875,3.53,980.6940187,31.69989612,28.02755034,15.25965941
2008-12-01,877.56,28.39,14.88,210.228,2008.958333,2.42,984.7931918,31.85910789,16.69825732,15.37608075
2009-01-01,865.58,28.01333333,12.20666667,211.143,2009.041667,2.52,967.1399026,31.30018308,13.63889463,15.17465194
2009-02-01,805.23,27.63666667,9.533333333,212.193,2009.125,2.87,895.2568869,30.72652058,10.59918573,14.1221818
2009-03-01,757.13,27.26,6.86,212.709,2009.208333,2.82,839.7371476,30.23421954,7.608464639,13.32366766
2009-04-01,848.15,26.70333333,7.076666667,213.24,2009.291667,2.93,938.3454864,29.54306703,7.829226228,14.98186645
2009-05-01,902.41,26.14666667,7.293333333,213.856,2009.375,3.29,995.4999363,28.84387917,8.045691945,15.99635576
2009-06-01,926.12,25.59,7.51,215.693,2009.458333,3.72,1012.954618,27.98936281,8.214150633,16.38418282
2009-07-01,935.82,25.02666667,9.186666667,215.351,2009.541667,3.56,1025.189635,27.4166819,10.06398179,16.69462082
2009-08-01,1009.73,24.46333333,10.86333333,215.834,2009.625,3.59,1103.682552,26.73957807,11.87413611,18.0940698
2009-09-01,1044.55,23.9,12.54,215.969,2009.708333,3.4,1141.028764,26.10749841,13.69824394,18.83190226
2009-10-01,1067.66,23.40333333,25.35,216.177,2009.791667,3.39,1165.151137,25.5403597,27.66478216,19.35800844
2009-11-01,1088.07,22.90666667,38.16,216.33,2009.875,3.4,1186.585024,24.98066081,41.61504729,19.81276108
2009-12-01,1110.38,22.41,50.97,215.949,2009.958333,3.59,1213.051419,24.48214332,55.68294712,20.3223765
2010-01-01,1123.58,22.24,54.29,216.687,2010.041667,3.73,1223.291392,24.21367466,59.10793152,20.5278598
2010-02-01,1089.16,22.07,57.61,216.741,2010.125,3.69,1185.521371,24.0226015,62.70693578,19.92053931
2010-03-01,1152.05,21.9,60.93,217.631,2010.208333,3.73,1248.847323,23.74007759,66.04944873,21.00460121
2010-04-01,1197.32,21.94666667,62.98666667,218.009,2010.291667,3.85,1295.67056,23.74941527,68.16053325,21.8048456
2010-05-01,1125.06,21.99333333,65.04333333,218.178,2010.375,3.42,1216.531909,23.7814799,70.33161826,20.48006864
2010-06-01,1083.36,22.04,67.1,217.965,2010.458333,3.2,1172.586288,23.85522983,72.62640298,19.74203985
2010-07-01,1079.8,22.14333333,68.68666667,218.011,2010.541667,3.01,1168.486483,23.96201675,74.3280622,19.66866047
2010-08-01,1087.28,22.24666667,70.27333333,218.312,2010.625,2.7,1174.958609,24.04064503,75.94019757,19.77029917
2010-09-01,1122.08,22.35,71.86,218.439,2010.708333,2.65,1211.85991,24.13826909,77.60966519,20.38139523
2010-10-01,1171.58,22.47666667,73.69,218.711,2010.791667,2.54,1263.74689,24.24488092,79.48710996,21.24012765
2010-11-01,1198.89,22.60333333,75.52,218.803,2010.875,2.76,1292.661583,24.37126063,81.42682212,21.70072383
2010-12-01,1241.53,22.73,77.35,219.179,2010.958333,3.29,1336.340264,24.46579156,83.25688416,22.39637977
2011-01-01,1282.62,22.96333333,78.67,220.223,2011.041667,3.39,1374.023339,24.59976918,84.27625962,22.97829943
2011-02-01,1321.12,23.19666667,79.99,221.309,2011.125,3.58,1408.322015,24.7277888,85.26983011,23.4898287
2011-03-01,1304.49,23.43,81.31,223.467,2011.208333,3.41,1377.165493,24.7353276,85.83992689,22.89933643
2011-04-01,1331.51,23.73333333,82.16333333,224.906,2011.291667,3.46,1396.696895,24.89524898,86.18581349,23.14392945
2011-05-01,1338.31,24.03666667,83.01666667,225.964,2011.375,3.17,1397.256845,25.09537927,86.6731966,23.05949151
2011-06-01,1287.29,24.34,83.87,225.722,2011.458333,3,1345.430543,25.43931781,87.65799445,22.10083129
2011-07-01,1325.19,24.62,84.90666667,225.922,2011.541667,3,1383.816175,25.70918452,88.66292284,22.6109817
2011-08-01,1185.31,24.9,85.94333333,226.545,2011.625,2.3,1234.344095,25.93006721,89.49865097,20.04985272
2011-09-01,1173.88,25.18,86.98,226.889,2011.708333,1.98,1220.58784,26.18189408,90.44087159,19.69811457
2011-10-01,1207.22,25.59666667,86.97,226.421,2011.791667,2.15,1257.848958,26.67015167,90.61738861,20.15582479
2011-11-01,1226.42,26.01333333,86.96,226.23,2011.875,2.01,1278.933035,27.12717613,90.6834663,20.3452468
2011-12-01,1243.32,26.43,86.95,225.672,2011.958333,1.98,1299.762547,27.62983313,90.89723764,20.5235755
2012-01-01,1300.58,26.73666667,87.48,226.665,2012.041667,1.97,1353.665571,27.82797303,91.05065753,21.21300809
2012-02-01,1352.49,27.04333333,88.01,227.663,2012.125,1.97,1401.523503,28.02376894,91.20073603,21.79743596
2012-03-01,1389.24,27.35,88.54,229.392,2012.208333,2.17,1428.755082,28.12793433,91.05840241,22.05394397
2012-04-01,1386.43,27.67333333,88.33333333,230.085,2012.291667,2.05,1421.570549,28.37474352,90.57223599,21.77924691
2012-05-01,1341.27,27.99666667,88.12666667,229.815,2012.375,1.8,1376.881663,28.73999787,90.46649169,20.94146742
2012-06-01,1323.48,28.32,87.92,229.478,2012.458333,1.62,1360.614526,29.11460951,90.38688092,20.54750409
2012-07-01,1359.78,28.74333333,87.44666667,229.104,2012.541667,1.53,1400.215091,29.59805933,90.04702405,20.99934129
2012-08-01,1403.45,29.16666667,86.97333333,230.379,2012.625,1.68,1437.185519,29.86776229,89.06396042,21.41042845
2012-09-01,1443.42,29.59,86.5,231.407,2012.708333,1.72,1471.549933,30.16666148,88.18574579,21.7836903
2012-10-01,1437.82,30.14333333,86.50333333,231.317,2012.791667,1.75,1466.411122,30.74273501,88.2234564,21.57710965
2012-11-01,1394.51,30.69666667,86.50666667,230.221,2012.875,1.65,1429.010677,31.45611319,88.64687258,20.89816206
2012-12-01,1422.29,31.25,86.51,229.601,2012.958333,1.72,1461.413645,32.10960944,88.88967401,21.23826114
2013-01-01,1480.4,31.53666667,86.90666667,230.28,2013.041667,1.91,1516.636949,32.30861519,89.03395151,21.90047541
2013-02-01,1512.31,31.82333333,87.30333333,232.166,2013.125,1.98,1536.742073,32.33745412,88.7137594,22.05272434
2013-03-01,1550.83,32.11,87.7,232.773,2013.208333,1.96,1571.774963,32.54366633,88.88444525,22.41920711
2013-04-01,1570.7,32.49666667,88.78333333,232.531,2013.291667,1.76,1593.570058,32.96983192,90.07605633,22.5956554
2013-05-01,1639.84,32.88333333,89.86666667,232.945,2013.375,1.93,1660.759936,33.30283599,91.01312298,23.41184178
2013-06-01,1618.77,33.27,90.95,233.504,2013.458333,2.3,1635.496426,33.61377224,91.88976811,22.92533317
2013-07-01,1668.68,33.64666667,92.09,233.596,2013.541667,2.58,1685.258148,33.98094252,93.0049038,23.49246018
2013-08-01,1670.09,34.02333333,93.23,233.877,2013.625,2.74,1684.655631,34.32006663,94.04310215,23.35664909
2013-09-01,1687.17,34.4,94.37,234.149,2013.708333,2.81,1699.907593,34.65970899,95.08246329,23.44228717
2013-10-01,1720.03,34.59666667,96.31333333,233.546,2013.791667,2.62,1737.490205,34.94786107,97.29102011,23.83473789
2013-11-01,1783.54,34.79333333,98.25666667,233.069,2013.875,2.72,1805.332156,35.21845514,99.45721424,24.64207709
2013-12-01,1807.78,34.99,100.2,233.049,2013.958333,2.9,1830.025369,35.42056427,101.4329963,24.8618693
2014-01-01,1822.36,35.40333333,100.4166667,233.916,2014.041667,2.86,1837.947163,35.7061481,101.2755589,24.85960909
2014-02-01,1817.04,35.81666667,100.6333333,234.781,2014.125,2.71,1825.829907,35.98992932,101.1201458,24.59093088
2014-03-01,1863.52,36.23,100.85,236.293,2014.208333,2.72,1860.552712,36.17231087,100.6894163,24.95603915
2014-04-01,1864.26,36.61333333,101.6066667,237.072,2014.291667,2.71,1855.175476,36.43491685,101.1115382,24.7863154
2014-05-01,1889.77,36.99666667,102.3633333,237.9,2014.375,2.56,1874.015959,36.68824448,101.5099828,24.94327411
2014-06-01,1947.09,37.38,103.12,238.343,2014.458333,2.6,1927.269292,36.99948442,102.0702738,25.55800762
2014-07-01,1973.1,37.75,104.0666667,238.25,2014.541667,2.54,1953.776871,37.38030352,103.0475122,25.81754598
2014-08-01,1961.53,38.12,105.0133333,237.852,2014.625,2.42,1945.570282,37.80984188,104.1589068,25.61760642
2014-09-01,1993.23,38.49,105.96,238.031,2014.708333,2.53,1975.52564,38.14812233,105.0188372,25.91843689
2014-10-01,1937.27,38.80666667,104.7433333,237.433,2014.791667,2.3,1924.89857,38.55884683,104.0744411,25.16274828
2014-11-01,2044.57,39.12333333,103.5266667,236.151,2014.875,2.33,2042.541889,39.08452494,103.4239734,26.60681715
2014-12-01,2054.27,39.44,102.31,234.812,2014.958333,2.21,2063.934986,39.6255584,102.7913509,26.79408548
2015-01-01,2028.18,39.89666667,101.29,233.707,2015.041667,1.88,2047.356879,40.27389824,102.2477188,26.49229542
2015-02-01,2082.2,40.35333333,100.27,234.722,2015.125,1.98,2092.798531,40.55873438,100.7803807,26.9955137
2015-03-01,2079.99,40.81,99.25,236.119,2015.208333,2.04,2078.208365,40.7750438,99.16498646,26.72860545
2015-04-01,2094.86,41.12,97.80333333,236.599,2015.291667,1.94,2088.819323,41.00142756,97.52131048,26.79137168
2015-05-01,2111.94,41.43,96.35666667,237.805,2015.375,2.2,2095.170501,41.10103216,95.59156301,26.80611138
2015-06-01,2099.29,41.74,94.91,238.638,2015.458333,2.36,2075.351261,41.26402813,93.82771705,26.49589529
2015-07-01,2094.14,41.99666667,93.49333333,238.654,2015.541667,2.32,2070.121192,41.5149845,92.42100843,26.38113634
2015-08-01,2039.87,42.25333333,92.07666667,238.316,2015.625,2.17,2019.333577,41.82794725,91.14968341,25.69365842
2015-09-01,1944.41,42.51,90.66,237.945,2015.708333,2.17,1927.835793,42.14764354,89.88721156,24.49675217
2015-10-01,2024.81,42.80333333,,237.838,2015.791667,2.07,2008.45363,42.45756897,,25.49144105
2015-11-01,2080.62,43.09666667,,237.336,2015.875,2.26,2068.178061,42.8389521,,26.25299296
2015-12-01,2054.08,43.39,,236.525,2015.958333,2.24,2048.797708,43.27841785,,26.01609229
2016-01-01,1918.6,,,236.1195,2016.041667,2.13,1916.952545,,,24.35499969
2016-02-01,1903.03,,,235.91675,2016.125,Jan 15 long rate is Jan 8 value,1903.03,,,24.19267039