Algorithm,Score (1 means perfect),Hit-ratio,RMSE,Note
K-NN (k=5),0.533,53.30%,1.116,Standardized X_train
"SVM w/ linear kernel, default params",0.57,57.00%,0.976,Standardized X_train
"SVM w/ poly kernel, default",0.563,56.30%,0.974,Standardized X_train
"SMV w/ rbf kernel, default",0.572,57.17%,0.925,Standardized X_train
K-means clustering (k=5),-2991.945,8.33% ~ 21.83%,2.218,Standardized X_train
"SVM w/ GridSearch (rbf kernel, C=1, gamma = 0.0001)",0.567,56.67%,0.874,Standardized X_train
"SVR, default setting",-0.036721729,45.5% (discretized),1.0886,Standardized X_train and y_train separately
Log reg,0.572,57.17%,0.932,
SGDClassifier,0.567,56.67%,0.874,
CART Decision Tree,0.433,43.33%,1.231,
Bagging,,57.80%,,Bagging w/o SVR & SVR has a hit ratio of 60.8%
Averaging,,57.50%,,Averaging w/o SVR & SVR has a hit ratio of 61.5%