\relax 
\providecommand\hyper@newdestlabel[2]{}
\providecommand\HyperFirstAtBeginDocument{\AtBeginDocument}
\HyperFirstAtBeginDocument{\ifx\hyper@anchor\@undefined
\global\let\oldcontentsline\contentsline
\gdef\contentsline#1#2#3#4{\oldcontentsline{#1}{#2}{#3}}
\global\let\oldnewlabel\newlabel
\gdef\newlabel#1#2{\newlabelxx{#1}#2}
\gdef\newlabelxx#1#2#3#4#5#6{\oldnewlabel{#1}{{#2}{#3}}}
\AtEndDocument{\ifx\hyper@anchor\@undefined
\let\contentsline\oldcontentsline
\let\newlabel\oldnewlabel
\fi}
\fi}
\global\let\hyper@last\relax 
\gdef\HyperFirstAtBeginDocument#1{#1}
\providecommand\HyField@AuxAddToFields[1]{}
\providecommand\HyField@AuxAddToCoFields[2]{}
\citation{andersen2012novel}
\@writefile{toc}{\contentsline {section}{\numberline {1}Introduction}{1}{section.1}}
\citation{choudhry2008hybrid}
\citation{kazem2013support}
\citation{huang2005forecasting}
\citation{yeh2011multiple}
\citation{rosillo2011forecasting}
\@writefile{toc}{\contentsline {section}{\numberline {2}Problem Background and Related Work}{2}{section.2}}
\@writefile{toc}{\contentsline {subsection}{\numberline {2.1}The Stock Market Prediction Problem}{2}{subsection.2.1}}
\citation{koijen2013carry}
\@writefile{toc}{\contentsline {subsection}{\numberline {2.2}Background}{3}{subsection.2.2}}
\citation{yoo2005machine}
\citation{white1988economic}
\citation{phua2000neural}
\citation{garliauskas1999neural}
\citation{kreesuradej1994time}
\citation{saad1996advanced}
\citation{tan1995probabilistic}
\citation{wolfe1988turning}
\citation{lawrence1997using}
\citation{lawrence1997using}
\@writefile{toc}{\contentsline {subsection}{\numberline {2.3}Related Research}{4}{subsection.2.3}}
\citation{cao2001financial}
\citation{tay2001application}
\citation{tay2001improved}
\citation{kim2003financial}
\citation{huang2005forecasting}
\citation{yeh2011multiple}
\citation{shenstock}
\citation{huang2009hybrid}
\citation{huang2004credit}
\citation{chen2006comparison}
\citation{brabazon2004hybrid}
\citation{min2006hybrid}
\citation{dietterich2000ensemble}
\citation{phua2000neural}
\citation{bennett2007netflix}
\citation{bell2007bellkor}
\citation{bell2008bellkor}
\citation{koren2009bellkor}
\citation{malkiel1970efficient}
\@writefile{toc}{\contentsline {section}{\numberline {3}Financial Knowledge}{5}{section.3}}
\@writefile{toc}{\contentsline {subsection}{\numberline {3.1}Central Challenge}{5}{subsection.3.1}}
\citation{malkiel2003efficient}
\citation{fama2012size}
\citation{fama1991efficient}
\citation{chan2003stock}
\citation{vanguard}
\citation{chen1986economic}
\citation{basistha2008macroeconomic}
\@writefile{toc}{\contentsline {subsection}{\numberline {3.2}Variable Selection}{6}{subsection.3.2}}
\citation{bollen2011twitter}
\citation{brown2004investor}
\citation{sopipan2012forecasting}
\citation{bollerslev2011dynamic}
\@writefile{toc}{\contentsline {subsection}{\numberline {3.3}Two-Stage Approach}{8}{subsection.3.3}}
\@writefile{toc}{\contentsline {section}{\numberline {4}Approach}{8}{section.4}}
\citation{vapnik1999overview}
\citation{yang2002support}
\citation{kim2003financial}
\@writefile{toc}{\contentsline {subsection}{\numberline {4.1}Support Vector Machine}{9}{subsection.4.1}}
\citation{schiilkopp1995extracting}
\citation{huang2009hybrid}
\citation{vanguard}
\@writefile{toc}{\contentsline {subsection}{\numberline {4.2}Feature Selection}{11}{subsection.4.2}}
\@writefile{toc}{\contentsline {subsubsection}{\numberline {4.2.1}Naive Multi-Regression}{11}{subsubsection.4.2.1}}
\citation{goldberg1989genetic}
\citation{phua2000neural}
\@writefile{toc}{\contentsline {subsubsection}{\numberline {4.2.2}Genetic Algorithm}{12}{subsubsection.4.2.2}}
\@writefile{lot}{\contentsline {table}{\numberline {1}{\ignorespaces OLS Linear Regression Summary\relax }}{13}{table.caption.1}}
\providecommand*\caption@xref[2]{\@setref\relax\@undefined{#1}}
\newlabel{rm1}{{1}{13}{OLS Linear Regression Summary\relax }{table.caption.1}{}}
\citation{biole59}
\@writefile{toc}{\contentsline {subsubsection}{\numberline {4.2.3}Random Forest Regression}{14}{subsubsection.4.2.3}}
\citation{kazem2013support}
\citation{yang2010firefly}
\citation{TestR67}
\@writefile{toc}{\contentsline {subsubsection}{\numberline {4.2.4}Grid Search for SVM Parameter}{15}{subsubsection.4.2.4}}
\@writefile{toc}{\contentsline {subsubsection}{\numberline {4.2.5}Kernel Ridge Regression}{15}{subsubsection.4.2.5}}
\citation{yoo2005machine}
\citation{williams2001using}
\citation{Peeka60:online}
\citation{williams2001using}
\citation{yang2012nystrom}
\citation{Peeka60:online}
\citation{williams2001using}
\citation{yang2012nystrom}
\citation{williams2001using}
\citation{yang2012nystrom}
\@writefile{toc}{\contentsline {subsection}{\numberline {4.3}Kernel Approximations with Nystr{\"o}em Method and Fourier Analysis}{16}{subsection.4.3}}
\citation{dietterich2000ensemble}
\@writefile{toc}{\contentsline {subsection}{\numberline {4.4}Ensemble Methods}{17}{subsection.4.4}}
\@writefile{toc}{\contentsline {section}{\numberline {5}Implementation}{18}{section.5}}
\@writefile{toc}{\contentsline {subsection}{\numberline {5.1}Pre-Processing}{18}{subsection.5.1}}
\@writefile{toc}{\contentsline {subsubsection}{\numberline {5.1.1}Data Collection}{18}{subsubsection.5.1.1}}
\@writefile{toc}{\contentsline {subsubsection}{\numberline {5.1.2}Data Preparation}{18}{subsubsection.5.1.2}}
\@writefile{toc}{\contentsline {subsection}{\numberline {5.2}Proposed System}{18}{subsection.5.2}}
\@writefile{toc}{\contentsline {subsubsection}{\numberline {5.2.1}Stage I Model}{19}{subsubsection.5.2.1}}
\@writefile{toc}{\contentsline {subsubsection}{\numberline {5.2.2}Stage II Model}{19}{subsubsection.5.2.2}}
\@writefile{toc}{\contentsline {subsection}{\numberline {5.3}Validation}{19}{subsection.5.3}}
\@writefile{lof}{\contentsline {figure}{\numberline {1}{\ignorespaces Stage 1 Model Overview. \relax }}{20}{figure.caption.2}}
\newlabel{stage1m}{{1}{20}{Stage 1 Model Overview. \relax }{figure.caption.2}{}}
\@writefile{lof}{\contentsline {figure}{\numberline {2}{\ignorespaces Stage 2 Model Overview. \relax }}{20}{figure.caption.3}}
\newlabel{stage2m}{{2}{20}{Stage 2 Model Overview. \relax }{figure.caption.3}{}}
\@writefile{toc}{\contentsline {subsection}{\numberline {5.4}Pipelining}{20}{subsection.5.4}}
\citation{Norma63}
\@writefile{toc}{\contentsline {subsection}{\numberline {5.5}Code Base}{21}{subsection.5.5}}
\@writefile{toc}{\contentsline {section}{\numberline {6}Evaluation}{21}{section.6}}
\@writefile{toc}{\contentsline {subsection}{\numberline {6.1}Stage I}{21}{subsection.6.1}}
\@writefile{lot}{\contentsline {table}{\numberline {2}{\ignorespaces Stage I Baseline\relax }}{21}{table.caption.5}}
\newlabel{stage1baseline}{{2}{21}{Stage I Baseline\relax }{table.caption.5}{}}
\@writefile{lof}{\contentsline {figure}{\numberline {3}{\ignorespaces Normal Curve \relax }}{22}{figure.caption.4}}
\newlabel{stage1m_norm}{{3}{22}{Normal Curve \relax }{figure.caption.4}{}}
\@writefile{lof}{\contentsline {figure}{\numberline {4}{\ignorespaces Averaging Method Accuracy \relax }}{22}{figure.caption.7}}
\newlabel{stage1m_avg}{{4}{22}{Averaging Method Accuracy \relax }{figure.caption.7}{}}
\@writefile{lot}{\contentsline {table}{\numberline {3}{\ignorespaces Stage I Model Result Summary\relax }}{23}{table.caption.6}}
\newlabel{sm1}{{3}{23}{Stage I Model Result Summary\relax }{table.caption.6}{}}
\@writefile{lof}{\contentsline {figure}{\numberline {5}{\ignorespaces Bagging Method Accuracy \relax }}{23}{figure.caption.8}}
\newlabel{stage1m_bag}{{5}{23}{Bagging Method Accuracy \relax }{figure.caption.8}{}}
\@writefile{lot}{\contentsline {table}{\numberline {4}{\ignorespaces Stage II Model Result Summary, bucket = -2, training set size = (84,18)\relax }}{24}{table.caption.9}}
\newlabel{sm2_minus2}{{4}{24}{Stage II Model Result Summary, bucket = -2, training set size = (84,18)\relax }{table.caption.9}{}}
\@writefile{toc}{\contentsline {subsection}{\numberline {6.2}Stage II}{24}{subsection.6.2}}
\@writefile{toc}{\contentsline {subsection}{\numberline {6.3}Trading Strategy}{24}{subsection.6.3}}
\@writefile{lot}{\contentsline {table}{\numberline {5}{\ignorespaces Stage II Model Result Summary, bucket = -1, training set size = (231,18)\relax }}{25}{table.caption.10}}
\newlabel{sm2_minus1}{{5}{25}{Stage II Model Result Summary, bucket = -1, training set size = (231,18)\relax }{table.caption.10}{}}
\@writefile{lot}{\contentsline {table}{\numberline {6}{\ignorespaces Stage II Model Result Summary, bucket = 0, training set size = (859,18)\relax }}{25}{table.caption.11}}
\newlabel{sm2_0}{{6}{25}{Stage II Model Result Summary, bucket = 0, training set size = (859,18)\relax }{table.caption.11}{}}
\@writefile{lot}{\contentsline {table}{\numberline {7}{\ignorespaces Stage II Model Result Summary, bucket = 1, training set size = (268,18)\relax }}{26}{table.caption.12}}
\newlabel{sm2_1}{{7}{26}{Stage II Model Result Summary, bucket = 1, training set size = (268,18)\relax }{table.caption.12}{}}
\@writefile{lot}{\contentsline {table}{\numberline {8}{\ignorespaces Stage II Model Result Summary, bucket = 2, training set size = (63,18)\relax }}{26}{table.caption.13}}
\newlabel{sm2_2}{{8}{26}{Stage II Model Result Summary, bucket = 2, training set size = (63,18)\relax }{table.caption.13}{}}
\@writefile{lot}{\contentsline {table}{\numberline {9}{\ignorespaces Backtester Result Summary\relax }}{27}{table.caption.14}}
\newlabel{bt1}{{9}{27}{Backtester Result Summary\relax }{table.caption.14}{}}
\@writefile{toc}{\contentsline {section}{\numberline {7}Conclusion}{27}{section.7}}
\@writefile{toc}{\contentsline {subsection}{\numberline {7.1}Limitations}{27}{subsection.7.1}}
\@writefile{lof}{\contentsline {figure}{\numberline {6}{\ignorespaces Backtester Result Comparison \relax }}{28}{figure.caption.15}}
\newlabel{bt2}{{6}{28}{Backtester Result Comparison \relax }{figure.caption.15}{}}
\@writefile{toc}{\contentsline {subsection}{\numberline {7.2}Future Expansion}{28}{subsection.7.2}}
\@writefile{toc}{\contentsline {section}{\numberline {8}Acknowledgment}{28}{section.8}}
\citation{bstctl:etal}
\citation{bstctl:nodash}
\citation{bstctl:simpurl}
\bibstyle{IEEEtranS}
\bibdata{references}
\bibcite{andersen2012novel}{1}
\bibcite{basistha2008macroeconomic}{2}
\bibcite{bell2007bellkor}{3}
\bibcite{bell2008bellkor}{4}
\bibcite{bennett2007netflix}{5}
\bibcite{bollen2011twitter}{6}
\bibcite{bollerslev2011dynamic}{7}
\bibcite{brabazon2004hybrid}{8}
\bibcite{brown2004investor}{9}
\bibcite{cao2001financial}{10}
\bibcite{chan2003stock}{11}
\bibcite{chen1986economic}{12}
\bibcite{chen2006comparison}{13}
\bibcite{choudhry2008hybrid}{14}
\bibcite{dietterich2000ensemble}{15}
\bibcite{fama1991efficient}{16}
\bibcite{fama2012size}{17}
\bibcite{garliauskas1999neural}{18}
\bibcite{goldberg1989genetic}{19}
\bibcite{huang2009hybrid}{20}
\bibcite{huang2005forecasting}{21}
\bibcite{huang2004credit}{22}
\bibcite{vanguard}{23}
\bibcite{kazem2013support}{24}
\bibcite{kim2003financial}{25}
\bibcite{koijen2013carry}{26}
\bibcite{biole59}{27}
\bibcite{koren2009bellkor}{28}
\bibcite{kreesuradej1994time}{29}
\bibcite{lawrence1997using}{30}
\bibcite{malkiel2003efficient}{31}
\bibcite{malkiel1970efficient}{32}
\bibcite{TestR67}{33}
\bibcite{min2006hybrid}{34}
\bibcite{Peeka60:online}{35}
\bibcite{phua2000neural}{36}
\bibcite{Norma63}{37}
\bibcite{rosillo2011forecasting}{38}
\bibcite{saad1996advanced}{39}
\bibcite{schiilkopp1995extracting}{40}
\bibcite{shenstock}{41}
\bibcite{shiller2015irrational}{42}
\bibcite{sopipan2012forecasting}{43}
\bibcite{tan1995probabilistic}{44}
\bibcite{tay2001application}{45}
\bibcite{tay2001improved}{46}
\bibcite{vapnik1999overview}{47}
\bibcite{white1988economic}{48}
\bibcite{williams2001using}{49}
\bibcite{wolfe1988turning}{50}
\bibcite{yang2002support}{51}
\bibcite{yang2012nystrom}{52}
\bibcite{yang2010firefly}{53}
\bibcite{yeh2011multiple}{54}
\bibcite{yoo2005machine}{55}
\citation{vanguard}
\@writefile{lot}{\contentsline {table}{\numberline {10}{\ignorespaces Stage I Model Variables}}{31}{table.10}}
\newlabel{sm1v}{{10}{31}{Stage I Model Variables}{table.10}{}}
\gdef \LT@i {\LT@entry 
    {1}{129.43875pt}\LT@entry 
    {1}{129.43875pt}\LT@entry 
    {1}{58.97836pt}\LT@entry 
    {1}{82.46037pt}\LT@entry 
    {1}{58.97836pt}\LT@entry 
    {1}{58.97836pt}}
\citation{vanguard}
\citation{shiller2015irrational}
\citation{vanguard}
\citation{shiller2015irrational}
\citation{vanguard}
\citation{shiller2015irrational}
\citation{shiller2015irrational}
\citation{shiller2015irrational}
\citation{shiller2015irrational}
\citation{shiller2015irrational}
\citation{shiller2015irrational}
\citation{chen1986economic}
\citation{chen1986economic}
\citation{chen1986economic}
\citation{chen1986economic}
\@writefile{lot}{\contentsline {table}{\numberline {11}{\ignorespaces Stage II Model Variables}}{33}{table.11}}
\newlabel{sm2v}{{11}{33}{Stage II Model Variables}{table.11}{}}
\gdef \LT@ii {\LT@entry 
    {1}{129.43875pt}\LT@entry 
    {1}{129.43875pt}\LT@entry 
    {1}{58.97836pt}\LT@entry 
    {1}{82.46037pt}\LT@entry 
    {1}{58.97836pt}\LT@entry 
    {1}{82.46037pt}}
