This is BibTeX, Version 0.99d (TeX Live 2015)
Capacity: max_strings=35307, hash_size=35307, hash_prime=30011
The top-level auxiliary file: FinalReportDraft.aux
The style file: IEEEtranS.bst
Reallocated singl_function (elt_size=4) to 100 items from 50.
Reallocated singl_function (elt_size=4) to 100 items from 50.
Reallocated singl_function (elt_size=4) to 100 items from 50.
Reallocated wiz_functions (elt_size=4) to 6000 items from 3000.
Reallocated singl_function (elt_size=4) to 100 items from 50.
Database file #1: references.bib
-- IEEEtranS.bst version 1.13 (2008/09/30) by Michael Shell.
-- http://www.michaelshell.org/tex/ieeetran/bibtex/
-- See the "IEEEtran_bst_HOWTO.pdf" manual for usage information.
** Sorting version - not for normal IEEE work.
Too many commas in name 1 of "Joseph Davis, Ph.D. Roger Aliaga-Díaz, Ph.D. Charles J. Thomas, CFA" for entry vanguard
while executing---line 2597 of file IEEEtranS.bst
** IEEEtran BST control entry "bstctl:etal" detected.
** IEEEtran BST control entry "bstctl:nodash" detected.
** IEEEtran BST control entry "bstctl:simpurl" detected.
Warning--missing school in andersen2012novel
Too many commas in name 1 of "Joseph Davis, Ph.D. Roger Aliaga-Díaz, Ph.D. Charles J. Thomas, CFA" for entry vanguard
while executing---line 2609 of file IEEEtranS.bst
Warning--empty journal in shenstock
Warning--empty year in shenstock

Done.
You've used 58 entries,
            4498 wiz_defined-function locations,
            1208 strings with 17421 characters,
and the built_in function-call counts, 46186 in all, are:
= -- 4285
> -- 1056
< -- 370
+ -- 564
- -- 234
* -- 2265
:= -- 7104
add.period$ -- 118
call.type$ -- 58
change.case$ -- 290
chr.to.int$ -- 839
cite$ -- 61
duplicate$ -- 2995
empty$ -- 3391
format.name$ -- 269
if$ -- 10369
int.to.chr$ -- 0
int.to.str$ -- 55
missing$ -- 468
newline$ -- 188
num.names$ -- 110
pop$ -- 1069
preamble$ -- 1
purify$ -- 231
quote$ -- 8
skip$ -- 3580
stack$ -- 0
substring$ -- 2295
swap$ -- 2355
text.length$ -- 92
text.prefix$ -- 0
top$ -- 9
type$ -- 594
warning$ -- 3
while$ -- 252
width$ -- 57
write$ -- 551
(There were 2 error messages)
