\relax 
\providecommand\hyper@newdestlabel[2]{}
\providecommand\HyperFirstAtBeginDocument{\AtBeginDocument}
\HyperFirstAtBeginDocument{\ifx\hyper@anchor\@undefined
\global\let\oldcontentsline\contentsline
\gdef\contentsline#1#2#3#4{\oldcontentsline{#1}{#2}{#3}}
\global\let\oldnewlabel\newlabel
\gdef\newlabel#1#2{\newlabelxx{#1}#2}
\gdef\newlabelxx#1#2#3#4#5#6{\oldnewlabel{#1}{{#2}{#3}}}
\AtEndDocument{\ifx\hyper@anchor\@undefined
\let\contentsline\oldcontentsline
\let\newlabel\oldnewlabel
\fi}
\fi}
\global\let\hyper@last\relax 
\gdef\HyperFirstAtBeginDocument#1{#1}
\providecommand\HyField@AuxAddToFields[1]{}
\providecommand\HyField@AuxAddToCoFields[2]{}
\citation{andersen2012novel}
\@writefile{toc}{\contentsline {section}{\numberline {1}Introduction}{1}{section.1}}
\citation{choudhry2008hybrid}
\citation{kazem2013support}
\citation{huang2005forecasting}
\citation{yeh2011multiple}
\citation{rosillo2011forecasting}
\@writefile{toc}{\contentsline {section}{\numberline {2}Problem Background and Related Work}{2}{section.2}}
\@writefile{toc}{\contentsline {subsection}{\numberline {2.1}The Stock Market Prediction Problem}{2}{subsection.2.1}}
\citation{koijen2013carry}
\citation{Busin16:online}
\citation{Busin92:online}
\citation{BEVERIDGE1981151}
\citation{chen1986economic}
\citation{vanguard}
\citation{shenstock}
\citation{choudhry2008hybrid}
\citation{Genet44}
\citation{kazem2013support}
\citation{yang2010firefly}
\citation{TestR67}
\citation{biole59}
\citation{bennett2007netflix}
\citation{bell2007bellkor}
\citation{bell2008bellkor}
\citation{koren2009bellkor}
\@writefile{toc}{\contentsline {subsection}{\numberline {2.2}Background}{3}{subsection.2.2}}
\@writefile{toc}{\contentsline {subsection}{\numberline {2.3}Related Research}{3}{subsection.2.3}}
\@writefile{toc}{\contentsline {section}{\numberline {3}Approach}{4}{section.3}}
\@writefile{toc}{\contentsline {subsection}{\numberline {3.1}Financial Knowledge}{4}{subsection.3.1}}
\@writefile{toc}{\contentsline {subsection}{\numberline {3.2}Support Vector Machine}{4}{subsection.3.2}}
\@writefile{toc}{\contentsline {subsection}{\numberline {3.3}Feature Selection}{4}{subsection.3.3}}
\citation{goldberg1989genetic}
\citation{phua2000neural}
\@writefile{toc}{\contentsline {subsubsection}{\numberline {3.3.1}Naive Multi-Regression}{5}{subsubsection.3.3.1}}
\@writefile{toc}{\contentsline {subsubsection}{\numberline {3.3.2}Genetic Algorithm}{5}{subsubsection.3.3.2}}
\citation{yoo2005machine}
\citation{williams2001using}
\citation{Peeka60:online}
\citation{williams2001using}
\citation{yang2012nystrom}
\citation{Peeka60:online}
\citation{williams2001using}
\citation{yang2012nystrom}
\citation{williams2001using}
\citation{yang2012nystrom}
\@writefile{toc}{\contentsline {subsubsection}{\numberline {3.3.3}Random Forest Regression}{6}{subsubsection.3.3.3}}
\@writefile{toc}{\contentsline {subsubsection}{\numberline {3.3.4}Grid Search for SVM Parameter}{6}{subsubsection.3.3.4}}
\@writefile{toc}{\contentsline {subsection}{\numberline {3.4}Kernel Approximations with Nystr{\"o}em Method and Fourier Analysis}{7}{subsection.3.4}}
\citation{dietterich2000ensemble}
\@writefile{toc}{\contentsline {subsection}{\numberline {3.5}Ensemble Methods}{8}{subsection.3.5}}
\@writefile{toc}{\contentsline {section}{\numberline {4}Implementation}{8}{section.4}}
\@writefile{toc}{\contentsline {subsection}{\numberline {4.1}Pre-Processing}{8}{subsection.4.1}}
\@writefile{toc}{\contentsline {subsubsection}{\numberline {4.1.1}Data Collection}{8}{subsubsection.4.1.1}}
\@writefile{toc}{\contentsline {subsubsection}{\numberline {4.1.2}Data Preparation}{8}{subsubsection.4.1.2}}
\@writefile{toc}{\contentsline {subsection}{\numberline {4.2}Proposed System}{8}{subsection.4.2}}
\@writefile{toc}{\contentsline {subsubsection}{\numberline {4.2.1}Stage I Model}{9}{subsubsection.4.2.1}}
\@writefile{toc}{\contentsline {subsubsection}{\numberline {4.2.2}Stage II Model}{9}{subsubsection.4.2.2}}
\@writefile{lof}{\contentsline {figure}{\numberline {1}{\ignorespaces Stage 1 Model Overview. \relax }}{10}{figure.caption.1}}
\providecommand*\caption@xref[2]{\@setref\relax\@undefined{#1}}
\newlabel{stage1m}{{1}{10}{Stage 1 Model Overview. \relax }{figure.caption.1}{}}
\@writefile{lof}{\contentsline {figure}{\numberline {2}{\ignorespaces Stage 2 Model Overview. \relax }}{10}{figure.caption.2}}
\newlabel{stage2m}{{2}{10}{Stage 2 Model Overview. \relax }{figure.caption.2}{}}
\@writefile{toc}{\contentsline {subsection}{\numberline {4.3}Validation}{10}{subsection.4.3}}
\@writefile{toc}{\contentsline {subsection}{\numberline {4.4}Pipelining and Front-End}{10}{subsection.4.4}}
\@writefile{toc}{\contentsline {section}{\numberline {5}Evaluation}{11}{section.5}}
\citation{bstctl:etal}
\citation{bstctl:nodash}
\citation{bstctl:simpurl}
\bibstyle{IEEEtranS}
\bibdata{references}
\@writefile{toc}{\contentsline {subsection}{\numberline {5.1}Trading Strategy}{12}{subsection.5.1}}
\@writefile{toc}{\contentsline {section}{\numberline {6}Conclusion}{12}{section.6}}
\@writefile{toc}{\contentsline {subsection}{\numberline {6.1}Limitations}{12}{subsection.6.1}}
\@writefile{toc}{\contentsline {subsection}{\numberline {6.2}Future Expansion}{12}{subsection.6.2}}
\@writefile{toc}{\contentsline {section}{\numberline {7}Acknowledgemet}{12}{section.7}}
\bibcite{Busin16:online}{1}
\bibcite{andersen2012novel}{2}
\bibcite{bell2007bellkor}{3}
\bibcite{bell2008bellkor}{4}
\bibcite{bennett2007netflix}{5}
\bibcite{BEVERIDGE1981151}{6}
\bibcite{chen1986economic}{7}
\bibcite{choudhry2008hybrid}{8}
\bibcite{dietterich2000ensemble}{9}
\bibcite{goldberg1989genetic}{10}
\bibcite{huang2005forecasting}{11}
\bibcite{vanguard}{12}
\bibcite{kazem2013support}{13}
\bibcite{koijen2013carry}{14}
\bibcite{biole59}{15}
\bibcite{koren2009bellkor}{16}
\bibcite{Genet44}{17}
\bibcite{TestR67}{18}
\bibcite{Peeka60:online}{19}
\bibcite{phua2000neural}{20}
\bibcite{rosillo2011forecasting}{21}
\bibcite{Busin92:online}{22}
\bibcite{shenstock}{23}
\bibcite{williams2001using}{24}
\bibcite{yang2012nystrom}{25}
\bibcite{yang2010firefly}{26}
\bibcite{yeh2011multiple}{27}
\bibcite{yoo2005machine}{28}
